%!PS-Adobe-3.0 EPSF-3.0
%%Creator: cairo 1.12.2 (http://cairographics.org)
%%CreationDate: Sun Mar  1 19:59:29 2015
%%Pages: 1
%%DocumentData: Clean7Bit
%%LanguageLevel: 2
%%BoundingBox: 0 -1 189 77
%%EndComments
%%BeginProlog
save
50 dict begin
/q { gsave } bind def
/Q { grestore } bind def
/cm { 6 array astore concat } bind def
/w { setlinewidth } bind def
/J { setlinecap } bind def
/j { setlinejoin } bind def
/M { setmiterlimit } bind def
/d { setdash } bind def
/m { moveto } bind def
/l { lineto } bind def
/c { curveto } bind def
/h { closepath } bind def
/re { exch dup neg 3 1 roll 5 3 roll moveto 0 rlineto
      0 exch rlineto 0 rlineto closepath } bind def
/S { stroke } bind def
/f { fill } bind def
/f* { eofill } bind def
/n { newpath } bind def
/W { clip } bind def
/W* { eoclip } bind def
/BT { } bind def
/ET { } bind def
/pdfmark where { pop globaldict /?pdfmark /exec load put }
    { globaldict begin /?pdfmark /pop load def /pdfmark
    /cleartomark load def end } ifelse
/BDC { mark 3 1 roll /BDC pdfmark } bind def
/EMC { mark /EMC pdfmark } bind def
/cairo_store_point { /cairo_point_y exch def /cairo_point_x exch def } def
/Tj { show currentpoint cairo_store_point } bind def
/TJ {
  {
    dup
    type /stringtype eq
    { show } { -0.001 mul 0 cairo_font_matrix dtransform rmoveto } ifelse
  } forall
  currentpoint cairo_store_point
} bind def
/cairo_selectfont { cairo_font_matrix aload pop pop pop 0 0 6 array astore
    cairo_font exch selectfont cairo_point_x cairo_point_y moveto } bind def
/Tf { pop /cairo_font exch def /cairo_font_matrix where
      { pop cairo_selectfont } if } bind def
/Td { matrix translate cairo_font_matrix matrix concatmatrix dup
      /cairo_font_matrix exch def dup 4 get exch 5 get cairo_store_point
      /cairo_font where { pop cairo_selectfont } if } bind def
/Tm { 2 copy 8 2 roll 6 array astore /cairo_font_matrix exch def
      cairo_store_point /cairo_font where { pop cairo_selectfont } if } bind def
/g { setgray } bind def
/rg { setrgbcolor } bind def
/d1 { setcachedevice } bind def
%%EndProlog
%%Page: 1 1
%%BeginPageSetup
%%PageBoundingBox: 0 -1 189 77
%%EndPageSetup
q 0 -1 189 78 rectclip q
0.145098 0.141176 0.145098 rg
3.23 55.107 m 2.938 55.4 2.699 58.142 2.699 61.204 c 2.699 65.888 2.52 
66.618 1.574 65.837 c -0.719 63.931 -0.207 66.849 2.449 70.798 c 3.906 72.962
 5.098 75.235 5.098 75.853 c 5.098 76.466 5.398 76.97 5.766 76.97 c 7.211
 76.97 7.383 75.868 6.266 73.708 c 5.457 72.15 5.098 68.845 5.098 63.013
 c 5.098 55.282 4.707 53.63 3.23 55.107 c h
10.469 55.067 m 9.27 56.267 9.98 56.982 11.898 56.501 c 13.898 55.997 l
 13.898 62.884 l 13.898 67.11 14.219 69.771 14.727 69.771 c 15.258 69.771
 15.477 67.099 15.328 62.372 c 15.102 55.114 15.059 54.966 13.066 54.735
 c 11.953 54.603 10.781 54.755 10.469 55.067 c h
37.098 55.771 m 37.098 56.431 37.637 56.97 38.297 56.97 c 39.203 56.97 
39.5 57.95 39.5 60.97 c 39.5 64.97 l 36.699 64.97 l 35.156 64.97 33.898 
65.333 33.898 65.771 c 33.898 66.212 35.156 66.571 36.699 66.571 c 39.102
 66.571 39.5 66.837 39.5 68.446 c 39.5 69.478 40.219 70.974 41.098 71.771
 c 43.551 73.989 43.055 74.571 38.699 74.571 c 36.5 74.571 34.699 74.931
 34.699 75.372 c 34.699 75.829 37.098 76.173 40.297 76.173 c 46.559 76.173
 47.289 75.36 43.898 72.173 c 42.797 71.138 41.898 69.454 41.898 68.431 
c 41.898 66.9 42.32 66.571 44.297 66.571 c 45.617 66.571 46.699 66.212 46.699
 65.771 c 46.699 65.333 45.617 64.97 44.297 64.97 c 41.98 64.97 41.898 64.845
 41.898 61.317 c 41.898 59.31 41.527 56.97 41.07 56.118 c 40.094 54.298 
37.098 54.036 37.098 55.771 c h
52.297 62.173 m 52.297 69.239 52.188 69.771 50.699 69.771 c 49.816 69.771
 49.098 70.13 49.098 70.571 c 49.098 71.013 49.816 71.372 50.699 71.372 
c 51.941 71.372 52.297 71.903 52.297 73.771 c 52.297 75.091 52.656 76.173
 53.098 76.173 c 53.539 76.173 53.898 75.091 53.898 73.771 c 53.898 71.638
 54.164 71.372 56.297 71.372 c 58.508 71.372 58.699 71.595 58.699 74.173
 c 58.699 77.7 60.109 77.86 60.449 74.372 c 60.656 72.204 61.066 71.728 
62.898 71.517 c 64.934 71.282 65.098 71.478 65.098 74.118 c 65.098 76.122
 65.457 76.97 66.297 76.97 c 67.137 76.97 67.5 76.126 67.5 74.173 c 67.5
 71.72 67.746 71.372 69.5 71.372 c 70.598 71.372 71.5 71.013 71.5 70.571
 c 71.5 70.13 70.598 69.771 69.5 69.771 c 67.66 69.771 67.5 69.478 67.5 
66.173 c 67.5 62.571 l 58.699 62.571 l 58.699 66.173 l 58.699 69.638 58.609
 69.771 56.297 69.771 c 53.898 69.771 l 53.898 57.771 l 62.297 57.771 l 
67.363 57.771 70.699 57.454 70.699 56.97 c 70.699 56.489 67.363 56.173 62.297
 56.173 c 57.23 56.173 53.898 55.853 53.898 55.372 c 53.898 54.931 53.539
 54.571 53.098 54.571 c 52.621 54.571 52.297 57.638 52.297 62.173 c h
65.098 66.97 m 65.098 69.548 64.906 69.771 62.699 69.771 c 60.488 69.771
 60.297 69.548 60.297 66.97 c 60.297 64.392 60.488 64.173 62.699 64.173 
c 64.906 64.173 65.098 64.392 65.098 66.97 c h
76.875 55.064 m 76.586 55.349 77.059 56.485 77.926 57.587 c 79.383 59.439
 80.086 62.571 79.047 62.571 c 78.797 62.571 77.859 62.177 76.961 61.696
 c 75.875 61.118 75.059 61.091 74.527 61.622 c 74 62.15 74.766 62.915 76.816
 63.896 c 79.488 65.173 79.656 65.407 78.098 65.626 c 76.461 65.86 76.297
 66.317 76.297 70.626 c 76.297 75.372 l 93.898 75.372 l 93.898 70.63 l 93.898
 66.763 93.641 65.833 92.5 65.591 c 91.43 65.36 91.715 64.962 93.723 63.896
 c 95.168 63.13 96.137 62.161 95.879 61.739 c 95.328 60.849 91.5 62.642 
89.941 64.517 c 89.301 65.29 87.617 65.771 85.559 65.771 c 81.578 65.771
 80.012 64.607 81.277 62.583 c 82.73 60.255 78.652 53.286 76.875 55.064 
c h
84.297 68.571 m 84.297 69.411 83.453 69.771 81.5 69.771 c 79.543 69.771
 78.699 69.411 78.699 68.571 c 78.699 67.732 79.543 67.372 81.5 67.372 c
 83.453 67.372 84.297 67.732 84.297 68.571 c h
91.5 68.571 m 91.5 69.372 90.699 69.771 89.098 69.771 c 87.5 69.771 86.699
 69.372 86.699 68.571 c 86.699 67.771 87.5 67.372 89.098 67.372 c 90.699
 67.372 91.5 67.771 91.5 68.571 c h
84.297 72.571 m 84.297 73.411 83.453 73.771 81.5 73.771 c 79.543 73.771
 78.699 73.411 78.699 72.571 c 78.699 71.732 79.543 71.372 81.5 71.372 c
 83.453 71.372 84.297 71.732 84.297 72.571 c h
91.5 72.571 m 91.5 73.372 90.699 73.771 89.098 73.771 c 87.5 73.771 86.699
 73.372 86.699 72.571 c 86.699 71.771 87.5 71.372 89.098 71.372 c 90.699
 71.372 91.5 71.771 91.5 72.571 c h
89.098 59.036 m 89.098 64.911 90.992 64.634 91.34 58.708 c 91.535 55.4 
91.332 54.571 90.34 54.571 c 89.367 54.571 89.098 55.532 89.098 59.036 c
 h
0.426 27.153 m 0.082 27.712 0.387 28.54 1.148 29.095 c 2.961 30.423 3.066
 39.087 1.27 39.087 c 0.609 39.087 0.07 39.446 0.07 39.884 c 0.07 40.325
 1.148 40.685 2.469 40.685 c 4.871 40.685 l 4.871 35.466 l 4.871 30.599 
5.008 30.192 6.922 29.466 c 8.051 29.036 12.012 28.685 15.723 28.685 c 19.688
 28.685 22.469 28.357 22.469 27.884 c 22.469 26.759 8.625 26.868 6.109 28.013
 c 4.43 28.778 3.812 28.7 2.551 27.56 c 1.41 26.528 0.879 26.427 0.426 27.153
 c h
26.227 26.833 m 25.621 27.81 29.195 35.29 29.922 34.564 c 30.223 34.267
 30.469 33.489 30.469 32.841 c 30.469 31.528 32.727 29.552 34.27 29.513 
c 34.906 29.493 35.27 30.646 35.27 32.685 c 35.27 35.884 l 30.469 35.884
 l 27.805 35.884 25.668 36.239 25.668 36.685 c 25.668 37.177 29.668 37.485
 36.07 37.485 c 42.469 37.485 46.469 37.177 46.469 36.685 c 46.469 36.247
 44.488 35.884 42.07 35.884 c 38.691 35.884 37.668 35.607 37.668 34.685 
c 37.668 33.817 38.559 33.485 40.871 33.485 c 42.629 33.485 44.07 33.126
 44.07 32.685 c 44.07 32.247 42.629 31.884 40.871 31.884 c 38.203 31.884
 37.668 31.618 37.668 30.286 c 37.668 28.88 38.203 28.685 42.07 28.685 c
 44.488 28.685 46.469 28.325 46.469 27.884 c 46.469 26.528 34.711 26.919
 31.898 28.372 c 29.508 29.61 29.355 29.591 28.055 27.864 c 27.309 26.876
 26.484 26.411 26.227 26.833 c h
52.07 27.431 m 52.07 28.153 52.75 28.685 53.668 28.685 c 54.863 28.685 
55.27 29.22 55.27 30.786 c 55.27 32.692 55.047 32.841 52.871 32.407 c 51.152
 32.064 50.469 32.232 50.469 33.005 c 50.469 33.599 51.551 34.302 52.871
 34.567 c 54.902 34.974 55.27 35.415 55.27 37.466 c 55.27 39.622 55.008 
39.884 52.871 39.884 c 51.551 39.884 50.469 40.247 50.469 40.685 c 50.469
 41.126 51.551 41.485 52.871 41.485 c 54.734 41.485 55.27 41.841 55.27 43.087
 c 55.27 44.247 54.734 44.685 53.316 44.685 c 52.242 44.685 51.172 44.997
 50.934 45.38 c 50.316 46.384 59.398 48.079 60.34 47.134 c 60.82 46.653 
60.32 46.177 58.984 45.845 c 57.434 45.454 56.871 44.802 56.871 43.4 c 56.871
 41.747 57.25 41.485 59.668 41.485 c 62.453 41.485 62.469 41.505 62.469 
45.087 c 62.469 47.751 62.781 48.685 63.668 48.685 c 64.559 48.685 64.871
 47.751 64.871 45.087 c 64.871 41.485 l 68.469 41.485 l 70.449 41.485 72.07
 41.126 72.07 40.685 c 72.07 40.247 70.449 39.884 68.469 39.884 c 64.613
 39.884 64.352 39.446 65.602 35.087 c 66.18 33.087 l 67.594 35.778 l 68.57
 37.646 69.262 38.216 69.84 37.638 c 70.418 37.06 70.125 35.919 68.891 33.923
 c 67.406 31.517 67.281 30.833 68.148 29.79 c 69.082 28.665 69.289 28.685
 70.23 29.97 c 71.617 31.864 72.93 30.474 72.012 28.087 c 71.148 25.837 
69.883 25.806 67.57 27.982 c 65.766 29.677 l 62.98 27.954 l 60.898 26.665
 60.043 26.482 59.59 27.212 c 59.258 27.751 59.406 28.329 59.918 28.501 
c 60.43 28.673 61.598 29.419 62.508 30.157 c 63.98 31.349 64.094 31.962 
63.508 35.493 c 62.859 39.388 62.766 39.493 59.855 39.735 c 57.121 39.962
 56.871 39.81 56.871 37.935 c 56.871 36.439 57.289 35.884 58.422 35.884 
c 60.777 35.884 61.121 34.521 58.91 33.966 c 57.285 33.56 56.922 32.915 
56.715 30.083 c 56.496 27.044 56.238 26.657 54.27 26.431 c 52.699 26.251
 52.07 26.536 52.07 27.431 c h
77.668 30.384 m 77.668 33.821 77.488 34.329 76.539 33.544 c 74.746 32.056
 74.32 33.903 76.09 35.501 c 76.957 36.29 77.668 37.778 77.668 38.81 c 77.668
 40.118 78.129 40.685 79.184 40.685 c 80.438 40.685 81.668 42.107 81.668
 43.552 c 81.668 43.735 80.41 43.884 78.871 43.884 c 77.328 43.884 76.07
 44.247 76.07 44.685 c 76.07 45.126 77.543 45.485 79.344 45.485 c 81.945
 45.485 82.707 45.814 83.039 47.087 c 83.27 47.966 83.773 48.685 84.164 
48.685 c 84.551 48.685 84.871 47.966 84.871 47.087 c 84.871 45.626 85.402
 45.485 90.871 45.485 c 94.336 45.485 96.871 45.15 96.871 44.685 c 96.871
 44.22 94.195 43.884 90.445 43.884 c 85.051 43.884 83.938 43.661 83.516 
42.485 c 83.238 41.716 82.348 40.13 81.539 38.962 c 80.477 37.427 80.07 
35.38 80.07 31.564 c 80.07 27.403 79.816 26.286 78.871 26.286 c 77.961 26.286
 77.668 27.275 77.668 30.384 c h
27.84 4.4 m 27.84 8.802 l 24.641 8.802 l 22.328 8.802 21.441 8.466 21.441
 7.599 c 21.441 6.939 20.902 6.4 20.242 6.4 c 19.289 6.4 19.039 7.556 19.039
 12.001 c 19.039 17.599 l 23.441 17.599 l 27.824 17.599 27.84 17.61 27.84
 20.067 c 27.84 23.126 29.727 22.853 30.094 19.739 c 30.332 17.743 30.613
 17.599 34.293 17.599 c 38.242 17.599 l 38.242 12.001 l 38.242 6.767 37.414
 4.837 36.352 7.599 c 36.062 8.353 34.84 8.802 33.066 8.802 c 30.242 8.802
 l 30.242 4.4 l 30.242 1.021 29.961 0.001 29.039 0.001 c 28.121 0.001 27.84
 1.021 27.84 4.4 c h
27.84 13.2 m 27.84 15.935 27.766 16.001 24.641 16.001 c 21.516 16.001 21.441
 15.935 21.441 13.2 c 21.441 10.466 21.516 10.4 24.641 10.4 c 27.766 10.4
 27.84 10.466 27.84 13.2 c h
36.641 13.2 m 36.641 15.935 36.566 16.001 33.441 16.001 c 30.316 16.001
 30.242 15.935 30.242 13.2 c 30.242 10.466 30.316 10.4 33.441 10.4 c 36.566
 10.4 36.641 10.466 36.641 13.2 c h
57.441 0.747 m 57.441 1.157 58.43 1.607 59.641 1.747 c 61.84 2.001 l 62.07
 9.802 l 62.301 17.599 l 59.055 17.599 l 56.352 17.599 55.652 17.259 54.883
 15.567 c 54.352 14.411 53.504 13.712 52.898 13.942 c 52.078 14.259 51.84
 12.931 51.84 7.974 c 51.84 2.841 51.605 1.599 50.641 1.599 c 49.98 1.599
 49.441 1.958 49.441 2.4 c 49.441 3.677 45.66 3.325 45.152 2.001 c 44.898
 1.341 44.32 0.802 43.867 0.802 c 43.348 0.802 43.039 4.212 43.039 10.001
 c 43.039 17.45 43.258 19.2 44.188 19.2 c 44.816 19.2 45.562 19.919 45.84
 20.802 c 46.496 22.868 47.84 22.868 47.84 20.802 c 47.84 19.626 48.375 
19.2 49.84 19.2 c 51.473 19.2 51.855 18.794 51.91 17.001 c 51.977 15.04 
52.172 15.216 53.711 18.583 c 54.664 20.665 55.879 22.376 56.414 22.384 
c 56.957 22.392 57.184 21.864 56.93 21.2 c 56.559 20.232 57.254 20.001 60.555
 20.001 c 64.641 20.001 l 64.641 11.778 l 64.641 2.31 63.691 0.001 59.797
 0.001 c 58.5 0.001 57.441 0.337 57.441 0.747 c h
49.441 7.599 m 49.441 10.052 49.191 10.4 47.441 10.4 c 45.688 10.4 45.441
 10.052 45.441 7.599 c 45.441 5.146 45.688 4.802 47.441 4.802 c 49.191 4.802
 49.441 5.146 49.441 7.599 c h
49.441 14.802 m 49.441 17.255 49.191 17.599 47.441 17.599 c 45.688 17.599
 45.441 17.255 45.441 14.802 c 45.441 12.345 45.688 12.001 47.441 12.001
 c 49.191 12.001 49.441 12.345 49.441 14.802 c h
77.441 2.806 m 77.441 5.61 l 74.121 3.204 l 70.684 0.716 69.07 0.259 68.27
 1.552 c 68.012 1.97 69.078 2.911 70.637 3.65 c 74.422 5.45 74.855 6.4 71.887
 6.4 c 69.625 6.4 69.441 6.61 69.441 9.2 c 69.441 12.001 l 73.441 12.001
 l 76.465 12.001 77.441 12.294 77.441 13.2 c 77.441 14.099 76.484 14.4 73.633
 14.4 c 68.66 14.4 67.172 16.29 69.258 19.958 c 70.582 22.282 72.641 23.282
 72.641 21.599 c 72.641 21.161 74.082 20.802 75.84 20.802 c 77.602 20.802
 79.039 20.439 79.039 20.001 c 79.039 19.56 78.152 19.2 77.066 19.2 c 75.641
 19.2 75.219 18.868 75.551 18.001 c 75.844 17.239 75.539 16.802 74.727 16.802
 c 74.02 16.802 73.441 17.341 73.441 18.001 c 73.441 19.743 71.242 19.47
 70.242 17.599 c 69.406 16.044 69.633 16.001 78.613 16.001 c 87.84 16.001
 l 87.84 10.4 l 83.84 10.4 l 80.82 10.4 79.84 10.107 79.84 9.2 c 79.84 8.278
 80.867 8.001 84.289 8.001 c 88.738 8.001 l 88.488 5.001 l 88.262 2.263 
88.016 1.978 85.641 1.751 c 82.812 1.478 82.051 2.755 84.641 3.431 c 85.52
 3.661 86.242 4.423 86.242 5.126 c 86.242 6.079 85.438 6.4 83.039 6.4 c 
79.84 6.4 79.84 6.4 79.84 3.2 c 79.84 0.888 79.508 0.001 78.641 0.001 c 
77.801 0.001 77.441 0.845 77.441 2.806 c h
77.441 9.2 m 77.441 10.036 76.598 10.4 74.641 10.4 c 72.684 10.4 71.84 
10.036 71.84 9.2 c 71.84 8.36 72.684 8.001 74.641 8.001 c 76.598 8.001 77.441
 8.36 77.441 9.2 c h
85.441 13.2 m 85.441 14.036 84.598 14.4 82.641 14.4 c 80.684 14.4 79.84
 14.036 79.84 13.2 c 79.84 12.36 80.684 12.001 82.641 12.001 c 84.598 12.001
 85.441 12.36 85.441 13.2 c h
119.039 6.376 m 119.039 11.712 118.848 12.673 117.84 12.29 c 116.203 11.661
 116.309 12.232 118.809 17.681 c 120.934 22.317 122.895 24.138 121.945 20.599
 c 121.68 19.61 121.457 14.571 121.453 9.4 c 121.441 1.583 121.238 0.001
 120.242 0.001 c 119.273 0.001 119.039 1.243 119.039 6.376 c h
123.039 10.802 m 123.039 21.599 l 139.039 21.599 l 139.039 10.802 l 139.039
 1.732 138.848 0.001 137.84 0.001 c 137.18 0.001 136.641 0.36 136.641 0.802
 c 136.641 1.259 134.242 1.599 131.039 1.599 c 127.84 1.599 125.441 1.259
 125.441 0.802 c 125.441 0.36 124.902 0.001 124.242 0.001 c 123.234 0.001
 123.039 1.732 123.039 10.802 c h
136.641 11.599 m 136.641 20.001 l 125.441 20.001 l 125.441 3.2 l 136.641
 3.2 l h
127.84 8.802 m 127.84 11.11 128.176 12.001 129.039 12.001 c 129.699 12.001
 130.242 12.54 130.242 13.2 c 130.242 13.868 129.531 14.4 128.641 14.4 c
 127.762 14.4 127.039 14.759 127.039 15.2 c 127.039 15.642 127.762 16.001
 128.641 16.001 c 129.531 16.001 130.242 16.532 130.242 17.2 c 130.242 17.86
 130.781 18.4 131.441 18.4 c 132.102 18.4 132.641 17.86 132.641 17.2 c 132.641
 16.532 133.352 16.001 134.242 16.001 c 135.121 16.001 135.84 15.642 135.84
 15.2 c 135.84 14.759 135.121 14.4 134.242 14.4 c 133.352 14.4 132.641 13.868
 132.641 13.2 c 132.641 12.54 133.18 12.001 133.84 12.001 c 134.707 12.001
 135.039 11.11 135.039 8.802 c 135.039 5.599 l 127.84 5.599 l h
133.441 8.802 m 133.441 9.974 132.906 10.4 131.441 10.4 c 129.973 10.4 
129.441 9.974 129.441 8.802 c 129.441 7.626 129.973 7.2 131.441 7.2 c 132.906
 7.2 133.441 7.626 133.441 8.802 c h
145.441 4.579 m 145.441 8.966 145.387 9.079 144.188 7.364 c 142.168 4.482
 141.301 6.189 143.047 9.61 c 144.953 13.349 145.039 14.4 143.441 14.4 c
 142.781 14.4 142.242 14.759 142.242 15.2 c 142.242 15.642 142.961 16.001
 143.84 16.001 c 144.906 16.001 145.441 16.532 145.441 17.599 c 145.441 
18.665 144.906 19.2 143.84 19.2 c 142.961 19.2 142.242 19.536 142.242 19.946
 c 142.242 20.685 143.047 21.009 147.191 21.927 c 149.723 22.489 151.008
 21.15 148.652 20.403 c 146.418 19.696 146.41 16.001 148.641 16.001 c 149.52
 16.001 150.242 15.681 150.242 15.294 c 150.242 14.903 149.52 14.4 148.641
 14.169 c 147.762 13.939 147.039 13.4 147.039 12.97 c 147.039 12.54 147.762
 11.997 148.641 11.767 c 149.52 11.536 150.242 10.775 150.242 10.075 c 150.242
 8.411 149.477 8.458 148.156 10.2 c 147.238 11.407 147.09 10.794 147.066
 5.802 c 147.051 2.485 146.699 0.001 146.242 0.001 c 145.801 0.001 145.441
 2.06 145.441 4.579 c h
167.309 0.567 m 166.652 0.794 166.594 1.638 167.109 3.439 c 167.512 4.841
 167.84 9.321 167.84 13.396 c 167.84 20.802 l 172.973 20.802 l 176.297 20.802
 178.273 21.153 178.574 21.802 c 178.949 22.599 179.133 22.599 179.508 21.802
 c 179.797 21.181 181.625 20.802 184.309 20.802 c 186.691 20.802 188.641
 20.439 188.641 20.001 c 188.641 19.513 185.078 19.2 179.547 19.2 c 170.453
 19.2 l 170.039 11.4 l 169.602 3.118 168.824 0.044 167.309 0.567 c h
176.641 1.2 m 176.641 1.86 177.18 2.4 177.84 2.4 c 178.707 2.4 179.039 
3.29 179.039 5.599 c 179.039 8.802 l 175.441 8.802 l 173.461 8.802 171.84
 9.161 171.84 9.599 c 171.84 10.04 173.371 10.411 175.242 10.427 c 178.328
 10.45 178.504 10.552 177.16 11.571 c 174.965 13.235 176.309 14.802 178.625
 13.282 c 180.305 12.185 180.59 12.216 181.875 13.638 c 183.262 15.169 183.195
 15.2 178.363 15.2 c 175.617 15.2 173.441 15.552 173.441 16.001 c 173.441
 16.47 176.242 16.802 180.242 16.802 c 184.305 16.802 187.039 16.474 187.039
 15.989 c 187.039 15.544 185.871 14.114 184.441 12.814 c 181.84 10.446 l
 185.242 10.423 l 187.109 10.411 188.641 10.071 188.641 9.665 c 188.641 
8.036 187.609 6.4 186.582 6.4 c 185.941 6.4 185.68 6.896 185.953 7.599 c
 186.301 8.509 185.809 8.802 183.926 8.802 c 181.531 8.802 181.441 8.677
 181.441 5.36 c 181.441 3.47 181.008 1.489 180.48 0.958 c 179.129 -0.39 
176.641 -0.237 176.641 1.2 c h
24.297 55.942 m 24.297 56.255 25.289 57.302 26.5 58.271 c 28.699 60.028
 l 26.836 62.017 l 25.168 63.802 25.062 64.317 25.832 67.087 c 26.98 71.224
 26.918 72.173 25.5 72.173 c 24.84 72.173 24.297 72.532 24.297 72.97 c 24.297
 73.411 25.02 73.771 25.898 73.771 c 26.965 73.771 27.5 74.306 27.5 75.372
 c 27.5 76.259 28.031 76.97 28.699 76.97 c 29.363 76.97 29.898 76.259 29.898
 75.372 c 29.898 74.189 30.43 73.771 31.945 73.771 c 33.93 73.771 33.98 
73.65 33.48 69.97 c 33.199 67.88 32.602 64.978 32.156 63.521 c 31.504 61.396
 31.594 60.591 32.621 59.458 c 34.242 57.665 33.281 56.56 31.5 58.169 c 
30.309 59.247 29.984 59.165 28.297 57.372 c 26.527 55.485 24.297 54.689 
24.297 55.942 c h
31.113 68.372 m 31.582 71.528 31.469 72.173 30.426 72.173 c 29.66 72.173
 28.852 71.005 28.34 69.173 c 27.273 65.337 27.289 64.7 28.465 63.525 c 
29.742 62.247 30.371 63.403 31.113 68.372 c h
82.469 27.884 m 82.469 28.325 83.73 28.685 85.27 28.685 c 88.004 28.685
 88.07 28.763 88.07 31.884 c 88.07 34.907 87.938 35.087 85.668 35.087 c 
84.348 35.087 83.27 35.446 83.27 35.884 c 83.27 36.325 84.348 36.685 85.668
 36.685 c 87.805 36.685 88.07 36.954 88.07 39.087 c 88.07 40.685 88.469 
41.485 89.27 41.485 c 90.07 41.485 90.469 40.685 90.469 39.087 c 90.469 
36.954 90.734 36.685 92.871 36.685 c 94.191 36.685 95.27 36.325 95.27 35.884
 c 95.27 35.446 94.191 35.087 92.871 35.087 c 90.602 35.087 90.469 34.907
 90.469 31.884 c 90.469 28.685 90.469 28.685 93.668 28.685 c 95.43 28.685
 96.871 28.325 96.871 27.884 c 96.871 27.411 93.938 27.087 89.668 27.087
 c 85.402 27.087 82.469 27.411 82.469 27.884 c h
150.242 1.599 m 150.242 2.04 151.68 2.4 153.441 2.4 c 156.109 2.4 156.641
 2.665 156.641 4.001 c 156.641 5.243 156.109 5.599 154.242 5.599 c 152.922
 5.599 151.84 5.958 151.84 6.4 c 151.84 6.841 152.922 7.2 154.242 7.2 c 
156.109 7.2 156.641 7.556 156.641 8.802 c 156.641 10.095 156.109 10.4 153.84
 10.4 c 152.301 10.4 151.039 10.759 151.039 11.2 c 151.039 11.665 153.707
 12.001 157.441 12.001 c 161.176 12.001 163.84 11.665 163.84 11.2 c 163.84
 10.759 162.762 10.4 161.441 10.4 c 159.574 10.4 159.039 10.044 159.039 
8.802 c 159.039 7.626 159.574 7.2 161.039 7.2 c 162.141 7.2 163.039 6.841
 163.039 6.4 c 163.039 5.958 162.141 5.599 161.039 5.599 c 159.574 5.599
 159.039 5.173 159.039 4.001 c 159.039 2.755 159.574 2.4 161.441 2.4 c 162.762
 2.4 163.84 2.04 163.84 1.599 c 163.84 1.13 161.039 0.802 157.039 0.802 
c 153.039 0.802 150.242 1.13 150.242 1.599 c h
109.098 58.571 m 109.098 59.462 109.633 60.173 110.297 60.173 c 110.965
 60.173 111.5 59.462 111.5 58.571 c 111.5 57.681 110.965 56.97 110.297 56.97
 c 109.633 56.97 109.098 57.681 109.098 58.571 c h
3.75 3.599 m -0.387 5.849 -1.34 13.575 2.098 17.013 c 5.027 19.942 13.559
 19.513 14.762 16.376 c 15.551 14.314 14.453 14.114 12.176 15.907 c 9.34
 18.142 6.613 18.048 4.203 15.638 c 0.246 11.681 2.91 4.001 8.242 4.001 
c 9.391 4.001 11.211 4.9 12.328 6.017 c 14.414 8.099 16.121 8.06 15.309 
5.946 c 14.117 2.837 7.59 1.513 3.75 3.599 c h
7.5 58.263 m 7.5 59.579 10.352 66.571 10.887 66.571 c 11.934 66.571 11.559
 63.556 10.148 60.599 c 8.969 58.126 7.5 56.829 7.5 58.263 c h
18.895 61.911 m 17.91 66.052 18.098 67.521 19.438 66.118 c 20.426 65.079
 21.93 59.271 21.422 58.446 c 20.523 56.997 19.836 57.939 18.895 61.911 
c h
8.07 33.087 m 8.07 35.884 l 20.871 35.884 l 20.871 30.286 l 8.07 30.286
 l h
18.469 33.087 m 18.469 34.005 17.449 34.286 14.07 34.286 c 10.691 34.286
 9.668 34.005 9.668 33.087 c 9.668 32.165 10.691 31.884 14.07 31.884 c 17.449
 31.884 18.469 32.165 18.469 33.087 c h
109.602 63.579 m 109.336 64.564 109.113 67.442 109.109 69.97 c 109.102 
73.532 109.371 74.571 110.297 74.571 c 111.258 74.571 111.5 73.376 111.5
 68.618 c 111.5 62.72 110.523 60.134 109.602 63.579 c h
55.93 9.321 m 54.48 12.501 56.18 13.614 57.773 10.532 c 59.316 7.548 59.336
 7.2 57.969 7.2 c 57.379 7.2 56.461 8.153 55.93 9.321 c h
92.641 11.2 m 92.641 11.692 96.773 12.001 103.441 12.001 c 110.109 12.001
 114.242 11.692 114.242 11.2 c 114.242 10.708 110.109 10.4 103.441 10.4 
c 96.773 10.4 92.641 10.708 92.641 11.2 c h
8.07 38.286 m 8.07 38.747 10.602 39.087 14.07 39.087 c 17.535 39.087 20.07
 38.747 20.07 38.286 c 20.07 37.825 17.535 37.485 14.07 37.485 c 10.602 
37.485 8.07 37.825 8.07 38.286 c h
6.875 67.97 m 7.531 69.247 9.688 74.239 10.156 75.571 c 10.941 77.802 12.547
 77.271 11.969 74.97 c 11.473 72.989 11.52 72.97 16.684 72.97 c 22.051 72.97
 22.594 72.567 21.07 69.72 c 19.977 67.677 18.445 67.716 19.098 69.771 c
 19.566 71.239 19.242 71.372 15.137 71.372 c 11.141 71.372 10.566 71.157
 9.754 69.372 c 9.25 68.271 8.328 67.372 7.703 67.372 c 7.078 67.372 6.703
 67.642 6.875 67.97 c h
28.871 43.485 m 28.871 47.884 l 44.07 47.884 l 44.07 39.087 l 28.871 39.087
 l h
41.668 41.884 m 41.668 42.829 40.559 43.087 36.469 43.087 c 32.379 43.087
 31.27 42.829 31.27 41.884 c 31.27 40.942 32.379 40.685 36.469 40.685 c 
40.559 40.685 41.668 40.942 41.668 41.884 c h
41.668 45.485 m 41.668 45.939 39.402 46.286 36.469 46.286 c 33.535 46.286
 31.27 45.939 31.27 45.485 c 31.27 45.036 33.535 44.685 36.469 44.685 c 
39.402 44.685 41.668 45.036 41.668 45.485 c h
8.07 40.685 m 8.07 41.15 10.602 41.485 14.07 41.485 c 17.535 41.485 20.07
 41.15 20.07 40.685 c 20.07 40.224 17.535 39.884 14.07 39.884 c 10.602 39.884
 8.07 40.224 8.07 40.685 c h
151.84 18.4 m 151.84 21.599 l 163.039 21.599 l 163.039 15.2 l 151.84 15.2
 l h
161.441 18.4 m 161.441 19.763 160.906 20.001 157.84 20.001 c 154.773 20.001
 154.242 19.763 154.242 18.4 c 154.242 17.036 154.773 16.802 157.84 16.802
 c 160.906 16.802 161.441 17.036 161.441 18.4 c h
6.469 43.884 m 6.469 44.364 9.535 44.685 14.07 44.685 c 18.602 44.685 21.668
 44.364 21.668 43.884 c 21.668 43.407 18.602 43.087 14.07 43.087 c 9.535
 43.087 6.469 43.407 6.469 43.884 c h
67.742 44.607 m 66.777 45.669 66.637 46.294 67.27 46.685 c 67.77 46.993
 68.68 46.579 69.297 45.767 c 71.449 42.927 70.145 41.95 67.742 44.607 c
 h
78.848 17.263 m 78.145 17.962 80.898 22.388 82.039 22.396 c 82.59 22.396
 83.039 22.04 83.039 21.599 c 83.039 21.161 84.48 20.802 86.242 20.802 c
 88 20.802 89.441 20.439 89.441 20.001 c 89.441 19.56 88.723 19.2 87.84 
19.2 c 86.953 19.2 86.242 18.665 86.242 18.001 c 86.242 17.341 85.918 16.802
 85.527 16.802 c 85.133 16.802 84.605 17.341 84.352 18.001 c 84.098 18.661
 83.328 19.2 82.641 19.2 c 81.953 19.2 81.184 18.661 80.93 18.001 c 80.453
 16.755 79.641 16.466 78.848 17.263 c h
2.098 45.454 m 1.336 46.298 0.953 47.372 1.246 47.849 c 1.898 48.903 2.992
 48.302 4.066 46.29 c 5.188 44.192 3.781 43.595 2.098 45.454 c h
8.871 47.087 m 8.871 47.536 11.137 47.884 14.07 47.884 c 17.004 47.884 
19.27 47.536 19.27 47.087 c 19.27 46.634 17.004 46.286 14.07 46.286 c 11.137
 46.286 8.871 46.634 8.871 47.087 c h
f
Q Q
showpage
%%Trailer
end restore
%%EOF
