%!PS-Adobe-3.0 EPSF-3.0
%%Creator: cairo 1.12.2 (http://cairographics.org)
%%CreationDate: Mon Mar  2 20:31:26 2015
%%Pages: 1
%%DocumentData: Clean7Bit
%%LanguageLevel: 2
%%BoundingBox: 0 -1 260 323
%%EndComments
%%BeginProlog
save
50 dict begin
/q { gsave } bind def
/Q { grestore } bind def
/cm { 6 array astore concat } bind def
/w { setlinewidth } bind def
/J { setlinecap } bind def
/j { setlinejoin } bind def
/M { setmiterlimit } bind def
/d { setdash } bind def
/m { moveto } bind def
/l { lineto } bind def
/c { curveto } bind def
/h { closepath } bind def
/re { exch dup neg 3 1 roll 5 3 roll moveto 0 rlineto
      0 exch rlineto 0 rlineto closepath } bind def
/S { stroke } bind def
/f { fill } bind def
/f* { eofill } bind def
/n { newpath } bind def
/W { clip } bind def
/W* { eoclip } bind def
/BT { } bind def
/ET { } bind def
/pdfmark where { pop globaldict /?pdfmark /exec load put }
    { globaldict begin /?pdfmark /pop load def /pdfmark
    /cleartomark load def end } ifelse
/BDC { mark 3 1 roll /BDC pdfmark } bind def
/EMC { mark /EMC pdfmark } bind def
/cairo_store_point { /cairo_point_y exch def /cairo_point_x exch def } def
/Tj { show currentpoint cairo_store_point } bind def
/TJ {
  {
    dup
    type /stringtype eq
    { show } { -0.001 mul 0 cairo_font_matrix dtransform rmoveto } ifelse
  } forall
  currentpoint cairo_store_point
} bind def
/cairo_selectfont { cairo_font_matrix aload pop pop pop 0 0 6 array astore
    cairo_font exch selectfont cairo_point_x cairo_point_y moveto } bind def
/Tf { pop /cairo_font exch def /cairo_font_matrix where
      { pop cairo_selectfont } if } bind def
/Td { matrix translate cairo_font_matrix matrix concatmatrix dup
      /cairo_font_matrix exch def dup 4 get exch 5 get cairo_store_point
      /cairo_font where { pop cairo_selectfont } if } bind def
/Tm { 2 copy 8 2 roll 6 array astore /cairo_font_matrix exch def
      cairo_store_point /cairo_font where { pop cairo_selectfont } if } bind def
/g { setgray } bind def
/rg { setrgbcolor } bind def
/d1 { setcachedevice } bind def
%%EndProlog
%%Page: 1 1
%%BeginPageSetup
%%PageBoundingBox: 0 -1 260 323
%%EndPageSetup
q 0 -1 260 324 rectclip q
0 g
154.906 152.06 m 149.559 151.986 155.918 149.31 162.898 148.236 c 164.828
 149.744 166.574 151.259 168.133 152.74 c 163.785 151.677 159.363 151.654
 154.906 152.06 c f
183.602 159.209 m 186.785 163.599 189.105 168.408 189.918 173.377 c 189.207
 169.834 187.285 166.775 185.469 163.545 c 175.48 157.259 184.527 167.279
 185.465 171.087 c 174.723 157.572 183.988 162.982 183.602 159.209 c f
194.191 186.748 m 194.84 196.369 192.297 193.33 191.441 189.658 c 192.441
 189.138 193.227 182.877 194.191 186.748 c f
134.633 318.24 m 137.484 317.728 140.801 317.337 140.332 316.658 c 143.453
 317.341 144.164 317.97 134.633 318.24 c f
140.332 316.658 m 138.316 316.24 l 140.195 316.408 l 140.332 316.658 l f
229.301 183.103 m 229.617 174.462 226.773 170.271 224.203 162.849 c 219.586
 160.545 l 215.805 153.205 219.953 155.88 217.242 150.045 c 211.34 144.802
 199.332 133.638 195.492 132.615 c 192.68 132.677 197.391 135.923 198.008
 137.197 c 190.105 131.775 191.664 129.056 179.578 125.763 c 179.227 126.548
 l 149.422 112.537 108.02 140.302 108.562 178.189 c 108.246 175.787 107.66
 176.384 107 175.412 c 105.461 194.908 116.008 214.486 133.797 222.482 c
 151.195 231.087 171.59 227.556 184.055 215.951 c 177.211 224.908 163.586
 234.408 147.438 233.517 c 131.617 233.271 116.82 223.224 111.879 212.318
 c 103.777 207.22 102.836 192.666 99.305 190.002 c 94.551 155.107 108.238
 140.037 131.398 122.302 c 135.039 119.845 132.422 119.474 132.914 117.607
 c 125.223 121.205 118.176 126.638 112.383 133.295 c 115.457 128.802 118.773
 124.427 123.062 120.998 c 115.809 123.455 106.117 138.56 103.289 139.177
 c 115.793 116.802 154.016 99.943 174.039 108.31 c 164.773 107.966 153.008
 108.119 142.602 111.962 c 138.227 114.209 132.285 118.865 133.348 119.736
 c 160.664 109.541 188.883 112.013 212.52 130.947 c 218.535 135.627 225.102
 143.587 227 143.697 c 224.141 139.404 227.488 141.63 225.293 137.841 c 
231.281 147.498 222.691 141.771 231.484 154.517 c 234.734 150.045 l 233.523
 158.064 244.695 167.798 243.559 180.474 c 246.125 184.349 246.418 176.302
 243.699 167.384 c 247.473 177.279 244.695 178.869 245.664 187.033 c 246.711
 184.287 248.09 181.373 248.793 178.474 c 246.332 188.037 251.309 194.576
 252.543 200.134 c 251.328 200.67 248.75 195.904 248.164 207.201 c 248.25
 212.107 249.531 209.771 250.023 210.978 c 249.059 211.533 246.527 215.291
 244.992 222.505 c 246.105 224.201 247.973 218.111 249.488 217.861 c 248.512
 223.595 246.832 227.97 246.762 232.369 c 242.328 241.627 245.195 231.134
 241.598 236.341 c 236.883 251.048 245.512 239.755 246.094 246.439 c 253.25
 236.084 257.324 220.037 259.199 213.388 c 257.77 221.494 255.465 229.345
 252.641 236.939 c 254.816 236.029 249.145 253.615 255.469 241.966 c 248.715
 266.798 226.566 289.998 206.188 300.884 c 208.676 298.603 211.828 295.744
 210.699 295.295 c 200.562 301.322 202.344 301.791 200.891 304.341 c 192.641
 307.697 192.098 304.068 186.629 304.334 c 171.07 312.58 168.07 311.705 
153.75 316.869 c 154.402 313.83 l 144.094 317.259 142.391 312.529 131.25
 313.818 c 130.574 314.345 134.82 315.732 138.316 316.24 c 128.352 314.927
 128.816 318.201 119.066 315.877 c 121.469 317.564 124.012 318.677 126.574
 320.111 c 118.445 319.619 107.172 315.384 110.652 319.232 c 97.395 313.322
 73.852 305.025 60.637 292.646 c 60.223 295.42 l 54.168 288.158 33.82 273.732
 32.199 264.326 c 30.582 263.947 l 27.43 258.615 25.391 252.576 22.895 247.091
 c 18.773 240.076 16.855 244.392 17.441 243.291 c 9.336 226.873 5.312 213.076
 1.832 201.759 c 4.312 198.056 1.891 179.478 2.828 164.607 c -1.242 91.162
 54.41 19.853 115.242 3.392 c 124.16 0.205 137.414 0.326 148.695 0.002 c
 135.387 3.806 133.668 2.017 120.707 6.533 c 111.355 10.935 109.309 15.959
 102.684 21.701 c 105.305 17.072 l 92.316 21.662 97.754 22.759 87.184 26.103
 c 89.984 29.752 l 85.773 30.076 78.832 36.841 76.934 40.595 c 72.332 40.416
 l 66.797 47.236 63.848 52.154 64.062 55.966 c 62.574 53.318 l 60.887 56.209
 42.215 78.904 51.902 73.623 c 50.102 75.263 47.711 76.298 45.117 81.009
 c 47.09 83.259 l 42.43 89.252 38.508 96.935 38.809 99.494 c 41.293 96.138
 43.02 95.509 44.727 94.935 c 32.957 124.127 32.293 96.545 23.379 124.65
 c 25.266 124.798 l 23.82 126.974 22.941 129.337 21.777 131.658 c 22.598
 139.834 l 14.129 149.611 20.234 181.459 21.457 198.923 c 22.305 206.025
 28.531 213.587 33.266 225.443 c 30.383 225.939 l 35.898 235.552 61.875 
264.548 73.906 263.056 c 79.734 270.373 72.75 263.084 71.609 264.927 c 84.41
 278.166 88.438 274.279 97.078 276.662 c 106.395 282.189 89.078 274.505 
93.496 278.771 c 109.605 282.88 104.914 288.115 125.926 290.205 c 128.141
 288.943 120.781 288.255 118.934 286.623 c 132.355 293.181 161.402 291.689
 180.27 282.978 c 202.164 272.755 226.762 242.533 227.73 214.095 c 228.836
 213.798 l 228.281 202.498 230.566 189.423 226.598 177.416 c 229.301 183.103
 l f
96.555 144.728 m 95.805 140.982 l 99.316 136.216 102.105 131.048 106.59
 127.322 c 103.363 133.615 100.965 136.216 96.555 144.728 c f
104.859 145.052 m 103 147.107 101.898 149.584 100.668 152.045 c 101.848
 147.712 104.258 143.99 106.504 140.205 c 104.859 145.052 l f
251.84 176.978 m 251.059 175.009 l 249.617 164.787 246.508 154.673 241.742
 145.298 c 247.004 155.193 250.41 166.013 251.84 176.978 c f
135.691 320.802 m 139.309 322.127 144.578 321.529 148.41 322.4 c 143.414
 321.982 138.441 321.732 133.523 321.099 c 135.691 320.802 l f
8.789 253.373 m 9.621 245.666 2.988 242.677 10.258 247.755 c 14.156 256.529
 8.734 250.177 8.789 253.373 c f
0.246 217.709 m 1.918 222.845 2.223 225.931 2.863 228.904 c -1.766 222.994
 0.73 221.732 0.246 217.709 c f
Q Q
showpage
%%Trailer
end restore
%%EOF
