%!PS-Adobe-3.0 EPSF-3.0
%%Creator: cairo 1.12.2 (http://cairographics.org)
%%CreationDate: Sun Mar  1 22:13:20 2015
%%Pages: 1
%%DocumentData: Clean7Bit
%%LanguageLevel: 2
%%BoundingBox: 0 -1 428 419
%%EndComments
%%BeginProlog
save
50 dict begin
/q { gsave } bind def
/Q { grestore } bind def
/cm { 6 array astore concat } bind def
/w { setlinewidth } bind def
/J { setlinecap } bind def
/j { setlinejoin } bind def
/M { setmiterlimit } bind def
/d { setdash } bind def
/m { moveto } bind def
/l { lineto } bind def
/c { curveto } bind def
/h { closepath } bind def
/re { exch dup neg 3 1 roll 5 3 roll moveto 0 rlineto
      0 exch rlineto 0 rlineto closepath } bind def
/S { stroke } bind def
/f { fill } bind def
/f* { eofill } bind def
/n { newpath } bind def
/W { clip } bind def
/W* { eoclip } bind def
/BT { } bind def
/ET { } bind def
/pdfmark where { pop globaldict /?pdfmark /exec load put }
    { globaldict begin /?pdfmark /pop load def /pdfmark
    /cleartomark load def end } ifelse
/BDC { mark 3 1 roll /BDC pdfmark } bind def
/EMC { mark /EMC pdfmark } bind def
/cairo_store_point { /cairo_point_y exch def /cairo_point_x exch def } def
/Tj { show currentpoint cairo_store_point } bind def
/TJ {
  {
    dup
    type /stringtype eq
    { show } { -0.001 mul 0 cairo_font_matrix dtransform rmoveto } ifelse
  } forall
  currentpoint cairo_store_point
} bind def
/cairo_selectfont { cairo_font_matrix aload pop pop pop 0 0 6 array astore
    cairo_font exch selectfont cairo_point_x cairo_point_y moveto } bind def
/Tf { pop /cairo_font exch def /cairo_font_matrix where
      { pop cairo_selectfont } if } bind def
/Td { matrix translate cairo_font_matrix matrix concatmatrix dup
      /cairo_font_matrix exch def dup 4 get exch 5 get cairo_store_point
      /cairo_font where { pop cairo_selectfont } if } bind def
/Tm { 2 copy 8 2 roll 6 array astore /cairo_font_matrix exch def
      cairo_store_point /cairo_font where { pop cairo_selectfont } if } bind def
/g { setgray } bind def
/rg { setrgbcolor } bind def
/d1 { setcachedevice } bind def
%%EndProlog
%%Page: 1 1
%%BeginPageSetup
%%PageBoundingBox: 0 -1 428 419
%%EndPageSetup
q 0 -1 428 420 rectclip q
0 g
90.434 174.744 m 87.523 174.544 83.738 173.24 81.199 168.689 c 79.125 164.97
 74.27 164.377 72 165.127 c 68.223 166.377 63.395 167.24 58.715 163.908 
c 54.039 160.576 48.988 163.095 49.875 169.169 c 50.758 175.244 52.953 180.654
 58.777 184.005 c 71.496 191.322 62.656 196.416 69.637 203.759 c 76.633 
211.119 75.09 213.369 74.855 223.361 c 51.215 226.916 37.816 233.728 22.852
 252.423 c 7.891 271.115 2.09 286.505 0.539 309.939 c -1.012 333.377 0.336
 348.568 10.461 368.021 c 20.586 387.478 31.246 396.841 49.723 406.556 c
 68.199 416.267 86.301 418.595 103.035 418.31 c 119.77 418.029 130.918 416.802
 140.371 411.408 c 149.828 406.013 158.477 399.224 163.988 399.177 c 169.504
 399.127 173.258 400.572 175.938 402.627 c 176.652 384.459 160.301 382.88
 145.672 382.498 c 131.043 382.111 122.055 388.166 108.582 385.912 c 95.109
 383.662 73.047 377.529 62.301 358.826 c 51.555 340.119 51.188 333.505 52.082
 317.822 c 52.977 302.134 66.477 290.431 74.098 290.302 c 81.719 290.177
 83.422 292.384 90.09 296.732 c 96.762 301.084 130.82 343.244 142.441 352.716
 c 154.062 362.185 165.531 365.111 177.914 365.259 c 190.297 365.412 193.461
 364.994 203.449 360.9 c 213.434 356.806 219.57 349.271 227.625 344.662 
c 231.738 347.084 234.297 350.701 238.07 353.462 c 251.578 363.334 258.594
 365.994 274.648 364.431 c 283.871 363.533 295.504 358.263 302.445 352.228
 c 314.805 341.482 325.02 326.521 333.27 315.154 c 339.695 306.302 347.254
 295.712 358.047 292.4 c 369.832 288.787 378.703 304.052 380.004 312.517
 c 380.742 317.314 381.703 321.521 381.711 326.798 c 381.719 332.08 381.18
 338.49 379.66 343.994 c 378.137 349.498 375.527 354.97 372.707 359.513 
c 368.109 366.904 360.594 374.634 352.77 378.615 c 348.379 380.849 338.051
 384.908 331.543 385.048 c 323.562 385.224 317.484 382.541 310.109 382.041
 c 301.184 381.431 285.234 379.423 278.238 386.322 c 273.781 390.709 273.223
 393.638 272.461 399.361 c 274.43 397.74 277.18 396.673 279.629 396.466 
c 285.223 395.994 290.457 400.56 294.969 403.205 c 298.684 405.384 303.949
 409.279 308.832 411.244 c 321.375 416.302 336.785 416.158 350.027 414.802
 c 360.641 413.716 374.402 408.994 383.711 403.728 c 393.066 398.435 402.078
 389.513 408.68 381.103 c 416.984 370.521 421.527 361.443 424.535 348.244
 c 428.379 331.388 429.445 306.068 424.797 289.451 c 421.133 276.353 408.969
 256.24 398.613 246.377 c 388.402 236.65 376.609 231.955 363.199 229.388
 c 363.723 226.681 363.812 224.158 364.504 221.939 c 365.492 218.787 367.375
 215.275 371.25 216.388 c 372.793 216.83 373.621 217.212 375.656 215.431
 c 377.691 213.65 376.633 206.767 370.906 203.681 c 368 202.115 364.938 
201.775 360.285 201.681 c 355.633 201.587 348.375 201.568 343.324 202.455
 c 338.277 203.337 335.262 207.345 329.668 207.97 c 321.027 208.939 314.41
 215.181 307.48 219.646 c 304.59 221.509 303.613 221.529 301.949 222.47 
c 302.848 219.716 304.047 216.853 304.648 214.205 c 305.246 211.552 304.992
 209.099 305.309 206.978 c 305.625 204.861 306.215 203.212 306.559 201.494
 c 307.941 200.255 308.383 198.373 310.711 197.779 c 313.035 197.189 316.68
 198.111 319.062 198.431 c 321.441 198.752 323.035 200.048 324.906 199.693
 c 326.773 199.337 328.547 197.998 330.109 196.744 c 331.676 195.49 333.023
 195.306 334.289 192.177 c 335.559 189.048 336.723 182.642 336.895 178.361
 c 337.066 174.076 336.59 170.212 335.32 166.814 c 334.051 163.416 332.934
 161.908 329.496 158.541 c 326.059 155.173 320.465 150.236 314.879 146.794
 c 315.906 145.271 316.363 143.877 317.965 142.224 c 319.57 140.572 322.914
 138.72 324.402 136.974 c 325.887 135.232 326.641 133.982 326.664 132.025
 c 326.688 130.068 326.59 127.529 325.004 125.396 c 321.051 120.087 316.371
 119.138 310.688 116.642 c 311.641 110.669 312.422 106.404 311.039 100.439
 c 310.477 98.013 309.223 92.502 306.227 91.087 c 303.23 89.677 297.449 
90.361 293.789 89.779 c 290.133 89.197 288.082 88.646 285.23 88.08 c 283.5
 85.572 280.918 82.81 280.031 80.564 c 279.148 78.318 279.414 77.513 280.156
 75.216 c 280.902 72.923 283.434 69.584 284.148 66.9 c 284.867 64.212 285.004
 61.322 284.336 58.63 c 283.668 55.939 282.52 53.982 280.223 51.591 c 277.93
 49.201 273.414 47.322 271.168 45.384 c 268.918 43.447 266.676 43.212 267.289
 40.005 c 268.137 35.599 274.574 28.451 279.23 26.752 c 282.023 25.732 285.77
 26.052 289.16 27.482 c 288.93 23.72 285.672 21.181 283.543 18.685 c 289.305
 20.33 294.895 23.486 298.758 27.666 c 297.562 24.037 293.438 18.205 287.266
 13.087 c 281.098 7.966 281.137 9.013 278.07 6.978 c 283.664 5.853 288.867
 6.158 293.203 6.935 c 290.824 5.627 286.93 3.783 281.773 3.244 c 276.613
 2.701 273.434 3.084 268.781 4.212 c 264.133 5.341 259.887 9.572 254.254
 12.482 c 254.801 10.392 255.191 7.88 257.562 5.732 c 259.934 3.58 263.516
 2.49 267.328 0.63 c 262.477 1.181 257.379 1.345 252.613 2.396 c 249.082
 3.177 246.711 4.002 244.129 5.279 c 241.551 6.56 239.555 8.423 237.27 9.998
 c 238.367 7.904 238.691 5.443 240.555 3.716 c 242.418 1.99 245.449 1.349
 247.902 0.162 c 245.344 0.22 242.887 -0.334 240.234 0.33 c 237.582 0.998
 235.098 2.044 232.34 4.076 c 229.582 6.107 226.738 8.607 224.387 11.166
 c 222.035 13.72 219.133 17.037 218.254 19.392 c 217.375 21.752 218.781 
23.4 219.047 25.404 c 217.422 24.337 215.426 23.748 214.176 22.201 c 212.93
 20.65 211.824 19.236 212.375 16.537 c 212.93 13.837 215.418 10.541 217.18
 7.537 c 211.926 11.837 208.988 13.49 207.738 18.673 c 206.566 23.529 209.598
 27.935 211.898 31.607 c 213.043 33.427 214.754 35.127 215.824 36.884 c 
213.449 39.209 210.734 41.205 208.699 43.853 c 206.664 46.502 205.812 50.087
 203.734 52.623 c 201.656 55.158 198.863 56.763 196.43 58.83 c 198.57 54.236
 202.082 48.599 202.848 45.041 c 203.609 41.486 201.992 39.31 200.73 37.388
 c 199.469 35.47 197.43 35.041 195.496 33.861 c 193.566 32.681 190.559 33.611
 189.406 31.861 c 188.258 30.111 187.949 27.474 189.047 25.74 c 193.562 
18.619 l 191.898 19.455 189.035 21.896 187.742 23.63 c 186.449 25.361 184.469
 26.962 184.199 29.302 c 183.926 31.642 183.793 33.673 185.312 35.759 c 
186.828 37.845 190.98 38.544 192.84 40.146 c 194.699 41.748 195.742 42.791
 195.637 44.865 c 195.531 46.935 193.508 48.419 191.766 49.724 c 186.457
 53.709 179.641 57.377 175.133 62.177 c 172.582 64.892 171.359 67.084 170.848
 68.955 c 170.336 70.826 170.879 72.283 172.145 74.587 c 173.41 76.888 177.75
 79.962 178.281 82.462 c 178.809 84.962 176.613 85.502 174.637 86.38 c 172.656
 87.263 168.898 85.931 167.062 87.462 c 165.227 88.998 167.602 92.22 165.531
 93.99 c 163.465 95.755 158.73 94.771 156.289 96.669 c 153.844 98.572 152.836
 100.935 151.992 103.693 c 151.152 106.451 151.059 109.474 151.629 111.474
 c 152.199 113.47 153.91 113.822 154.945 114.857 c 155.98 115.892 156.875
 116.752 155.5 118.294 c 154.121 119.837 149.605 118.209 147.008 120.189
 c 144.414 122.173 146.004 126.919 144.168 128.923 c 142.332 130.923 139.039
 130.138 137.301 130.779 c 135.562 131.419 134.879 129.162 133.816 132.732
 c 132.75 136.298 132.719 146.935 131.285 150.904 c 129.852 154.873 127.035
 151.173 125.73 155.119 c 124.422 159.06 125.66 165.369 125.07 171.326 c
 122.402 187.537 l 113.094 181.283 106.945 179.322 96.945 177.552 c 96.109
 153.08 93.812 138.669 102.117 111.517 c 110.426 84.369 127.234 68.365 149.914
 45.38 c 119.988 67.798 105.699 86.025 96.758 109.373 c 87.816 132.728 89.531
 152.255 90.434 174.744 c h
249.445 184.58 m 251.746 184.474 254.547 183.892 256.164 182.841 c 257.781
 181.791 259.496 180.935 260.965 179.439 c 264.625 175.709 267.371 171.212
 268.586 166.044 c 269.359 162.752 269.477 158.525 269.758 154.658 c 268.648
 158.232 267.902 161.962 266.324 165.166 c 263.836 170.216 259.605 175.146
 254.355 177.416 c 252.621 178.166 251.465 178.025 250.512 177.892 c 250.938
 177.177 251.652 176.576 251.684 175.529 c 251.715 174.478 251.48 172.427
 249.699 171.564 c 246.832 170.173 243.645 171.15 241.43 173.111 c 239.195
 175.084 238.434 178.419 239.605 181.291 c 240.996 184.709 246.305 184.716
 249.445 184.58 c h
220.578 189.443 m 220.867 195.322 222.988 200.279 228.258 203.162 c 230.98
 204.65 235.176 206.58 239.035 207.029 c 242.738 207.466 251.75 207.146 
257.168 204.673 c 261.332 202.775 264.168 199.818 267.82 197.654 c 271.477
 195.494 274.074 194.044 277.555 191.619 c 282.895 187.896 286.023 183.798
 289.727 181.341 c 291.508 180.162 294.012 180.337 296.375 179.615 c 294.539
 179.068 292.137 178.466 290.152 179.103 c 287.68 179.892 284.223 182.154
 282.305 183.775 c 278.914 186.638 277.156 188.033 273.457 190.193 c 271.25
 191.482 267.613 192.998 265.188 194.58 c 262.758 196.162 258.543 199.634
 256.207 200.81 c 253.242 202.306 247.902 203.134 244.598 203.037 c 240.047
 202.904 233.461 202.154 229.941 198.959 c 226.441 195.787 225.113 192.99
 225.902 188.869 c 227.223 190.384 228.098 192.291 229.418 193.419 c 232.152
 195.755 235.289 195.869 238.691 195.423 c 242.512 194.927 244.438 192.72
 245.699 189.091 c 244.852 189.712 243.289 191.084 242.055 191.509 c 239.16
 192.509 236.973 192.201 234.262 190.748 c 231.059 189.029 231.93 186.49
 231.469 183.662 c 231.258 182.357 230.766 181.31 230.414 180.13 c 229.211
 180.451 228.098 180.951 227.188 181.853 c 227.227 180.533 227.035 179.38
 227.305 177.892 c 227.574 176.408 228.297 174.646 228.793 173.021 c 226.562
 175.252 224.281 177.326 222.844 180.205 c 221.402 183.084 220.426 186.283
 220.578 189.443 c h
224.438 232.224 m 226.078 234.662 226.562 238.404 227.574 241.443 c 227.168
 237.591 227.949 233.357 226.066 230.568 c 224.188 227.779 220.883 228.267
 218.148 227.455 c 220.277 229.08 222.793 229.787 224.438 232.224 c h
185.105 175.115 m 187.215 176.822 192.906 175.455 197.164 175.15 c 194.105
 174.369 191.043 173.584 187.984 172.798 c 187.699 171.759 187.828 170.564
 187.129 169.677 c 186.43 168.791 185.102 168.462 184.09 167.853 c 184.188
 170.587 182.996 173.408 185.105 175.115 c h
215.105 293.724 m 217.648 292.357 220.875 290.544 223.117 290.49 c 225.363
 290.435 225.949 291.959 227.27 292.837 c 229.348 286.064 231.734 278.619
 235.27 272.474 c 236.75 269.9 237.695 271.095 238.824 268.509 c 239.949
 265.919 240.449 260.658 241.516 257.349 c 242.586 254.044 243.98 251.611
 245.211 248.744 c 242.082 253.173 238.043 258.822 236.301 262.509 c 234.559
 266.197 235.672 266.517 234.266 270.029 c 232.855 273.541 230.004 279.013
 227.871 283.509 c 226.348 283.306 224.461 283.029 223.301 283.384 c 222.141
 283.744 222.371 284.974 221.324 285.771 c 220.273 286.572 218.512 286.259
 217.043 287.533 c 215.574 288.806 215.238 291.416 215.105 293.724 c h
201.422 260.298 m 203.812 260.509 206.785 259.869 209.023 259.994 c 211.262
 260.123 212.863 260.705 214.781 261.056 c 214.426 264.431 214.762 270.63
 211.648 272.884 c 209.637 274.337 201.375 273.244 199.168 272.767 c 194.203
 271.697 188.418 268.732 183.613 266.877 c 188.219 270.091 192.195 273.072
 197.715 274.732 c 201.035 275.732 208.777 277.029 212.203 276.103 c 213.766
 275.681 214.082 275.033 215.031 273.709 c 218.293 269.158 218.281 265.224
 219.129 259.919 c 219.961 258.627 220.844 257.759 221.52 256.423 c 222.191
 255.087 222.57 252.986 222.762 251.267 c 221.906 252.502 222.43 254.056
 220.066 254.974 c 217.703 255.896 214.082 255.037 210.895 254.705 c 213.219
 253.029 214.371 251.416 214.461 247.873 c 214.562 243.712 211.043 240.716
 207.367 240.435 c 202.262 240.037 199.629 241.158 197.562 245.521 c 196.66
 247.431 197.316 249.732 197.238 251.595 c 191.105 251.169 191.207 251.369
 186.723 247.63 c 189.16 244.06 190.695 242.005 194.723 239.873 c 196.98
 238.673 199.535 237.509 202.336 237.033 c 205.133 236.556 209.727 236.095
 212.664 236.548 c 215.605 236.998 217.273 237.837 219.453 239.853 c 221.633
 241.869 221.832 244.755 222.684 247.041 c 222.492 244.841 222.238 242.044
 221.422 240.451 c 218.941 235.607 214.652 234.173 209.531 234.158 c 204.613
 234.142 198.531 235.275 193.957 237.169 c 190.301 238.685 184.238 242.978
 182.801 246.709 c 181.816 249.255 182.594 252.384 182.492 255.22 c 187.555
 258.587 188.809 257.759 194.801 258.744 c 197.305 259.158 199.031 260.087
 201.422 260.298 c h
171.922 283.107 m 172.066 285.123 172.289 285.08 172.473 286.068 c 167.859
 287.302 166.008 284.31 163.305 278.752 c 162.293 276.669 163.293 275.431
 162.207 274.064 c 161.125 272.693 159.375 272.888 157.613 271.572 c 155.852
 270.259 154.109 267.74 152.461 266.38 c 149.082 263.587 144.516 261.88 
140.594 260.002 c 143.27 261.978 148.465 264.97 150.145 267.841 c 151.039
 269.361 150.906 272.232 152.293 273.599 c 153.68 274.966 154.164 275.916
 155.957 276.263 c 157.746 276.611 157.027 278.689 157.605 280.337 c 158.184
 281.99 159.332 283.158 160.559 284.806 c 161.781 286.455 163.328 288.931
 165.746 289.83 c 168.16 290.728 171.934 289.755 173.762 290.275 c 175.59
 290.794 174.539 292.123 175.871 292.923 c 177.199 293.72 179.789 293.369
 181.566 294.22 c 184.715 295.736 186.223 298.267 188.117 300.974 c 188.395
 295.146 188.324 290.951 186.23 285.466 c 183.871 279.298 181.484 275.662
 174.789 271.869 c 172.484 270.56 170.188 270.107 168.277 269.419 c 169.391
 270.943 170.988 271.603 171.621 273.982 c 172.254 276.365 171.781 281.087
 171.922 283.107 c h
279.984 254.693 m 276.805 254.486 276.047 254.904 273.504 253.107 c 274.883
 250.959 276.262 248.814 277.641 246.666 c 277.52 250.904 277.934 251.755
 279.984 254.693 c h
271.648 257.775 m 276.055 259.65 279.895 261.169 284.691 261.47 c 286.613
 261.591 289.598 261.294 291.539 261.205 c 293.191 263.638 295.297 265.56
 296.07 268.337 c 296.582 270.181 296.328 278.736 295.426 280.955 c 292.789
 287.416 290.227 287.689 286.598 291.392 c 283.961 294.076 283.859 298.166
 283.07 302.748 c 282.781 304.431 281.957 306.56 281.566 308.294 c 276.824
 309.095 271.723 309.357 266.266 309.084 c 268.91 311.623 271.469 313.943
 272.23 317.755 c 272.988 321.564 272.371 326.252 270.203 329.666 c 268.039
 333.084 264.578 336.06 261.402 338.845 c 258.223 341.63 253.668 343.927
 250.66 346.205 c 254.574 347.607 258.574 349.666 262.406 350.408 c 272.398
 352.349 281.008 349.384 290.645 343.556 c 296.25 340.169 300.883 336.951
 306.742 330.818 c 312.598 324.685 319.859 313.439 325.531 306.767 c 331.199
 300.099 335.777 294.822 340.723 290.845 c 345.672 286.865 350.148 285.732
 354.859 283.177 c 362.203 275.38 l 368.145 282.732 l 377.707 281.654 l 
379.684 292.384 l 388.457 294.791 l 387.027 309.259 l 393.336 313.736 l 
388.594 322.74 l 393.414 332.576 l 387.133 343.818 l 389.555 354.646 l 382.281
 360.841 l 381.332 372.349 l 371.188 376.216 l 367.117 386.228 l 355.711
 386.357 l 350.113 393.787 l 342.434 393.248 l 333.875 394.181 l 329.035
 397.755 l 322.008 393.091 l 313.508 397.521 l 296.609 391.107 l 307.625
 400.689 l 319.039 402.509 l 327.781 404.74 l 339.59 400.861 l 349.984 403.494
 l 360.004 397.572 l 370.609 398.158 l 375.82 388.81 l 386.379 387.591 l
 392.09 377.197 l 398.734 373.572 l 400.496 360.259 l 406.41 354.65 l 403.809
 342.998 l 410.777 334.177 l 404.242 324.724 l 411.23 318.818 l 402.301 
310.904 l 411.344 301.482 l 400.422 297.959 l 407.535 287.857 l 398.613 
286.318 l 404.465 275.209 l 394.41 275.341 l 399.477 267.021 l 388.445 268.349
 l 391.082 256.377 l 382.75 263.712 l 379.895 249.201 l 374.141 259.619 
l 371.027 246.627 l 363.926 256.209 l 364.117 242.584 l 356.27 254.834 l
 357.926 247.884 357.594 240.271 362.16 233.72 c 376.305 235.634 385.551
 239.197 396.387 249.627 c 406.258 259.123 418.055 278.923 421.25 291.482
 c 424.895 305.814 425.004 332.177 421.414 346.767 c 417.961 360.814 413.469
 367.525 405.445 378.99 c 397.777 387.138 390.234 395.74 380.5 401.548 c
 366.211 410.076 347.887 412.377 331.602 412.154 c 322.586 412.033 316.547
 410.298 311.156 408.337 c 301.727 404.912 294.188 397.431 284.602 393.736
 c 281.477 392.533 278.973 392.494 276.508 393.81 c 278.922 388.986 281.543
 386.826 287.555 385.068 c 291.902 383.798 302.277 384.603 309.422 385.263
 c 317.09 385.97 321.09 388.252 331.523 388.107 c 341.715 387.966 349.793
 384.095 354.207 381.572 c 363.32 376.361 369.852 370.584 375.527 361.427
 c 378.645 356.4 380.828 350.728 382.367 344.939 c 383.906 339.15 384.578
 332.669 384.68 327.002 c 384.777 321.337 384.344 316.279 382.957 311.177
 c 379.715 299.24 372.562 287.095 357.875 288.97 c 348.883 290.119 335.332
 306.994 330.793 313.185 c 321.633 325.677 312.211 339.502 300.703 349.908
 c 293.684 356.252 284.078 360.615 274.645 361.478 c 256.945 363.099 251.695
 359.736 238.375 348.755 c 241.086 347.892 243.73 347.412 246.508 346.162
 c 252.672 343.384 258.309 339.794 263.227 335.189 c 268.379 330.365 270.691
 327.31 270.875 320.4 c 270.996 315.81 267.223 312.13 263.762 308.818 c 
261.645 306.794 258.84 304.935 257.125 303.365 c 254.852 301.275 252.039
 298.994 254.895 295.666 c 255.969 294.416 257.832 293.474 259.406 292.306
 c 261.902 290.455 260.758 283.568 257.469 281.744 c 253.262 279.408 248.234
 279.669 244.766 282.794 c 249.145 283.451 251.926 284.029 251.812 287.611
 c 251.746 289.689 249.105 291.416 246.516 292.595 c 240.266 295.443 235.547
 295.025 229.328 299.498 c 223.047 304.021 222.906 306.498 221.207 313.595
 c 218.18 313.279 215.391 313.212 211.34 311.869 c 207.289 310.529 202.816
 307.337 199.137 306.548 c 189.879 304.556 188.031 305.146 182.965 306.459
 c 174.043 308.767 162.426 304.814 150.883 301.123 c 148.965 300.509 141.203
 301.099 135.977 299.267 c 127.91 296.435 116.586 289.58 110.047 284.072
 c 100.137 275.728 87.117 250.752 79.758 222.084 c 78.984 213.369 81.465
 207.498 75.977 203.24 c 70.484 198.986 70.637 188.08 68.777 185.021 c 66.914
 181.962 64.758 183.314 60.754 179.021 c 56.746 174.724 54.707 175.443 54.809
 167.322 c 58.262 169.591 63.293 172.232 67.715 172.392 c 71.629 172.533
 71.672 167.377 81.719 177.31 c 87.094 182.627 97.418 182.787 104.578 185.13
 c 111.742 187.474 124.652 192.306 137.578 206.759 c 150.508 221.212 156.695
 236.431 159.203 258.427 c 159.602 254.529 160.293 250.13 158.625 239.369
 c 156.953 228.611 153.355 216.529 160.938 202.052 c 165.664 193.033 l 162.852
 196.873 157.355 203.134 155.703 207.595 c 151.887 217.892 l 143.352 204.49
 141.387 202.091 129.531 192.49 c 129.059 186.533 128.941 180.318 130.887
 174.619 c 132.836 168.919 129.73 162.349 131.215 158.595 c 132.695 154.841
 136.121 156.978 137.238 153.177 c 138.359 149.377 136.656 141.865 138.391
 138.162 c 140.125 134.455 144.383 136.705 146.445 135.505 c 148.508 134.31
 149.184 132.669 150.285 131.095 c 151.387 129.521 149.855 125.802 152.098
 124.595 c 154.34 123.388 157.84 124.412 160.176 123.252 c 162.508 122.091
 162.863 119.302 162.305 116.806 c 161.742 114.31 159.25 113.162 158.152
 110.623 c 157.059 108.084 157.184 106.318 158.496 103.986 c 159.812 101.65
 162.727 100.369 165.629 99.189 c 168.531 98.013 172.613 98.673 175.609 
97.044 c 178.605 95.419 181.297 92.173 182.879 89.818 c 184.461 87.462 184.898
 85.798 184.82 83.318 c 184.738 80.841 183.734 77.99 182.41 75.595 c 181.086
 73.201 178.168 70.287 182.727 65.716 c 187.281 61.146 187.113 63.119 189.723
 60.154 c 189.441 65.283 187.32 69.459 188.871 73.322 c 190.422 77.181 195.074
 77.853 197.527 79.587 c 199.98 81.326 201.391 83.712 203.324 85.775 c 203.297
 83.123 203.582 80.271 203.281 78.271 c 202.664 74.212 201.465 70.607 207.52
 69.955 c 210.246 69.662 212.832 71.427 215.703 72.49 c 214.199 69.798 211.586
 67.634 211.191 64.416 c 210.801 61.197 211.273 57.658 213.5 54.462 c 215.73
 51.267 219.582 48.896 222.402 47.021 c 225.227 45.142 226.738 44.99 228.906
 43.974 c 229.012 40.81 228.387 37.459 228.75 34.478 c 229.109 31.498 230.051
 28.857 231.773 26.392 c 233.496 23.927 236.266 22.513 238.871 20.689 c 
237.441 24.017 234.543 27.173 234.582 30.669 c 234.621 34.166 235.672 36.642
 239.082 39.748 c 242.492 42.849 250.477 45.541 254.242 48.556 c 258.008
 51.576 259.223 53.423 260.574 56.353 c 261.926 59.283 261.547 64.002 261.797
 66.638 c 263.039 62.947 263.215 61.802 263.617 57.943 c 264.023 54.08 261.367
 48.666 260.242 45.81 c 264.902 48.06 267.859 51.654 269.352 55.169 c 270.348
 54.576 269.844 52.951 270.211 49.822 c 271.871 51.474 273.758 52.744 275.43
 54.302 c 277.102 55.861 278.934 57.232 279.766 59.404 c 280.594 61.58 280.254
 63.892 279.637 66.419 c 279.02 68.943 276.195 71.873 274.676 74.638 c 273.156
 77.4 274.945 80.111 274.84 83.439 c 271.801 83.962 269.215 85.513 265.719
 85.009 c 262.223 84.505 258.215 80.58 254.641 80.537 c 251.066 80.49 249.059
 83.837 246.129 84.759 c 243.199 85.681 240.234 85.58 237.289 85.99 c 241.02
 89.564 255.508 91.267 265.414 92.884 c 274.133 94.306 282.785 95.127 291.617
 95.252 c 295.562 95.306 300.633 94.005 303.375 94.791 c 306.113 95.576 
305.531 97.443 306.344 99.478 c 308.617 105.166 307.496 110.232 306.258 
115.962 c 298.328 116.892 290.066 118.029 282.074 117.416 c 274.262 116.814
 265.012 113.099 256.957 112.849 c 249.949 112.63 239.578 114.193 233.562
 117.857 c 226.211 122.337 220.523 131.962 218.504 135.052 c 215.215 140.084
 211.066 149.959 208.543 154.47 c 206.023 158.986 205.465 160.248 203.367
 162.134 c 201.266 164.017 198.391 164.162 195.906 165.177 c 198.773 164.884
 201.902 165.791 204.508 164.298 c 208.418 162.052 212.797 152.752 215.23
 148.701 c 217.812 157.349 217.211 160.748 224.672 165.623 c 218.656 158.88
 218.508 153.775 217.043 145.837 c 222.043 137.63 228.996 124.552 238.094
 120.923 c 241.383 119.615 247.027 118.791 250.578 118.353 c 261.637 116.982
 272.301 120.486 283.16 123.169 c 291.102 125.13 299.156 124.337 308.809
 123.771 c 312.09 123.58 319.816 125.552 321.418 128.869 c 322.281 130.654
 322.219 132.806 320.977 134.712 c 319.734 136.619 316.426 137.541 314.648
 139.255 c 312.875 140.97 311.855 143.005 310.457 144.884 c 303.082 143.47
 297.02 142.927 291.543 142.775 c 295.469 144.392 299.238 145.318 303.324
 146.916 c 307.41 148.513 312.051 151.134 315.348 153.314 c 318.645 155.49
 320.75 156.752 323.137 159.287 c 325.52 161.822 328.582 164.431 330.34 
167.533 c 332.098 170.63 332.371 174.095 332.469 177.931 c 332.566 181.763
 332.402 187.142 330.922 190.232 c 329.445 193.322 326.598 194.259 324.309
 194.99 c 322.02 195.72 320.449 193.873 318.07 193.623 c 315.688 193.373
 313.461 191.873 310.02 193.49 c 306.574 195.111 302.492 198.408 299.008
 203.302 c 295.527 208.197 293.039 216.193 289.488 222.349 c 283.371 232.955
 275.746 242.865 268.457 252.693 c 267.855 255.119 266.953 258.466 266.652
 261.755 c 266.129 267.486 266.031 273.439 267.809 279.025 c 269.172 283.302
 271.156 287.822 275.637 289.576 c 277.43 290.279 279.695 290.56 281.297
 289.966 c 282.902 289.373 284.473 287.564 283.844 285.47 c 283.152 283.173
 281.559 283.111 280.477 281.951 c 278.641 279.982 277.906 278.537 277.215
 276.084 c 279.199 276.115 281.879 276.267 283.512 275.837 c 285.637 275.279
 287.617 273.869 288.699 270.853 c 286.16 273.107 284.898 274.138 281.73
 274.22 c 280.277 274.255 278.516 273.736 276.91 273.494 c 276.309 271.541
 275.957 269.146 275.109 267.634 c 274.262 266.127 272.609 266.486 271.992
 264.72 c 271.371 262.959 271.336 260.091 271.648 257.775 c h
293.824 260.419 m 294.797 260.037 295.168 259.951 296.398 259.017 c 297.633
 258.08 299.332 257.142 300.305 254.904 c 301.285 252.666 301.238 249.201
 301.031 247.791 c 300.172 248.041 299.008 247.873 298.117 248.63 c 297.23
 249.392 296.703 251.111 295.566 251.845 c 294.43 252.584 293.48 252.419
 292.223 252.58 c 292.867 250.744 293.184 248.904 292.883 247.24 c 292.23
 243.603 290.094 241.759 286.633 241.326 c 285.121 241.134 282.719 241.63
 281.402 241.873 c 282.012 240.509 283.047 239.318 283.656 237.955 c 286.582
 238.377 288.754 238.318 290.328 239.052 c 291.902 239.791 293.59 241.439
 295.609 242.138 c 297.629 242.837 299.434 242.826 301.641 243.169 c 299.902
 241.669 298.758 240.169 297.02 238.669 c 298.293 234.959 299.57 231.255
 300.844 227.548 c 303.551 225.857 306.086 224.962 309.492 222.877 c 312.902
 220.787 316.988 217.048 321.426 215.009 c 325.867 212.974 328.512 211.865
 333.148 210.99 c 337.785 210.115 341.477 206.357 346.039 205.748 c 350.602
 205.138 359.125 205.013 362.645 205.357 c 366.637 205.748 371.824 207.806
 372.289 212.185 c 368.941 211.361 363.828 212.099 361.246 218.4 c 360.102
 221.197 360.664 226.341 358.91 229.65 c 357.156 232.959 354.711 234.021
 351.789 238.099 c 348.867 242.173 344.09 248.603 341.406 254.068 c 338.727
 259.525 338.098 265.712 335.828 270.607 c 333.559 275.498 330.141 279.451
 327.488 283.224 c 321.699 291.466 317.031 297.099 307.492 301.255 c 302.906
 303.255 297.684 303.791 292.777 305.056 c 290.785 304.162 288.047 303.173
 287.562 300.841 c 287.074 298.505 288.008 295.056 289.703 293.306 c 292.539
 290.377 296.738 287.209 298.391 282.552 c 299.453 279.564 299.758 269.548
 298.84 266.83 c 297.887 264.005 295.668 262.298 293.824 260.419 c h
294.75 236.709 m 293.863 235.947 293.188 235.162 291.762 234.525 c 290.34
 233.892 288.395 233.728 286.504 233.255 c 289.156 229.13 291.938 224.962
 294.477 220.627 c 297.016 216.291 299.219 211.544 301.641 207.002 c 301.527
 209.603 301.68 212.38 301.301 214.81 c 300.922 217.244 299.82 219.369 298.73
 223.021 c 297.637 226.669 296.297 231.634 294.75 236.709 c h
223.461 327.396 m 223.086 323.337 223.773 316.998 224.613 313.025 c 225.621
 308.267 226.59 305.802 230.449 302.939 c 237.516 297.693 242.023 298.576
 247.461 295.537 c 250.047 294.087 253.324 291.662 254.281 289.095 c 255.238
 286.533 253.648 283.748 251.688 282.654 c 255.121 282.142 258.965 286.009
 257.359 289.978 c 256.57 291.935 252.809 292.806 251.652 294.775 c 250.5
 296.748 250.504 298.775 251.047 300.779 c 252.027 304.388 259.168 307.666
 261.691 310.521 c 265.574 314.912 267.062 318.584 264.863 324.236 c 261.777
 332.177 249.848 338.552 242.707 341.669 c 239.438 343.095 237.602 343.197
 235.051 343.962 c 240.273 340.9 245.777 338.462 248.418 331.623 c 250.625
 325.912 248.715 323.759 248.789 318.783 c 248.824 316.478 251.859 315.326
 253.207 313.869 c 254.383 312.599 254.289 311.662 253.348 309.912 c 253.246
 311.49 252.574 312.666 251.363 313.521 c 249.363 314.939 247.211 314.634
 246.145 317.541 c 244.527 321.959 247.734 326.142 244.129 331.103 c 241.434
 334.814 237.848 338.966 233.008 339.076 c 230.719 339.127 229 338.779 226.555
 338.056 c 223.293 341.982 l 223.219 342.033 l 216.586 348.084 212.051 353.072
 202.746 357.232 c 193.445 361.392 188.859 362.021 178.191 361.783 c 167.527
 361.548 156.941 360.654 144.586 350.002 c 132.234 339.349 100.395 298.552
 92.672 293.388 c 84.953 288.228 83.242 286.478 73.594 286.474 c 63.945 
286.474 48.891 300.119 48.301 317.173 c 47.711 334.228 47.473 340.291 59.328
 360.837 c 71.184 381.384 92.664 387.693 108.598 389.822 c 124.535 391.955
 134.113 386.341 145.898 386.314 c 157.688 386.287 169.336 388.322 172.773
 397.697 c 171.09 396.697 168.84 395.568 162.504 395.9 c 156.168 396.232
 147.387 403.564 137.504 408.478 c 127.625 413.392 116.629 413.97 102.527
 414.236 c 88.426 414.502 70.828 413.423 53.395 404.013 c 35.961 394.599
 24.059 384.615 13.949 366.193 c 3.836 347.775 2.324 332.736 3.957 310.431
 c 5.586 288.127 12.465 271.541 25.707 255.216 c 38.953 238.892 52.191 230.904
 76.059 227.935 c 81.082 250.099 l 72.113 237.224 l 72.336 251.544 l 64.223
 241.474 l 60.664 255.13 l 54.09 244.181 l 50.824 259.427 l 41.301 251.724
 l 44.312 264.302 l 31.711 262.908 l 37.5 271.65 l 26.008 271.509 l 32.695
 283.185 l 22.5 284.802 l 30.629 295.419 l 18.145 299.119 l 28.48 309.017
 l 18.273 317.334 l 26.258 323.541 l 18.793 333.474 l 26.754 342.744 l 23.785
 354.986 l 30.543 360.877 l 32.559 374.869 l 40.145 378.677 l 46.672 389.599
 l 58.738 390.88 l 64.695 400.701 l 76.812 400.084 l 88.266 406.31 l 100.145
 403.544 l 113.637 407.619 l 123.629 405.275 l 136.668 403.361 l 149.258
 393.294 l 129.949 400.033 l 120.234 395.377 l 112.203 400.279 l 106.672
 396.521 l 96.891 395.541 l 88.117 396.107 l 81.723 388.302 l 68.684 388.166
 l 64.035 377.65 l 52.441 373.584 l 51.359 361.494 l 43.047 354.982 l 45.816
 343.607 l 38.637 331.791 l 44.145 321.455 l 38.723 311.998 l 45.934 307.291
 l 44.301 292.087 l 54.328 289.56 l 56.586 278.283 l 67.516 279.419 l 74.305
 271.693 l 82.695 279.884 l 97.992 287.513 104.293 291.779 116.215 304.673
 c 129.785 319.353 137.562 332.923 155.641 342.974 c 168.605 350.181 179.18
 352.775 193.746 350.259 c 207.418 347.896 212 339.697 222.07 331.056 c 
223.137 332.986 223.355 333.498 225.113 334.923 c 224.562 332.412 223.684
 329.81 223.461 327.396 c h
f*
Q Q
showpage
%%Trailer
end restore
%%EOF
