%!PS-Adobe-3.0 EPSF-3.0
%%Creator: cairo 1.12.2 (http://cairographics.org)
%%CreationDate: Sun Mar  1 22:50:08 2015
%%Pages: 1
%%DocumentData: Clean7Bit
%%LanguageLevel: 2
%%BoundingBox: 0 -1 333 408
%%EndComments
%%BeginProlog
save
50 dict begin
/q { gsave } bind def
/Q { grestore } bind def
/cm { 6 array astore concat } bind def
/w { setlinewidth } bind def
/J { setlinecap } bind def
/j { setlinejoin } bind def
/M { setmiterlimit } bind def
/d { setdash } bind def
/m { moveto } bind def
/l { lineto } bind def
/c { curveto } bind def
/h { closepath } bind def
/re { exch dup neg 3 1 roll 5 3 roll moveto 0 rlineto
      0 exch rlineto 0 rlineto closepath } bind def
/S { stroke } bind def
/f { fill } bind def
/f* { eofill } bind def
/n { newpath } bind def
/W { clip } bind def
/W* { eoclip } bind def
/BT { } bind def
/ET { } bind def
/pdfmark where { pop globaldict /?pdfmark /exec load put }
    { globaldict begin /?pdfmark /pop load def /pdfmark
    /cleartomark load def end } ifelse
/BDC { mark 3 1 roll /BDC pdfmark } bind def
/EMC { mark /EMC pdfmark } bind def
/cairo_store_point { /cairo_point_y exch def /cairo_point_x exch def } def
/Tj { show currentpoint cairo_store_point } bind def
/TJ {
  {
    dup
    type /stringtype eq
    { show } { -0.001 mul 0 cairo_font_matrix dtransform rmoveto } ifelse
  } forall
  currentpoint cairo_store_point
} bind def
/cairo_selectfont { cairo_font_matrix aload pop pop pop 0 0 6 array astore
    cairo_font exch selectfont cairo_point_x cairo_point_y moveto } bind def
/Tf { pop /cairo_font exch def /cairo_font_matrix where
      { pop cairo_selectfont } if } bind def
/Td { matrix translate cairo_font_matrix matrix concatmatrix dup
      /cairo_font_matrix exch def dup 4 get exch 5 get cairo_store_point
      /cairo_font where { pop cairo_selectfont } if } bind def
/Tm { 2 copy 8 2 roll 6 array astore /cairo_font_matrix exch def
      cairo_store_point /cairo_font where { pop cairo_selectfont } if } bind def
/g { setgray } bind def
/rg { setrgbcolor } bind def
/d1 { setcachedevice } bind def
%%EndProlog
%%Page: 1 1
%%BeginPageSetup
%%PageBoundingBox: 0 -1 333 408
%%EndPageSetup
q 0 -1 333 409 rectclip q
0 g
271.043 0.12 m 270.094 0.252 268.379 0.792 267.234 1.315 c 265.156 2.272
 l 264.645 4.854 l 264.363 6.272 263.914 8.94 263.652 10.776 c 263.168 14.12
 l 260.926 18.772 l 258.602 23.588 257.863 24.807 255.027 28.518 c 254.102
 29.721 253.082 31.202 252.758 31.803 c 252.082 33.057 250.422 34.999 249.633
 35.452 c 249.34 35.62 248.102 36.729 246.879 37.913 c 245.656 39.096 244.531
 40.104 244.379 40.151 c 243.82 40.323 239.816 43.057 238.461 44.194 c 236.703
 45.663 235.25 48.432 234.281 52.159 c 233.637 54.631 233.461 54.991 232.023
 56.749 c 228.758 60.737 223.188 65.151 217.965 67.893 c 216.207 68.819 
213.441 70.264 211.824 71.112 c 208.883 72.651 l 205.266 71.374 l 203.277
 70.67 201.324 69.979 200.926 69.838 c 198.676 69.049 189.473 66.452 187.562
 66.069 c 184.254 65.401 179.34 64.901 177.766 65.073 c 177.008 65.155 174.984
 65.276 173.27 65.338 c 169.715 65.471 167.039 65.893 162.734 67.006 c 159.797
 67.764 158.844 67.975 155.648 68.573 c 154.793 68.737 153.602 69.022 153.004
 69.217 c 151.816 69.596 146.535 70.737 146.312 70.663 c 145.992 70.553 
140.965 72.561 137.938 74.006 c 134.422 75.686 128.812 77.67 125.977 78.241
 c 125.023 78.432 123.754 78.733 123.16 78.913 c 122.562 79.088 121.676 
79.264 121.184 79.303 c 120.332 79.366 120.289 79.311 120.297 78.17 c 120.305
 76.87 119.992 74.885 119.637 73.995 c 119.07 72.577 119.777 65.393 121.176
 58.307 c 121.457 56.885 121.695 55.143 121.699 54.432 c 121.727 51.592 
121.805 50.518 122.059 49.557 c 122.262 48.784 122.109 48.202 121.402 47.01
 c 120.387 45.303 120.086 44.971 118.23 43.506 c 116.574 42.194 113.172 
41.002 111.98 41.307 c 110.598 41.663 104.898 41.444 101.762 40.917 c 100.254
 40.663 96.98 41.034 95.105 41.667 c 94.176 41.983 93.844 42.288 93.586 
43.057 c 93.391 43.635 93.398 44.1 93.609 44.186 c 93.895 44.303 93.883 
44.334 93.551 44.354 c 93.07 44.381 92.664 45.42 92.707 46.51 c 92.766 47.987
 94.602 51.116 96.559 53.069 c 99.297 55.807 99.285 55.795 99.758 55.956
 c 99.996 56.034 101.086 56.764 102.176 57.581 c 103.266 58.393 104.578 
59.198 105.09 59.374 c 106.023 59.686 l 105.305 63.034 l 104.91 64.877 104.566
 66.803 104.543 67.315 c 104.52 67.831 104.477 68.241 104.445 68.229 c 104.418
 68.221 103.98 67.928 103.473 67.577 c 102.969 67.229 100.902 66.163 98.883
 65.209 c 95.691 63.706 95.023 63.479 93.797 63.463 c 93.023 63.456 91.887
 63.358 91.273 63.245 c 90.66 63.135 88.516 63.221 86.508 63.436 c 82.992
 63.819 80.75 63.913 75.543 63.905 c 72.438 63.901 71.746 64.01 67.832 65.143
 c 64.066 66.229 61 66.725 60.812 66.28 c 60.742 66.108 60.656 65.338 60.621
 64.573 c 60.551 62.94 59.324 55.624 58.816 53.792 c 57.559 49.272 57.102
 47.374 56.867 45.721 c 56.719 44.69 56.348 42.932 56.035 41.811 c 55.723
 40.694 55.496 39.702 55.527 39.608 c 55.559 39.514 55.266 37.999 54.875
 36.241 c 54.488 34.487 54.191 32.979 54.223 32.897 c 54.25 32.811 54.16
 32.475 54.02 32.147 c 53.734 31.471 53.273 29.307 52.824 26.534 c 52.48
 24.413 51.914 22.983 51.332 22.788 c 51.121 22.717 50.477 22.151 49.906
 21.53 c 49.336 20.909 48.441 20.155 47.918 19.85 c 47.398 19.545 46.668
 18.983 46.293 18.604 c 45.922 18.221 44.457 17.377 43.035 16.725 c 39.672
 15.178 37.324 13.69 35.508 11.948 c 32.59 9.155 30.156 7.819 28.023 7.838
 c 26.703 7.854 26.41 8.354 25.656 11.874 c 25.32 13.452 24.922 15.241 24.77
 15.846 c 24.621 16.456 24.59 17.538 24.707 18.256 c 24.82 18.975 25.184
 21.256 25.512 23.331 c 25.84 25.401 26.18 27.413 26.273 27.799 c 26.457
 28.581 27.465 29.311 31.488 31.584 c 34.113 33.069 36.598 33.885 39.219
 34.131 c 39.895 34.198 40.086 34.475 40.586 36.139 c 40.906 37.202 41.293
 38.827 41.441 39.752 c 41.594 40.674 41.973 42.346 42.281 43.467 c 42.59
 44.588 43.066 47.374 43.34 49.655 c 44.094 56.022 44.887 62.295 45.355 
65.584 c 45.887 69.342 46.277 76.991 46.082 79.686 c 45.996 80.819 46 81.928
 46.086 82.151 c 46.172 82.377 46.145 83.752 46.027 85.213 c 45.906 86.67
 45.895 88.081 45.996 88.346 c 46.25 88.999 48.156 90.76 48.875 91.002 c
 49.195 91.108 49.59 91.084 49.758 90.948 c 49.922 90.811 50.688 90.624 
51.453 90.534 c 52.223 90.444 53.582 90.256 54.477 90.12 c 57.176 89.709
 63.402 90.768 66.059 92.088 c 67.328 92.721 67.438 92.874 67.684 94.366
 c 68.207 97.549 68.316 98.768 68.539 103.944 c 68.746 108.838 68.855 111.014
 69.125 115.651 c 69.184 116.651 69.262 118.573 69.297 119.92 c 69.332 121.268
 69.469 123.702 69.605 125.331 c 69.859 128.424 70.469 129.756 72.352 131.319
 c 73.734 132.471 79.84 138.674 80.68 139.78 c 81.852 141.327 82.289 143.288
 81.848 145.045 c 81.391 146.877 80.504 147.627 75.688 150.264 c 72.695 
151.901 68.18 154.819 66.375 156.284 c 65.473 157.014 63.66 159.834 63.172
 161.272 c 62.57 163.026 63.051 165.006 64.457 166.588 c 66.43 168.811 68.32
 169.948 72.133 171.213 c 75.809 172.436 83.105 173.846 86.234 173.944 c
 89.211 174.034 95.992 175.424 99.926 176.752 c 104.891 178.424 105.703 
179.17 107.062 183.299 c 107.703 185.241 108.5 186.608 109.109 186.811 c
 109.398 186.909 109.828 187.362 110.07 187.819 c 110.309 188.276 111.047
 189.428 111.707 190.374 c 112.367 191.323 112.949 192.198 112.996 192.323
 c 113.043 192.444 113.516 193.198 114.043 193.995 c 114.57 194.792 115.184
 195.795 115.402 196.225 c 116.523 198.413 117.301 202.6 116.844 204.002
 c 116.477 205.124 116.734 205.702 117.621 205.772 c 118.277 205.827 118.555
 205.577 119.348 204.241 c 120.023 203.096 120.301 202.334 120.32 201.565
 c 120.34 200.971 120.395 200.108 120.441 199.651 c 120.492 199.19 120.273
 198.045 119.953 197.104 c 119.375 195.397 l 120.391 196.752 l 121.98 198.874
 123.746 202.307 124.184 204.135 c 124.652 206.077 124.336 208.206 122.98
 212.229 c 122.098 214.862 122.082 215.01 122.664 215.303 c 123.289 215.62
 123.789 215.213 125.984 212.592 c 127.594 210.67 128.973 203.776 128.41
 200.444 c 128.297 199.772 128.328 199.749 128.758 200.206 c 129.461 200.956
 130.148 202.913 130.039 203.854 c 129.984 204.311 129.902 205.002 129.852
 205.389 c 129.789 205.885 129.973 206.155 130.48 206.327 c 131.461 206.659
 131.844 205.971 132.637 202.459 c 133.461 198.838 133.254 197.221 131.461
 193.186 c 130.727 191.522 130.402 190.67 130.746 191.295 c 132.094 193.729
 133.52 192.35 132.711 189.393 c 132.449 188.424 132.172 187.221 132.098
 186.717 c 131.617 183.467 125.457 176.006 121.059 173.346 c 117.395 171.127
 109.125 168.405 106.672 168.608 c 105.246 168.725 103.16 168.534 100.59
 168.049 c 99.582 167.862 97.023 167.663 94.902 167.616 c 91.477 167.534
 90.695 167.409 87.961 166.491 c 86.27 165.92 84.258 165.065 83.496 164.584
 c 82.125 163.725 80.797 161.858 81.039 161.135 c 81.23 160.561 84.129 159.389
 85.828 159.194 c 88.055 158.936 90.012 158.143 92.359 156.538 c 94.25 155.245
 94.723 154.733 96.07 152.518 c 96.445 151.905 96.68 151.831 97.469 152.077
 c 99.984 152.866 103.988 153.624 104.09 153.331 c 104.137 153.186 104.469
 153.182 104.82 153.319 c 105.176 153.456 106.18 153.655 107.047 153.76 
c 107.918 153.866 109.414 154.19 110.371 154.479 c 115.207 155.948 121.211
 156.749 127.168 156.713 c 129.371 156.702 129.648 156.768 131.812 157.838
 c 134.957 159.393 136.348 160.241 137.672 161.409 c 139.246 162.799 143.391
 165.393 144 165.37 c 144.434 165.35 144.406 165.549 143.828 166.717 c 142.828
 168.721 141.613 175.616 141.684 178.862 c 141.742 181.639 142.797 186.952
 143.777 189.413 c 144.227 190.545 144.801 192.147 145.055 192.967 c 145.801
 195.397 147.184 197.42 148.277 197.67 c 149.871 198.042 150.094 196.827
 149.27 192.221 c 148.879 190.045 148.312 185.999 148.008 183.233 c 147.477
 178.362 147.48 178.124 148.227 175.854 c 149.465 172.065 150.73 170.862
 154.25 170.127 c 156.078 169.749 158.191 170.334 160.266 171.795 c 162.086
 173.081 162.637 173.667 163.844 175.608 c 166.25 179.499 171.004 183.999
 173.637 184.885 c 175.09 185.374 177.703 185.397 180.711 184.944 c 183.359
 184.549 l 183.121 185.256 l 182.922 185.842 182.77 185.901 182.242 185.604
 c 181.73 185.315 181.332 185.44 180.273 186.202 c 177.875 187.936 177.066
 188.358 175.777 188.553 c 175.078 188.663 173.906 188.999 173.176 189.303
 c 171.844 189.858 l 172.59 187.647 l 173.336 185.432 l 170.754 184.561 
l 168.809 183.909 168.113 183.553 167.953 183.131 c 167.836 182.827 167.57
 182.518 167.371 182.452 c 167.168 182.381 166.691 182.006 166.312 181.612
 c 165.523 180.788 163.242 179.944 161.562 179.85 c 160.926 179.819 159.68
 180.053 158.793 180.374 c 157.906 180.694 157.086 180.928 156.977 180.889
 c 156.387 180.702 158.328 179.026 160.16 178.143 c 161.555 177.471 162.246
 176.959 162.23 176.616 c 162.215 176.256 161.996 176.096 161.492 176.084
 c 161.094 176.073 159.699 175.784 158.391 175.436 c 156.773 175.01 155.645
 174.889 154.871 175.061 c 153.492 175.37 153.523 175.127 155.137 173.061
 c 156.469 171.358 156.832 170.475 156.285 170.288 c 155.027 169.866 151.387
 174.331 151.457 176.206 c 151.504 177.444 152.469 177.698 154.762 177.069
 c 156.426 176.612 158.051 176.651 157.602 177.135 c 157.504 177.237 156.809
 177.913 156.047 178.635 c 154.906 179.725 154.535 180.331 153.902 182.127
 c 153.137 184.292 153.137 184.303 153.906 184.663 c 154.441 184.917 154.801
 184.889 155.082 184.573 c 156.797 182.647 160.75 181.194 162.582 181.811
 c 163.609 182.155 l 160.926 183.604 l 158.223 185.057 157.734 185.557 158.16
 186.417 c 158.555 187.206 159.375 187.26 160.91 186.596 c 161.719 186.245
 162.477 185.987 162.594 186.03 c 162.711 186.069 163.523 185.905 164.395
 185.663 c 166.535 185.073 166.98 185.303 165.215 186.084 c 164.199 186.534
 163.738 186.928 163.648 187.42 c 163.441 188.518 164.59 188.893 166.039
 188.206 c 167.277 187.616 169.332 187.327 170.203 187.62 c 170.602 187.752
 170.59 187.956 170.113 188.803 c 168.781 191.194 167.594 194.057 167.691
 194.655 c 167.812 195.377 168.879 195.674 169.453 195.147 c 169.664 194.948
 170.41 194.159 171.109 193.389 c 172.566 191.788 174.172 190.94 176.711
 190.432 c 178.91 189.991 179.418 189.709 181.457 187.803 c 182.352 186.967
 183.008 186.518 182.914 186.803 c 182.648 187.627 183.367 190.049 184.094
 190.78 c 186.188 192.885 192.523 195.151 196.879 195.35 c 200.07 195.495
 205.289 197.198 206.539 198.502 c 207.977 200.006 208.051 204.217 206.668
 205.573 c 206.398 205.838 205.32 206.569 204.277 207.198 c 203.23 207.827
 201.812 208.737 201.129 209.217 c 198.812 210.846 197.098 211.631 193.672
 212.631 c 191.793 213.178 190.078 213.725 189.855 213.85 c 188.199 214.78
 182.93 215.256 181.379 214.612 c 179.703 213.917 179.297 216.303 180.859
 217.674 c 182.129 218.792 186.871 220.651 189.238 220.959 c 191.234 221.221
 193.75 221.01 197.75 220.249 c 199.082 219.995 200.402 219.756 200.684 
219.721 c 200.961 219.686 201.281 219.604 201.391 219.538 c 201.504 219.475
 202.281 219.229 203.117 218.999 c 206.105 218.167 209.805 215.917 212.238
 213.444 c 216.949 208.667 218.52 205.538 218.504 200.963 c 218.496 197.651
 217.648 196.038 216.273 196.717 c 215.691 197.01 215.285 198.155 215.621
 198.561 c 215.758 198.725 215.969 199.838 216.082 201.034 c 216.422 204.502
 215.824 205.698 210.93 211.377 c 209.297 213.276 208.715 213.698 205.59
 215.252 c 202.535 216.772 201.34 217.186 197.891 217.901 c 195.895 218.319
 190.621 218.784 189.539 218.643 c 187.352 218.354 184.625 217.35 184.781
 216.889 c 184.867 216.631 185.105 216.608 185.438 216.827 c 185.934 217.151
 189.582 216.452 192.227 215.522 c 192.824 215.311 194.562 214.709 196.094
 214.182 c 197.773 213.608 200.059 212.456 201.855 211.284 c 203.496 210.213
 205.426 209.081 206.148 208.764 c 209.793 207.167 211.445 200.67 209.016
 197.491 c 207.465 195.467 206.691 194.956 204.285 194.381 c 199.957 193.35
 197.227 192.893 195.461 192.905 c 194.473 192.913 193.203 192.776 192.637
 192.604 c 190.957 192.092 186.656 189.874 185.961 189.163 c 185.012 188.19
 184.965 185.198 185.871 183.198 c 186.25 182.358 186.512 181.389 186.453
 181.045 c 186.312 180.206 185.34 179.913 184.863 180.565 c 184.652 180.85
 184.305 181.022 184.086 180.948 c 183.867 180.877 183.457 180.92 183.168
 181.045 c 182.883 181.174 182.402 181.338 182.094 181.413 c 181.789 181.491
 181.152 181.667 180.68 181.811 c 179.578 182.139 175.977 181.624 173.84
 180.827 c 172.688 180.401 171.699 179.752 170.57 178.682 c 169.68 177.838
 168.859 177.116 168.746 177.081 c 168.633 177.042 168.207 176.499 167.797
 175.87 c 167.391 175.241 166.613 174.307 166.074 173.792 c 165.535 173.28
 164.828 172.561 164.508 172.194 c 162.918 170.393 162.098 169.87 158.98
 168.674 c 155.578 167.37 154.887 167.327 152.547 168.276 c 149.062 169.686
 148.215 170.522 146.84 173.917 c 145.75 176.616 145.43 179.112 145.773 
182.307 c 145.883 183.323 146.133 185.588 146.328 187.342 c 146.652 190.249
 146.641 190.444 146.164 189.553 c 144.809 187.034 143.57 179.733 143.891
 176.163 c 144.152 173.256 146.434 165.538 147.422 164.213 c 148.777 162.397
 154.199 159.213 155.301 159.584 c 155.543 159.667 155.777 159.616 155.824
 159.475 c 155.871 159.334 156.395 159.198 156.984 159.167 c 157.57 159.135
 158.305 159.018 158.609 158.901 c 159.074 158.729 159.672 159.584 162.219
 164.073 c 166.031 170.795 166.938 171.764 170.559 172.987 c 173.051 173.831
 173.324 173.854 176.129 173.491 c 179.207 173.096 180.008 172.678 180.301
 171.315 c 180.551 170.143 179.75 169.87 178.246 170.616 c 176.234 171.612
 173.004 172.03 171.434 171.502 c 168.965 170.67 167.457 169.088 165.094
 164.87 c 163.902 162.741 162.207 159.893 161.324 158.542 c 160.441 157.19
 159.68 155.991 159.629 155.874 c 159.348 155.225 157.105 153.385 155.566
 152.542 c 154.59 152.006 153.195 151.167 152.469 150.674 c 151.742 150.182
 150.426 149.44 149.543 149.022 c 148.656 148.604 147.785 148.049 147.598
 147.788 c 147.105 147.088 148.062 145.604 149.238 145.252 c 151.078 144.694
 155.855 144.948 159.57 145.795 c 163.246 146.639 164.848 147.284 167.605
 149.042 c 168.484 149.6 169.508 150.245 169.879 150.475 c 170.246 150.702
 170.992 151.381 171.539 151.979 c 172.086 152.581 172.719 153.135 172.953
 153.213 c 173.75 153.483 176.18 157.284 178.082 161.241 c 180.297 165.842
 181.559 167.307 183.711 167.772 c 184.461 167.936 185.277 167.967 185.52
 167.846 c 186.266 167.479 185.785 166.467 184.586 165.885 c 183.992 165.596
 183.074 164.897 182.551 164.334 c 181.281 162.975 179.809 160.448 179.98
 159.932 c 180.059 159.706 180.023 159.487 179.902 159.444 c 179.781 159.405
 179.012 158.143 178.191 156.639 c 177.371 155.139 176.316 153.51 175.848
 153.018 c 175.379 152.526 174.953 152.022 174.906 151.897 c 174.859 151.772
 174.355 151.323 173.785 150.901 c 173.215 150.475 172.543 149.874 172.293
 149.561 c 172.039 149.249 170.754 148.303 169.434 147.459 c 165.184 144.737
 157.164 142.444 152.086 142.499 c 147.605 142.549 146.527 143.147 145.152
 146.327 c 143.973 149.049 144.121 149.557 146.176 149.877 c 148.02 150.167
 149.602 150.799 150.957 151.795 c 151.602 152.264 153.09 153.206 154.266
 153.885 c 156.41 155.124 157.359 155.885 157.227 156.276 c 157.188 156.389
 156.289 156.62 155.227 156.788 c 153.762 157.018 152.668 157.506 150.672
 158.811 c 149.227 159.756 147.426 161.147 146.676 161.901 c 145.309 163.272
 l 143.32 162.444 l 142.152 161.956 140.254 160.799 138.727 159.643 c 137.297
 158.557 135.508 157.377 134.746 157.026 c 133.988 156.67 132.711 155.936
 131.91 155.389 c 130.52 154.444 130.371 154.405 128.496 154.463 c 124.051
 154.612 121.25 154.534 119.672 154.217 c 118.754 154.034 117.172 153.819
 116.156 153.737 c 115.141 153.659 112.832 153.155 111.023 152.616 c 108.512
 151.874 107.199 151.651 105.449 151.67 c 103.609 151.694 102.527 151.499
 99.949 150.674 c 98.184 150.108 96.152 149.338 95.43 148.967 c 94.117 148.288
 l 93.809 149.202 l 93.602 149.819 93.645 150.163 93.938 150.26 c 94.488
 150.448 94.355 150.838 93.184 152.502 c 91.914 154.307 87.73 156.596 84.992
 156.991 c 82.676 157.323 80.586 158.135 79.609 159.081 c 77.605 161.014
 78.473 163.897 81.68 165.971 c 84.707 167.924 90.441 169.752 93.133 169.616
 c 96.227 169.459 103.938 170.53 105.797 171.374 c 106.191 171.553 106.855
 171.542 107.281 171.346 c 108.855 170.635 115.742 172.588 119.578 174.834
 c 122.316 176.44 123.695 177.752 126.789 181.69 c 129.273 184.854 129.363
 184.999 129.699 186.292 c 129.926 187.178 l 128.832 186.877 l 128.227 186.709
 127.039 185.987 126.18 185.256 c 125.324 184.53 124.352 183.842 124.02 
183.733 c 123.234 183.467 122.973 184.245 123.668 184.756 c 124.809 185.588
 128.176 190.35 129.273 192.682 c 130.559 195.413 131.457 198.577 131.324
 199.897 c 131.238 200.756 131.219 200.741 130.086 198.94 c 128.727 196.788
 128.219 196.362 127.059 196.409 c 125.984 196.448 125.91 196.67 126.238
 198.854 c 126.707 201.971 126.738 202.295 126.629 203.249 c 126.535 204.084
 126.387 203.889 125.258 201.417 c 124.562 199.897 123.203 197.651 122.238
 196.432 c 119.855 193.42 116.094 189.491 115.355 189.241 c 114.43 188.928
 114.375 189.749 115.223 191.213 c 116.336 193.131 117.781 196.342 117.578
 196.444 c 117.484 196.491 117.23 196.135 117.012 195.659 c 116.797 195.178
 115.672 193.428 114.516 191.772 c 112.484 188.854 109.293 182.776 108.273
 179.885 c 107.426 177.479 106.328 176.737 100.777 174.815 c 97.715 173.756
 95.488 173.135 94.672 173.108 c 93.965 173.088 92.055 172.78 90.426 172.424
 c 88.793 172.073 86.562 171.772 85.461 171.76 c 82.508 171.725 76.461 170.604
 72.629 169.374 c 69.328 168.315 69.23 168.26 67.422 166.514 c 64.73 163.913
 64.496 162.155 66.496 159.577 c 67.855 157.823 71.953 154.94 76.008 152.877
 c 80.785 150.448 82.781 148.917 83.734 146.944 c 85.25 143.792 84.578 140.491
 81.809 137.522 c 80.848 136.495 79.852 135.413 79.594 135.12 c 79.332 134.827
 77.965 133.53 76.551 132.241 c 75.137 130.948 73.855 129.639 73.699 129.327
 c 73.547 129.018 73.238 128.706 73.02 128.631 c 72.254 128.374 71.262 123.999
 71.465 121.788 c 71.512 121.268 71.484 120.018 71.406 119.01 c 71.324 118.002
 71.223 116.217 71.18 115.045 c 71.137 113.87 70.969 110.448 70.809 107.436
 c 70.648 104.42 70.582 101.057 70.664 99.959 c 70.746 98.862 70.668 97.135
 70.496 96.124 c 70.176 94.284 l 71.055 94.663 l 71.648 94.92 72.098 94.905
 72.441 94.624 c 72.863 94.28 72.855 94.045 72.391 93.256 c 71.723 92.112
 69.93 91.178 65.559 89.694 c 59.773 87.733 56.496 87.362 52.387 88.202 
c 51.297 88.424 49.988 88.553 49.484 88.491 c 48.367 88.346 48.074 87.538
 48.18 84.905 c 48.215 83.952 48.203 82.721 48.152 82.167 c 48.031 80.92
 48.047 78.167 48.176 77.788 c 48.23 77.631 48.215 76.862 48.141 76.084 
c 48.066 75.303 47.992 74.151 47.973 73.518 c 47.953 72.889 47.703 70.397
 47.41 67.983 c 47.121 65.565 46.895 63.229 46.906 62.788 c 46.918 62.346
 46.672 60.292 46.359 58.229 c 46.051 56.163 45.613 52.659 45.395 50.448
 c 45.172 48.233 44.871 45.995 44.73 45.471 c 44.586 44.952 44.504 44.428
 44.543 44.307 c 44.582 44.186 44.449 43.581 44.242 42.959 c 44.039 42.338
 43.684 40.745 43.457 39.42 c 43.23 38.096 42.902 36.206 42.734 35.217 c
 42.562 34.229 42.5 33.042 42.602 32.581 c 42.742 31.909 42.617 31.663 41.98
 31.366 c 41.48 31.127 40.879 31.124 40.367 31.346 c 38.199 32.295 36.402
 31.94 32.859 29.85 c 29.48 27.858 29.129 27.577 28.648 26.448 c 28.227 
25.448 27.305 21.393 27.422 21.045 c 27.461 20.92 27.312 20.276 27.09 19.616
 c 26.625 18.245 27.016 14.545 27.906 11.901 c 28.473 10.225 l 29.59 10.604
 l 30.832 11.022 32.957 12.565 34.59 14.245 c 35.699 15.381 37.871 16.713
 41.023 18.186 c 44.973 20.03 50.164 24.553 50.5 26.448 c 50.918 28.792 
51.605 31.717 52.16 33.518 c 52.484 34.565 53.359 38.252 54.109 41.713 c
 54.855 45.174 55.941 49.764 56.523 51.913 c 57.961 57.256 58.891 65.374
 58.332 67.768 c 57.91 69.573 l 58.906 69.987 l 59.781 70.354 60.047 70.295
 61.102 69.502 c 61.758 69.006 62.637 68.569 63.047 68.534 c 64.25 68.424
 66.863 67.819 68.785 67.202 c 71.906 66.206 73.316 65.987 75.938 66.1 c
 77.344 66.159 79.18 66.112 80.023 65.999 c 80.863 65.881 82.043 65.842 
82.645 65.909 c 83.246 65.979 85.105 65.87 86.777 65.67 c 91.32 65.127 95.492
 65.76 97.879 67.358 c 98.461 67.745 99.672 68.358 100.57 68.717 c 102.344
 69.424 106.004 71.85 108.195 73.772 c 110.332 75.647 115.402 81.151 116.738
 83.049 c 117.402 83.991 118.301 85.229 118.73 85.799 c 119.164 86.374 119.863
 87.534 120.293 88.381 c 120.719 89.229 121.508 90.569 122.043 91.366 c 
123.312 93.249 124.656 96.124 124.492 96.608 c 124.324 97.104 125.41 98.124
 126.074 98.096 c 127.324 98.045 127.137 96.139 125.586 93.112 c 124.656
 91.303 120.207 83.991 119.195 82.616 c 118.445 81.596 l 120.375 81.553 
l 123.934 81.471 133.328 78.573 140.605 75.303 c 144.551 73.534 147.672 
72.467 150.102 72.061 c 151.047 71.901 153.129 71.432 154.73 71.018 c 156.328
 70.604 157.703 70.284 157.777 70.311 c 158.051 70.401 164.098 69.034 164.82
 68.713 c 165.812 68.284 169.398 67.76 172.852 67.549 c 182.406 66.959 187.496
 67.698 198.211 71.229 c 201.992 72.475 205.219 73.651 205.379 73.846 c 
205.598 74.108 205.43 74.331 204.703 74.729 c 202.43 75.975 199.082 79.252
 196.348 82.909 c 193.469 86.76 189.266 91.018 187.531 91.838 c 186.34 92.405
 184.387 92.877 183.594 92.795 c 181.57 92.584 181.602 92.569 181.145 93.924
 c 180.73 95.151 180.754 95.229 181.543 95.495 c 182.004 95.651 182.773 
95.639 183.254 95.471 c 183.738 95.299 184.668 95.088 185.324 94.995 c 187.586
 94.678 189.711 93.385 192.359 90.709 c 195.027 88.014 195.258 87.756 197.684
 84.725 c 201.371 80.116 204.555 77.565 210.359 74.573 c 219.93 69.635 222.402
 68.139 227.148 64.424 c 233.543 59.417 234.371 58.346 236.449 52.405 c 
237.652 48.959 238.211 47.702 238.844 47.022 c 239.543 46.272 242.379 44.217
 245.801 41.983 c 246.59 41.467 249.242 39.03 251.902 36.377 c 252.57 35.709
 253.348 34.733 253.633 34.206 c 253.918 33.678 255.309 31.667 256.723 29.737
 c 259.863 25.452 260.426 24.538 262.832 19.803 c 264.605 16.315 264.77 
15.862 265.277 13.006 c 266.723 4.932 266.871 4.385 267.812 3.729 c 270.375
 1.944 272.988 1.881 276.543 3.522 c 278.105 4.241 278.562 4.639 279.781
 6.342 c 280.562 7.432 281.562 9.225 282.004 10.331 c 282.66 11.967 282.723
 12.436 282.344 12.877 c 282.09 13.17 281.629 13.893 281.32 14.479 c 280.691
 15.667 278.023 17.284 275.867 17.788 c 274.133 18.19 270.234 20.213 269.168
 21.264 c 268.363 22.053 264.621 27.885 262.973 30.913 c 262.594 31.608 
261.652 32.92 260.879 33.831 c 259.676 35.241 258.18 37.397 255.461 41.627
 c 255.129 42.139 254.211 44.479 253.418 46.819 c 251.918 51.252 250.094
 54.94 248.629 56.506 c 247.812 57.377 245.621 58.948 244.781 59.26 c 243.5
 59.745 240.012 62.749 238.293 64.854 c 237.605 65.694 236.492 66.995 235.816
 67.749 c 235.141 68.502 233.852 70.401 232.953 71.971 c 232.059 73.542 
230.789 75.737 230.133 76.854 c 227.254 81.776 225.836 86.487 226.246 89.764
 c 226.539 92.081 226.348 95.323 225.762 97.995 c 225.188 100.616 225.281
 101.475 226.188 101.78 c 226.617 101.924 226.805 101.749 227.07 100.956
 c 227.891 98.53 228.512 93.495 228.379 90.366 c 228.238 86.952 228.629 
84.108 229.406 82.897 c 229.859 82.19 l 230.359 83.124 l 231.086 84.475 
231.754 88.588 231.625 90.924 c 231.566 92.038 231.668 93.073 231.852 93.225
 c 232.332 93.624 233.258 93.182 233.508 92.432 c 233.824 91.495 233.344
 86.471 232.73 84.276 c 232.438 83.233 232.152 82.081 232.098 81.713 c 232.043
 81.315 231.703 80.948 231.25 80.795 c 230.492 80.542 l 231.32 78.956 l 
232.477 76.737 235.055 72.444 235.973 71.206 c 237.309 69.405 241.355 64.92
 242.723 63.725 c 243.836 62.749 244.902 62.057 247.262 60.78 c 248.492 
60.116 250.566 57.995 251.703 56.245 c 252.715 54.686 253.379 53.143 254.746
 49.167 c 256.582 43.842 257.879 41.346 260.691 37.717 c 263.332 34.307 
264.066 33.288 264.625 32.237 c 264.949 31.631 266.328 29.37 267.691 27.209
 c 270.094 23.401 270.23 23.245 272.25 22.034 c 273.398 21.35 275.73 20.327
 277.434 19.76 c 281.301 18.483 282.742 17.475 283.375 15.596 c 283.629 
14.842 284.082 14.026 284.379 13.78 c 284.816 13.42 284.891 13.104 284.773
 12.116 c 284.398 9.01 282.828 6.026 280.133 3.295 c 278.711 1.858 278.434
 1.702 275.691 0.823 c 273.203 0.022 272.516 -0.083 271.043 0.12 c h
116.84 45.006 m 117.551 45.682 118.141 46.452 118.152 46.717 c 118.16 46.983
 118.492 47.452 118.887 47.756 c 120.223 48.795 120.18 50.303 118.441 62.897
 c 118.266 64.174 118.062 66.366 117.988 67.768 c 117.914 69.17 117.781 
70.913 117.688 71.643 c 117.598 72.374 117.539 74.249 117.559 75.811 c 117.578
 77.377 117.59 78.909 117.59 79.217 c 117.59 80.557 116.41 79.756 112.324
 75.635 c 110.039 73.331 107.785 71.221 107.316 70.952 c 106.547 70.51 106.484
 70.319 106.699 69.108 c 106.832 68.366 106.969 66.569 107.004 65.112 c 
107.043 63.502 107.383 61.245 107.871 59.334 c 108.781 55.788 108.949 54.366
 108.746 52.092 c 108.641 50.948 108.438 50.452 108.008 50.307 c 107.348
 50.084 107.195 50.342 107.16 51.78 c 107.113 53.643 106.848 56.604 106.684
 57.092 c 106.195 58.545 100.277 54.362 98.637 51.409 c 98.195 50.612 97.406
 49.245 96.883 48.377 c 96.359 47.506 95.902 46.366 95.867 45.838 c 95.832
 45.311 95.629 44.69 95.422 44.456 c 94.82 43.78 95.699 43.288 98.164 42.917
 c 99.523 42.713 101.039 42.737 102.18 42.979 c 103.188 43.194 104.383 43.35
 104.836 43.327 c 105.293 43.303 106.441 43.354 107.395 43.44 c 108.344 
43.526 110.105 43.491 111.309 43.362 c 114 43.073 115.172 43.42 116.84 45.006
 c h
313.703 38.713 m 313.004 38.725 312.098 38.901 311.691 39.1 c 310.75 39.569
 309.512 41.936 307.691 46.741 c 306.402 50.151 306.137 50.631 304.676 52.209
 c 303.797 53.159 302.855 54.084 302.582 54.256 c 302.309 54.432 301.414
 55.225 300.598 56.022 c 299.777 56.815 298.539 57.854 297.844 58.334 c 
297.148 58.815 296.051 59.608 295.41 60.1 c 294.766 60.592 293.562 61.448
 292.734 62.002 c 291.906 62.561 290.645 63.526 289.934 64.147 c 289.223
 64.772 287.316 66.42 285.703 67.811 c 284.086 69.202 282.727 70.448 282.684
 70.581 c 282.414 71.381 275.352 75.229 274.613 74.983 c 274.527 74.952 
273.496 75.034 272.328 75.163 c 269.828 75.432 268.844 76.045 267.348 78.256
 c 266.051 80.167 265.867 80.721 264.965 85.377 c 264.301 88.803 264.246
 88.956 263.047 90.565 c 262.371 91.479 260.652 93.366 259.227 94.756 c 
256.488 97.44 255.477 98.276 247.691 104.272 c 247.34 104.538 245.965 105.338
 244.637 106.049 c 243.305 106.76 241.98 107.553 241.695 107.815 c 241.203
 108.264 241.145 108.252 240.52 107.53 c 240.156 107.112 239.113 106.334
 238.199 105.799 c 236.746 104.952 236.23 104.799 234.07 104.588 c 231.988
 104.389 231.375 104.467 230.145 105.108 c 228.684 105.866 l 227.621 104.889
 l 224.316 101.854 219.887 100.686 216.469 101.956 c 214.598 102.647 213.684
 103.776 213.07 106.155 c 212.477 108.456 212.852 109.6 214.625 110.924 
c 215.379 111.483 216.316 112.417 216.711 113.002 c 217.105 113.588 217.547
 114.104 217.688 114.151 c 217.832 114.202 218.133 114.643 218.359 115.135
 c 218.77 116.034 l 217.602 117.647 l 216.445 119.241 215.457 120.061 212.637
 121.752 c 211.84 122.229 210.527 123.057 209.727 123.588 c 207.695 124.928
 202.141 126.917 195.707 128.604 c 194.391 128.952 191.125 130.913 188.078
 133.19 c 185.82 134.881 184.715 136.428 183.324 139.854 c 182.719 141.342
 181.664 143.557 180.988 144.772 c 179.492 147.448 179.188 148.62 179.883
 149.014 c 180.164 149.17 180.559 149.213 180.762 149.116 c 181.398 148.799
 183.281 145.334 184.594 142.065 c 185.289 140.334 186.188 138.452 186.594
 137.874 c 187.363 136.792 190.613 134.1 192.414 133.061 c 192.984 132.733
 193.484 132.354 193.527 132.221 c 193.613 131.971 196.84 130.803 202.273
 129.061 c 207.004 127.545 209.309 126.592 210.684 125.584 c 211.359 125.092
 212.941 124.143 214.199 123.479 c 215.457 122.819 216.809 121.959 217.195
 121.573 c 217.586 121.186 218.152 120.717 218.449 120.53 c 218.75 120.342
 219.367 119.479 219.828 118.612 c 221.84 114.807 226.766 111.139 230.633
 110.569 c 232.688 110.264 234.773 111.163 238.215 113.834 c 240.012 115.229
 241.004 118.866 241.145 124.588 c 241.223 127.717 241.059 128.385 240.039
 129.135 c 237.801 130.784 232.777 136.678 231.344 139.334 c 230.773 140.389
 229.383 142.545 228.246 144.127 c 227.113 145.706 226.008 147.26 225.793
 147.581 c 225.406 148.155 224.379 149.991 220.113 157.756 c 218.918 159.936
 217.801 161.909 217.633 162.139 c 217.18 162.764 216.926 166.256 217.129
 169.065 c 217.336 171.975 217.465 172.42 218.16 172.655 c 218.918 172.909
 218.844 173.858 218.039 174.225 c 217.66 174.393 216.172 175.014 214.73
 175.6 c 211.16 177.053 208.848 178.163 208.742 178.471 c 208.695 178.616
 208.16 178.963 207.555 179.249 c 206.375 179.803 205.035 181.354 204.906
 182.319 c 204.789 183.167 205.848 183.413 206.562 182.702 c 206.891 182.374
 207.816 181.721 208.621 181.249 c 209.887 180.506 210.297 180.436 211.652
 180.717 c 212.52 180.897 214.477 181.014 216.004 180.975 c 220.02 180.874
 220.543 180.913 222.215 181.432 c 223.836 181.936 226.422 184.1 228.301
 186.534 c 230.359 189.202 231.855 194.612 231.141 196.831 c 230.953 197.42
 230.484 198.319 230.105 198.823 c 229.418 199.741 l 228.566 198.756 l 227.965
 198.061 226.734 197.303 224.352 196.167 c 220.02 194.096 217.391 193.221
 214.961 193.038 c 213.227 192.909 212.934 192.815 212.332 192.182 c 211.84
 191.667 211.199 191.377 209.988 191.127 c 206.473 190.397 202.566 189.147
 202.02 188.581 c 200.559 187.069 199.348 184.85 199.117 183.256 c 198.98
 182.319 198.648 180.932 198.375 180.17 c 198.105 179.413 197.957 178.815
 198.047 178.846 c 198.578 179.026 200.707 181.358 201.547 182.686 c 202.121
 183.588 202.852 184.354 203.285 184.499 c 205.121 185.12 204.723 181.12
 202.645 178.045 c 202.215 177.409 201.711 176.838 201.527 176.776 c 201.34
 176.713 200.934 176.276 200.617 175.799 c 199.488 174.1 195.676 169.866
 194.316 168.803 c 192.617 167.479 189.207 166.225 188.996 166.85 c 188.898
 167.135 189.383 167.506 190.578 168.069 c 192.621 169.034 195.273 171.631
 197.363 174.721 c 198.141 175.862 199.164 177.022 199.645 177.299 c 200.125
 177.577 200.598 178.01 200.695 178.264 c 200.812 178.561 200.395 178.354
 199.523 177.682 c 198.785 177.112 197.688 176.471 197.09 176.264 c 196.043
 175.901 195.984 175.928 195.668 176.87 c 195.484 177.413 195.484 178.096
 195.668 178.393 c 196.02 178.956 196.586 180.866 197.105 183.229 c 197.414
 184.631 l 196.777 183.655 l 194.012 179.432 192.227 177.53 191.078 177.581
 c 190.336 177.608 190.02 178.854 190.527 179.749 c 190.957 180.502 191.312
 183.084 191.078 183.737 c 191.016 183.924 190.781 183.338 190.566 182.44
 c 190.352 181.538 189.578 179.627 188.852 178.19 c 187.777 176.061 187.383
 175.549 186.727 175.432 c 186.078 175.311 185.918 175.112 185.891 174.366
 c 185.867 173.69 185.66 173.377 185.125 173.198 c 184.301 172.92 183.656
 173.549 183.582 174.702 c 183.535 175.452 183.047 172.049 182.848 169.573
 c 182.754 168.405 182.602 168.108 182.043 168.002 c 181.102 167.827 181.012
 168.358 181.219 172.983 c 181.316 175.159 181.23 177.389 181.027 177.999
 c 180.488 179.596 180.59 180.096 181.516 180.409 c 182.453 180.725 183.762
 179.772 185.051 177.834 c 185.473 177.194 185.91 176.702 186.023 176.741
 c 186.133 176.78 186.637 177.639 187.141 178.655 c 188.465 181.331 189.176
 184.385 188.867 186.069 c 188.492 188.112 188.641 188.557 189.918 189.241
 c 191.285 189.975 191.637 189.776 192.258 187.917 c 192.645 186.76 192.797
 185.877 193.078 183.077 c 193.152 182.37 193.168 182.374 193.875 183.104
 c 194.273 183.518 195.172 184.92 195.875 186.221 c 196.629 187.624 197.41
 188.678 197.789 188.807 c 198.137 188.924 198.66 189.272 198.945 189.577
 c 199.84 190.534 203.363 192.706 205.371 193.538 c 206.594 194.042 208.02
 194.389 209.285 194.487 c 210.379 194.577 211.941 194.87 212.75 195.143
 c 213.559 195.417 214.867 195.627 215.652 195.608 c 217.586 195.569 219.473
 196.194 222.906 198.006 c 226.957 200.151 226.977 200.163 227.145 201.245
 c 227.312 202.354 228.473 203.514 229.426 203.53 c 229.875 203.538 230.25
 203.198 230.68 202.385 c 231.02 201.749 231.645 200.834 232.07 200.354 
c 233.031 199.276 233.859 196.956 233.871 195.323 c 233.883 193.491 232.949
 190.366 231.582 187.655 c 230.707 185.917 229.719 184.588 228.039 182.893
 c 225.75 180.584 225.664 180.53 223.078 179.694 c 221.012 179.022 219.762
 178.827 217.246 178.768 c 215.484 178.733 214.012 178.639 213.977 178.565
 c 213.941 178.491 214.691 178.127 215.645 177.76 c 221.02 175.694 222.699
 174.631 225.465 171.549 c 227.367 169.436 228.961 165.565 229.277 162.299
 c 229.395 161.092 229.586 159.42 229.703 158.581 c 229.82 157.745 230.012
 155.889 230.133 154.456 c 230.254 153.022 230.395 151.717 230.449 151.557
 c 230.504 151.393 231.387 150.624 232.406 149.842 c 235.746 147.295 239.512
 142.674 241.176 139.081 c 241.82 137.694 243.035 135.405 243.875 133.995
 c 244.715 132.581 245.633 130.881 245.914 130.217 c 246.738 128.264 248.738
 125.897 251.074 124.1 c 251.477 123.792 252.383 123.002 253.09 122.35 c
 254.449 121.088 255.863 119.92 257.867 118.405 c 259.246 117.362 263.004
 113.604 263.176 113.1 c 263.234 112.917 263.918 112.12 264.691 111.323 
c 265.465 110.526 266.66 109.19 267.348 108.35 c 268.035 107.514 269.145
 106.245 269.812 105.53 c 270.48 104.811 271.102 103.995 271.199 103.709
 c 271.297 103.424 271.543 103.108 271.754 103.006 c 271.961 102.901 272.738
 101.87 273.477 100.717 c 274.219 99.561 275.441 98.108 276.195 97.487 c
 276.949 96.862 277.586 96.295 277.609 96.225 c 277.633 96.155 278.668 95.268
 279.902 94.252 c 282.883 91.815 284.832 89.545 286.262 86.846 c 287.75 
84.038 289.957 80.917 291.176 79.897 c 291.863 79.323 292.719 78.471 293.078
 78.014 c 293.434 77.553 294.094 76.909 294.547 76.577 c 294.996 76.245 
295.809 75.542 296.348 75.01 c 296.891 74.479 298.301 73.424 299.484 72.663
 c 300.672 71.905 301.852 71.03 302.109 70.721 c 302.363 70.409 303.602 
69.397 304.855 68.471 c 306.109 67.545 307.434 66.549 307.797 66.264 c 308.16
 65.975 309.004 65.323 309.668 64.807 c 310.328 64.292 310.895 63.807 310.922
 63.725 c 310.949 63.647 311.934 62.842 313.105 61.944 c 315.359 60.213 
317.59 59.194 320.906 58.366 c 323.586 57.698 325.977 56.557 326.223 55.834
 c 326.465 55.108 325.699 50.702 325.039 49.034 c 324.77 48.358 324.254 
47.03 323.891 46.088 c 323.035 43.862 320.48 41.288 317.797 39.944 c 315.352
 38.717 315.246 38.686 313.703 38.713 c h
319.977 43.725 m 321.234 44.952 322.633 47.405 323.207 49.385 c 324.305
 53.17 324.5 54.264 324.164 54.721 c 323.816 55.198 321.195 56.315 320.766
 56.17 c 320.652 56.131 319.574 56.362 318.367 56.682 c 316.09 57.292 313.297
 59.112 309.789 62.28 c 308.203 63.713 306.609 64.975 304.984 66.088 c 304.547
 66.385 303.004 67.616 301.555 68.819 c 300.102 70.022 298.445 71.288 297.875
 71.631 c 293.582 74.206 287.375 80.854 284.633 85.811 c 283.289 88.241 
282.074 89.713 280.133 91.26 c 276.617 94.061 272.879 97.784 272.504 98.858
 c 272.285 99.479 267.562 105.393 264.215 109.241 c 260.496 113.51 258.398
 115.62 255.562 117.94 c 254.199 119.053 253.059 120.038 253.027 120.131
 c 252.996 120.221 252.305 120.815 251.488 121.452 c 250.672 122.088 248.984
 123.62 247.734 124.858 c 245.754 126.823 245.184 127.631 243.289 131.139
 c 242.09 133.358 240.625 136.245 240.027 137.561 c 238.137 141.725 232.953
 148.194 231.523 148.167 c 231.168 148.163 230.805 148.006 230.715 147.823
 c 230.441 147.272 232.742 140.264 233.477 139.405 c 233.828 138.987 235.012
 137.573 236.105 136.252 c 237.875 134.116 239.992 131.94 241.676 130.534
 c 242.586 129.776 243.242 126.807 243.09 124.167 c 243.016 122.893 242.773
 120.506 242.555 118.858 c 242.332 117.209 242.199 115.706 242.266 115.518
 c 242.328 115.331 242.234 114.327 242.059 113.284 c 241.543 110.264 241.973
 109.577 245.793 107.374 c 248.738 105.678 251.41 103.776 254.777 100.983
 c 255.023 100.776 255.871 100.131 256.66 99.549 c 258.535 98.163 263.504
 93.225 264.988 91.272 c 266.156 89.737 266.16 89.725 266.691 86.26 c 267.312
 82.229 267.488 81.639 268.629 79.709 c 269.586 78.088 271.711 76.85 273.281
 76.991 c 274.797 77.131 278.852 75.819 280.59 74.627 c 281.492 74.006 283.906
 71.948 285.949 70.049 c 289.547 66.706 291.758 64.881 295.047 62.542 c 
300.684 58.53 303.273 56.393 305.688 53.764 c 306.469 52.913 307.199 52.249
 307.312 52.288 c 307.426 52.323 307.855 51.905 308.266 51.358 c 308.824
 50.612 308.984 50.178 308.895 49.647 c 308.75 48.784 309.691 45.917 310.934
 43.456 c 311.707 41.92 312.02 41.584 313.078 41.155 c 314.25 40.682 314.434
 40.702 316.457 41.518 c 318.012 42.143 318.977 42.749 319.977 43.725 c 
h
237.645 107.62 m 238.914 108.44 240.176 110.456 240.156 111.635 c 240.148
 112.038 240.062 112.405 239.961 112.456 c 239.859 112.506 238.547 111.745
 237.043 110.764 c 234.34 109.002 232.605 108.35 230.082 108.135 c 228.668
 108.018 229.281 107.276 231.18 106.803 c 234.105 106.073 235.516 106.252
 237.645 107.62 c h
225.035 105.151 m 226.527 106.202 228.445 108.331 228.312 108.788 c 228.195
 109.19 224.969 110.764 224.551 110.627 c 224.352 110.561 223.48 109.756
 222.613 108.842 c 221.023 107.163 219.871 106.459 219.867 107.167 c 219.867
 107.584 219.887 107.608 222.113 109.667 c 223.691 111.127 223.852 111.627
 222.863 112.006 c 222.559 112.124 222.262 112.35 222.211 112.506 c 222.016
 113.081 220.496 114.452 220.18 114.338 c 219.996 114.276 219.426 113.577
 218.914 112.78 c 218.398 111.987 217.297 110.788 216.461 110.12 c 214.574
 108.612 214.273 107.69 215.117 105.991 c 215.879 104.456 216.566 103.87
 218 103.53 c 220.141 103.022 222.91 103.663 225.035 105.151 c h
229.008 148.143 m 228.82 148.698 228.246 154.108 227.66 160.827 c 227.32
 164.725 226.359 167.249 224.309 169.651 c 223.383 170.733 222.418 171.631
 222.164 171.643 c 221.633 171.663 220.855 170.42 221.047 169.85 c 221.121
 169.635 221.383 169.526 221.633 169.612 c 222.008 169.737 222.137 169.51
 222.363 168.319 c 222.516 167.522 222.676 166.381 222.723 165.788 c 222.77
 165.1 223.078 164.272 223.555 163.53 c 224.121 162.651 224.316 162.042 
224.352 161.057 c 224.406 159.381 223.918 157.471 223.32 157.026 c 222.977
 156.768 222.957 156.487 223.258 155.948 c 223.48 155.549 223.961 154.592
 224.328 153.827 c 224.879 152.663 227.23 148.741 228.086 147.557 c 228.484
 147.006 229.23 147.483 229.008 148.143 c h
220.824 166.417 m 221.047 166.495 221.055 166.944 220.844 167.561 c 220.531
 168.491 220.426 168.557 219.66 168.299 c 218.762 167.995 218.605 167.479
 219.023 166.237 c 219.23 165.612 219.363 165.561 219.867 165.893 c 220.195
 166.112 220.625 166.346 220.824 166.417 c h
233.754 78.569 m 233.16 79.288 233.191 80.803 233.875 84.526 c 234.293 
86.803 234.516 89.53 234.457 91.6 c 234.289 97.342 234.301 97.542 234.746
 97.799 c 235.078 97.991 235.262 97.815 235.508 97.084 c 235.914 95.877 
236.336 88.276 236.09 86.573 c 235.844 84.858 235.914 84.799 236.727 86.006
 c 237.672 87.405 238.301 90.397 238.137 92.694 c 237.824 96.987 237.824
 96.948 238.426 97.151 c 239.348 97.463 239.633 96.784 240.246 92.776 c 
241.035 87.6 240.984 87.694 242.086 89.456 c 243.824 92.229 243.07 97.995
 240.422 102.202 c 238.875 104.659 238.801 105.057 239.832 105.405 c 240.496
 105.627 240.781 105.553 241.055 105.088 c 242.594 102.475 243.141 101.366
 243.664 99.792 c 245.105 95.467 245.266 91.252 244.074 89.061 c 243.68 
88.338 242.941 86.944 242.434 85.971 c 241.246 83.682 240.594 83.538 239.828
 85.401 c 239.273 86.76 l 238.051 84.799 l 237.379 83.721 236.523 81.897
 236.156 80.749 c 235.66 79.206 235.297 78.596 234.777 78.42 c 234.391 78.288
 233.93 78.358 233.754 78.569 c h
229.945 114.069 m 229.777 114.213 229.566 114.827 229.48 115.436 c 229.395
 116.045 229.184 116.584 229.012 116.635 c 228.445 116.795 226.406 119.292
 226.105 120.19 c 225.926 120.721 225.539 121.143 225.125 121.268 c 224.746
 121.377 223.691 121.932 222.781 122.495 c 221.152 123.506 221.121 123.549
 220.688 125.381 c 220.398 126.616 220.117 127.272 219.852 127.334 c 219.633
 127.385 219.367 127.682 219.262 127.991 c 219.16 128.303 218.891 128.495
 218.668 128.42 c 218.16 128.249 217.695 128.799 217.262 130.081 c 217.078
 130.627 216.797 131.03 216.637 130.979 c 216.477 130.924 216.211 131.276
 216.047 131.76 c 215.875 132.276 215.547 132.651 215.262 132.663 c 214.707
 132.686 213.871 133.885 212.758 136.252 c 212.109 137.627 211.871 137.881
 211.199 137.905 c 210.562 137.932 210.332 138.143 210.051 138.979 c 209.859
 139.553 209.359 140.553 208.941 141.202 c 208.527 141.85 208.156 142.737
 208.121 143.174 c 208.07 143.823 208.238 144.03 209.012 144.292 c 210.039
 144.639 209.797 144.893 212.051 141.1 c 212.273 140.729 212.688 139.975
 212.977 139.424 c 213.332 138.733 213.695 138.432 214.125 138.463 c 214.535
 138.491 214.832 138.256 214.992 137.788 c 215.125 137.389 215.484 136.971
 215.793 136.85 c 216.16 136.709 216.527 136.112 216.863 135.116 c 217.234
 134.01 217.598 133.463 218.184 133.12 c 218.629 132.858 219.09 132.354 
219.211 131.995 c 219.332 131.639 219.656 131.26 219.93 131.155 c 220.254
 131.03 220.836 129.987 221.551 128.245 c 222.855 125.081 223.664 124.346
 226.766 123.518 c 227.777 123.245 228.875 122.741 229.199 122.393 c 229.84
 121.709 231.25 117.721 231.551 115.741 c 231.707 114.706 231.621 114.452
 231 114.159 c 230.594 113.967 230.117 113.928 229.949 114.069 c h
178.27 98.713 m 176.871 99.874 175.172 102.999 173.926 106.698 c 171.586
 113.643 168.418 132.311 169.223 134.401 c 169.328 134.678 169.289 136.463
 169.133 138.362 c 168.832 142.045 168.941 142.788 169.824 143.084 c 170.734
 143.393 171.059 142.581 170.832 140.557 c 170.711 139.51 170.801 137.475
 171.023 136.034 c 172.051 129.42 172.68 124.506 172.711 122.827 c 172.746
 120.784 174.219 114.768 176.07 109.092 c 177.008 106.209 l 176.246 106.104
 l 175.508 106.002 175.5 105.959 176.094 104.713 c 177.461 101.823 178.309
 100.475 179.133 99.877 c 179.609 99.534 180.07 99.042 180.156 98.788 c 
180.434 97.959 179.234 97.913 178.27 98.713 c h
195.746 104.706 m 195.52 104.721 195.277 104.897 195.207 105.1 c 195.141
 105.303 194.703 105.69 194.238 105.959 c 193.77 106.233 192.289 107.542
 190.941 108.87 c 185.73 114.018 179.504 125.764 176.309 136.475 c 174.828
 141.432 174.453 144.084 175.172 144.495 c 175.871 144.889 176.199 144.194
 176.68 141.288 c 177.277 137.674 179.531 130.932 180.152 130.905 c 180.664
 130.885 181.926 128.256 183.465 124.018 c 184.574 120.963 187.418 115.971
 188.195 115.717 c 188.473 115.627 189.137 114.901 189.672 114.108 c 192.68
 109.643 195.223 106.584 196.094 106.381 c 196.277 106.338 196.531 105.983
 196.664 105.592 c 196.895 104.909 196.629 104.655 195.746 104.706 c h
199.516 115.245 m 198.859 115.78 197.594 116.92 196.699 117.78 c 195.809
 118.639 194.168 120.112 193.059 121.057 c 189.266 124.28 187.504 126.006
 186.812 127.163 c 186.434 127.795 185.75 128.92 185.301 129.659 c 184.848
 130.397 184.215 131.424 183.898 131.944 c 183.586 132.459 182.762 133.862
 182.074 135.057 c 181.387 136.252 180.504 137.741 180.113 138.37 c 179.207
 139.831 177.84 143.87 177.883 144.967 c 177.902 145.475 178.141 145.885
 178.484 146.002 c 179.008 146.178 179.152 145.94 180.188 143.252 c 181.375
 140.163 183.176 136.635 185.516 132.811 c 186.285 131.557 187.32 129.862
 187.809 129.045 c 188.848 127.323 189.996 126.143 193.668 123.014 c 197.402
 119.831 201.504 115.639 201.477 115.03 c 201.441 114.155 200.758 114.229
 199.516 115.245 c h
202.465 142.741 m 202.098 142.768 201.246 142.612 200.566 142.397 c 199.559
 142.077 199.062 142.131 197.824 142.709 c 196.066 143.53 194.719 145.229
 193.406 148.272 c 192.555 150.256 l 191.434 149.924 l 190.816 149.745 189.473
 149.682 188.441 149.792 c 186.945 149.948 186.527 150.124 186.34 150.67
 c 185.883 152.03 186.906 152.842 188.535 152.42 c 189.289 152.221 189.516
 152.28 190 152.799 c 190.48 153.307 190.711 153.374 191.391 153.202 c 191.84
 153.088 193.113 153.209 194.227 153.475 c 197.473 154.245 197.68 154.163
 203.496 149.745 c 205.039 148.573 205.32 148.206 205.789 146.788 c 206.23
 145.456 206.238 145.049 205.836 144.487 c 205.23 143.643 203.355 142.674
 202.465 142.741 c h
202.906 147.678 m 202.812 147.967 202.449 148.393 202.102 148.624 c 201.754
 148.854 200.832 149.557 200.059 150.19 c 199.281 150.819 198.285 151.542
 197.844 151.792 c 197.016 152.264 195.785 152.077 195.641 151.456 c 195.594
 151.264 195.172 150.975 194.703 150.815 c 193.684 150.471 193.707 150.358
 195.066 148.874 c 196.164 147.67 196.812 147.604 197.527 148.62 c 197.859
 149.092 198.109 149.077 199.363 148.506 c 200.16 148.147 201.066 147.608
 201.375 147.311 c 202.059 146.659 203.164 146.924 202.906 147.678 c h
f
0.12549 0.156863 0.188235 rg
0.0307176 w
0 J
0 j
[] 0.0 d
4 M q 1 0 0 -1 0 407.17041 cm
271.043 407.051 m 270.094 406.918 268.379 406.379 267.234 405.855 c 265.156
 404.898 l 264.645 402.316 l 264.363 400.898 263.914 398.23 263.652 396.395
 c 263.168 393.051 l 260.926 388.398 l 258.602 383.582 257.863 382.363 255.027
 378.652 c 254.102 377.449 253.082 375.969 252.758 375.367 c 252.082 374.113
 250.422 372.172 249.633 371.719 c 249.34 371.551 248.102 370.441 246.879
 369.258 c 245.656 368.074 244.531 367.066 244.379 367.02 c 243.82 366.848
 239.816 364.113 238.461 362.977 c 236.703 361.508 235.25 358.738 234.281
 355.012 c 233.637 352.539 233.461 352.18 232.023 350.422 c 228.758 346.434
 223.188 342.02 217.965 339.277 c 216.207 338.352 213.441 336.906 211.824
 336.059 c 208.883 334.52 l 205.266 335.797 l 203.277 336.5 201.324 337.191
 200.926 337.332 c 198.676 338.121 189.473 340.719 187.562 341.102 c 184.254
 341.77 179.34 342.27 177.766 342.098 c 177.008 342.016 174.984 341.895 
173.27 341.832 c 169.715 341.699 167.039 341.277 162.734 340.164 c 159.797
 339.406 158.844 339.195 155.648 338.598 c 154.793 338.434 153.602 338.148
 153.004 337.953 c 151.816 337.574 146.535 336.434 146.312 336.508 c 145.992
 336.617 140.965 334.609 137.938 333.164 c 134.422 331.484 128.812 329.5
 125.977 328.93 c 125.023 328.738 123.754 328.438 123.16 328.258 c 122.562
 328.082 121.676 327.906 121.184 327.867 c 120.332 327.805 120.289 327.859
 120.297 329 c 120.305 330.301 119.992 332.285 119.637 333.176 c 119.07 
334.594 119.777 341.777 121.176 348.863 c 121.457 350.285 121.695 352.027
 121.699 352.738 c 121.727 355.578 121.805 356.652 122.059 357.613 c 122.262
 358.387 122.109 358.969 121.402 360.16 c 120.387 361.867 120.086 362.199
 118.23 363.664 c 116.574 364.977 113.172 366.168 111.98 365.863 c 110.598
 365.508 104.898 365.727 101.762 366.254 c 100.254 366.508 96.98 366.137
 95.105 365.504 c 94.176 365.188 93.844 364.883 93.586 364.113 c 93.391 
363.535 93.398 363.07 93.609 362.984 c 93.895 362.867 93.883 362.836 93.551
 362.816 c 93.07 362.789 92.664 361.75 92.707 360.66 c 92.766 359.184 94.602
 356.055 96.559 354.102 c 99.297 351.363 99.285 351.375 99.758 351.215 c
 99.996 351.137 101.086 350.406 102.176 349.59 c 103.266 348.777 104.578
 347.973 105.09 347.797 c 106.023 347.484 l 105.305 344.137 l 104.91 342.293
 104.566 340.367 104.543 339.855 c 104.52 339.34 104.477 338.93 104.445 
338.941 c 104.418 338.949 103.98 339.242 103.473 339.594 c 102.969 339.941
 100.902 341.008 98.883 341.961 c 95.691 343.465 95.023 343.691 93.797 343.707
 c 93.023 343.715 91.887 343.812 91.273 343.926 c 90.66 344.035 88.516 343.949
 86.508 343.734 c 82.992 343.352 80.75 343.258 75.543 343.266 c 72.438 343.27
 71.746 343.16 67.832 342.027 c 64.066 340.941 61 340.445 60.812 340.891
 c 60.742 341.062 60.656 341.832 60.621 342.598 c 60.551 344.23 59.324 351.547
 58.816 353.379 c 57.559 357.898 57.102 359.797 56.867 361.449 c 56.719 
362.48 56.348 364.238 56.035 365.359 c 55.723 366.477 55.496 367.469 55.527
 367.562 c 55.559 367.656 55.266 369.172 54.875 370.93 c 54.488 372.684 
54.191 374.191 54.223 374.273 c 54.25 374.359 54.16 374.695 54.02 375.023
 c 53.734 375.699 53.273 377.863 52.824 380.637 c 52.48 382.758 51.914 384.188
 51.332 384.383 c 51.121 384.453 50.477 385.02 49.906 385.641 c 49.336 386.262
 48.441 387.016 47.918 387.32 c 47.398 387.625 46.668 388.188 46.293 388.566
 c 45.922 388.949 44.457 389.793 43.035 390.445 c 39.672 391.992 37.324 
393.48 35.508 395.223 c 32.59 398.016 30.156 399.352 28.023 399.332 c 26.703
 399.316 26.41 398.816 25.656 395.297 c 25.32 393.719 24.922 391.93 24.77
 391.324 c 24.621 390.715 24.59 389.633 24.707 388.914 c 24.82 388.195 25.184
 385.914 25.512 383.84 c 25.84 381.77 26.18 379.758 26.273 379.371 c 26.457
 378.59 27.465 377.859 31.488 375.586 c 34.113 374.102 36.598 373.285 39.219
 373.039 c 39.895 372.973 40.086 372.695 40.586 371.031 c 40.906 369.969
 41.293 368.344 41.441 367.418 c 41.594 366.496 41.973 364.824 42.281 363.703
 c 42.59 362.582 43.066 359.797 43.34 357.516 c 44.094 351.148 44.887 344.875
 45.355 341.586 c 45.887 337.828 46.277 330.18 46.082 327.484 c 45.996 326.352
 46 325.242 46.086 325.02 c 46.172 324.793 46.145 323.418 46.027 321.957
 c 45.906 320.5 45.895 319.09 45.996 318.824 c 46.25 318.172 48.156 316.41
 48.875 316.168 c 49.195 316.062 49.59 316.086 49.758 316.223 c 49.922 316.359
 50.688 316.547 51.453 316.637 c 52.223 316.727 53.582 316.914 54.477 317.051
 c 57.176 317.461 63.402 316.402 66.059 315.082 c 67.328 314.449 67.438 
314.297 67.684 312.805 c 68.207 309.621 68.316 308.402 68.539 303.227 c 
68.746 298.332 68.855 296.156 69.125 291.52 c 69.184 290.52 69.262 288.598
 69.297 287.25 c 69.332 285.902 69.469 283.469 69.605 281.84 c 69.859 278.746
 70.469 277.414 72.352 275.852 c 73.734 274.699 79.84 268.496 80.68 267.391
 c 81.852 265.844 82.289 263.883 81.848 262.125 c 81.391 260.293 80.504 
259.543 75.688 256.906 c 72.695 255.27 68.18 252.352 66.375 250.887 c 65.473
 250.156 63.66 247.336 63.172 245.898 c 62.57 244.145 63.051 242.164 64.457
 240.582 c 66.43 238.359 68.32 237.223 72.133 235.957 c 75.809 234.734 83.105
 233.324 86.234 233.227 c 89.211 233.137 95.992 231.746 99.926 230.418 c
 104.891 228.746 105.703 228 107.062 223.871 c 107.703 221.93 108.5 220.562
 109.109 220.359 c 109.398 220.262 109.828 219.809 110.07 219.352 c 110.309
 218.895 111.047 217.742 111.707 216.797 c 112.367 215.848 112.949 214.973
 112.996 214.848 c 113.043 214.727 113.516 213.973 114.043 213.176 c 114.57
 212.379 115.184 211.375 115.402 210.945 c 116.523 208.758 117.301 204.57
 116.844 203.168 c 116.477 202.047 116.734 201.469 117.621 201.398 c 118.277
 201.344 118.555 201.594 119.348 202.93 c 120.023 204.074 120.301 204.836
 120.32 205.605 c 120.34 206.199 120.395 207.062 120.441 207.52 c 120.492
 207.98 120.273 209.125 119.953 210.066 c 119.375 211.773 l 120.391 210.418
 l 121.98 208.297 123.746 204.863 124.184 203.035 c 124.652 201.094 124.336
 198.965 122.98 194.941 c 122.098 192.309 122.082 192.16 122.664 191.867
 c 123.289 191.551 123.789 191.957 125.984 194.578 c 127.594 196.5 128.973
 203.395 128.41 206.727 c 128.297 207.398 128.328 207.422 128.758 206.965
 c 129.461 206.215 130.148 204.258 130.039 203.316 c 129.984 202.859 129.902
 202.168 129.852 201.781 c 129.789 201.285 129.973 201.016 130.48 200.844
 c 131.461 200.512 131.844 201.199 132.637 204.711 c 133.461 208.332 133.254
 209.949 131.461 213.984 c 130.727 215.648 130.402 216.5 130.746 215.875
 c 132.094 213.441 133.52 214.82 132.711 217.777 c 132.449 218.746 132.172
 219.949 132.098 220.453 c 131.617 223.703 125.457 231.164 121.059 233.824
 c 117.395 236.043 109.125 238.766 106.672 238.562 c 105.246 238.445 103.16
 238.637 100.59 239.121 c 99.582 239.309 97.023 239.508 94.902 239.555 c
 91.477 239.637 90.695 239.762 87.961 240.68 c 86.27 241.25 84.258 242.105
 83.496 242.586 c 82.125 243.445 80.797 245.312 81.039 246.035 c 81.23 246.609
 84.129 247.781 85.828 247.977 c 88.055 248.234 90.012 249.027 92.359 250.633
 c 94.25 251.926 94.723 252.438 96.07 254.652 c 96.445 255.266 96.68 255.34
 97.469 255.094 c 99.984 254.305 103.988 253.547 104.09 253.84 c 104.137
 253.984 104.469 253.988 104.82 253.852 c 105.176 253.715 106.18 253.516
 107.047 253.41 c 107.918 253.305 109.414 252.98 110.371 252.691 c 115.207
 251.223 121.211 250.422 127.168 250.457 c 129.371 250.469 129.648 250.402
 131.812 249.332 c 134.957 247.777 136.348 246.93 137.672 245.762 c 139.246
 244.371 143.391 241.777 144 241.801 c 144.434 241.82 144.406 241.621 143.828
 240.453 c 142.828 238.449 141.613 231.555 141.684 228.309 c 141.742 225.531
 142.797 220.219 143.777 217.758 c 144.227 216.625 144.801 215.023 145.055
 214.203 c 145.801 211.773 147.184 209.75 148.277 209.5 c 149.871 209.129
 150.094 210.344 149.27 214.949 c 148.879 217.125 148.312 221.172 148.008
 223.938 c 147.477 228.809 147.48 229.047 148.227 231.316 c 149.465 235.105
 150.73 236.309 154.25 237.043 c 156.078 237.422 158.191 236.836 160.266
 235.375 c 162.086 234.09 162.637 233.504 163.844 231.562 c 166.25 227.672
 171.004 223.172 173.637 222.285 c 175.09 221.797 177.703 221.773 180.711
 222.227 c 183.359 222.621 l 183.121 221.914 l 182.922 221.328 182.77 221.27
 182.242 221.566 c 181.73 221.855 181.332 221.73 180.273 220.969 c 177.875
 219.234 177.066 218.812 175.777 218.617 c 175.078 218.508 173.906 218.172
 173.176 217.867 c 171.844 217.312 l 172.59 219.523 l 173.336 221.738 l 
170.754 222.609 l 168.809 223.262 168.113 223.617 167.953 224.039 c 167.836
 224.344 167.57 224.652 167.371 224.719 c 167.168 224.789 166.691 225.164
 166.312 225.559 c 165.523 226.383 163.242 227.227 161.562 227.32 c 160.926
 227.352 159.68 227.117 158.793 226.797 c 157.906 226.477 157.086 226.242
 156.977 226.281 c 156.387 226.469 158.328 228.145 160.16 229.027 c 161.555
 229.699 162.246 230.211 162.23 230.555 c 162.215 230.914 161.996 231.074
 161.492 231.086 c 161.094 231.098 159.699 231.387 158.391 231.734 c 156.773
 232.16 155.645 232.281 154.871 232.109 c 153.492 231.801 153.523 232.043
 155.137 234.109 c 156.469 235.812 156.832 236.695 156.285 236.883 c 155.027
 237.305 151.387 232.84 151.457 230.965 c 151.504 229.727 152.469 229.473
 154.762 230.102 c 156.426 230.559 158.051 230.52 157.602 230.035 c 157.504
 229.934 156.809 229.258 156.047 228.535 c 154.906 227.445 154.535 226.84
 153.902 225.043 c 153.137 222.879 153.137 222.867 153.906 222.508 c 154.441
 222.254 154.801 222.281 155.082 222.598 c 156.797 224.523 160.75 225.977
 162.582 225.359 c 163.609 225.016 l 160.926 223.566 l 158.223 222.113 157.734
 221.613 158.16 220.754 c 158.555 219.965 159.375 219.91 160.91 220.574 
c 161.719 220.926 162.477 221.184 162.594 221.141 c 162.711 221.102 163.523
 221.266 164.395 221.508 c 166.535 222.098 166.98 221.867 165.215 221.086
 c 164.199 220.637 163.738 220.242 163.648 219.75 c 163.441 218.652 164.59
 218.277 166.039 218.965 c 167.277 219.555 169.332 219.844 170.203 219.551
 c 170.602 219.418 170.59 219.215 170.113 218.367 c 168.781 215.977 167.594
 213.113 167.691 212.516 c 167.812 211.793 168.879 211.496 169.453 212.023
 c 169.664 212.223 170.41 213.012 171.109 213.781 c 172.566 215.383 174.172
 216.23 176.711 216.738 c 178.91 217.18 179.418 217.461 181.457 219.367 
c 182.352 220.203 183.008 220.652 182.914 220.367 c 182.648 219.543 183.367
 217.121 184.094 216.391 c 186.188 214.285 192.523 212.02 196.879 211.82
 c 200.07 211.676 205.289 209.973 206.539 208.668 c 207.977 207.164 208.051
 202.953 206.668 201.598 c 206.398 201.332 205.32 200.602 204.277 199.973
 c 203.23 199.344 201.812 198.434 201.129 197.953 c 198.812 196.324 197.098
 195.539 193.672 194.539 c 191.793 193.992 190.078 193.445 189.855 193.32
 c 188.199 192.391 182.93 191.914 181.379 192.559 c 179.703 193.254 179.297
 190.867 180.859 189.496 c 182.129 188.379 186.871 186.52 189.238 186.211
 c 191.234 185.949 193.75 186.16 197.75 186.922 c 199.082 187.176 200.402
 187.414 200.684 187.449 c 200.961 187.484 201.281 187.566 201.391 187.633
 c 201.504 187.695 202.281 187.941 203.117 188.172 c 206.105 189.004 209.805
 191.254 212.238 193.727 c 216.949 198.504 218.52 201.633 218.504 206.207
 c 218.496 209.52 217.648 211.133 216.273 210.453 c 215.691 210.16 215.285
 209.016 215.621 208.609 c 215.758 208.445 215.969 207.332 216.082 206.137
 c 216.422 202.668 215.824 201.473 210.93 195.793 c 209.297 193.895 208.715
 193.473 205.59 191.918 c 202.535 190.398 201.34 189.984 197.891 189.27 
c 195.895 188.852 190.621 188.387 189.539 188.527 c 187.352 188.816 184.625
 189.82 184.781 190.281 c 184.867 190.539 185.105 190.562 185.438 190.344
 c 185.934 190.02 189.582 190.719 192.227 191.648 c 192.824 191.859 194.562
 192.461 196.094 192.988 c 197.773 193.562 200.059 194.715 201.855 195.887
 c 203.496 196.957 205.426 198.09 206.148 198.406 c 209.793 200.004 211.445
 206.5 209.016 209.68 c 207.465 211.703 206.691 212.215 204.285 212.789 
c 199.957 213.82 197.227 214.277 195.461 214.266 c 194.473 214.258 193.203
 214.395 192.637 214.566 c 190.957 215.078 186.656 217.297 185.961 218.008
 c 185.012 218.98 184.965 221.973 185.871 223.973 c 186.25 224.812 186.512
 225.781 186.453 226.125 c 186.312 226.965 185.34 227.258 184.863 226.605
 c 184.652 226.32 184.305 226.148 184.086 226.223 c 183.867 226.293 183.457
 226.25 183.168 226.125 c 182.883 225.996 182.402 225.832 182.094 225.758
 c 181.789 225.68 181.152 225.504 180.68 225.359 c 179.578 225.031 175.977
 225.547 173.84 226.344 c 172.688 226.77 171.699 227.418 170.57 228.488 
c 169.68 229.332 168.859 230.055 168.746 230.09 c 168.633 230.129 168.207
 230.672 167.797 231.301 c 167.391 231.93 166.613 232.863 166.074 233.379
 c 165.535 233.891 164.828 234.609 164.508 234.977 c 162.918 236.777 162.098
 237.301 158.98 238.496 c 155.578 239.801 154.887 239.844 152.547 238.895
 c 149.062 237.484 148.215 236.648 146.84 233.254 c 145.75 230.555 145.43
 228.059 145.773 224.863 c 145.883 223.848 146.133 221.582 146.328 219.828
 c 146.652 216.922 146.641 216.727 146.164 217.617 c 144.809 220.137 143.57
 227.438 143.891 231.008 c 144.152 233.914 146.434 241.633 147.422 242.957
 c 148.777 244.773 154.199 247.957 155.301 247.586 c 155.543 247.504 155.777
 247.555 155.824 247.695 c 155.871 247.836 156.395 247.973 156.984 248.004
 c 157.57 248.035 158.305 248.152 158.609 248.27 c 159.074 248.441 159.672
 247.586 162.219 243.098 c 166.031 236.375 166.938 235.406 170.559 234.184
 c 173.051 233.34 173.324 233.316 176.129 233.68 c 179.207 234.074 180.008
 234.492 180.301 235.855 c 180.551 237.027 179.75 237.301 178.246 236.555
 c 176.234 235.559 173.004 235.141 171.434 235.668 c 168.965 236.5 167.457
 238.082 165.094 242.301 c 163.902 244.43 162.207 247.277 161.324 248.629
 c 160.441 249.98 159.68 251.18 159.629 251.297 c 159.348 251.945 157.105
 253.785 155.566 254.629 c 154.59 255.164 153.195 256.004 152.469 256.496
 c 151.742 256.988 150.426 257.73 149.543 258.148 c 148.656 258.566 147.785
 259.121 147.598 259.383 c 147.105 260.082 148.062 261.566 149.238 261.918
 c 151.078 262.477 155.855 262.223 159.57 261.375 c 163.246 260.531 164.848
 259.887 167.605 258.129 c 168.484 257.57 169.508 256.926 169.879 256.695
 c 170.246 256.469 170.992 255.789 171.539 255.191 c 172.086 254.59 172.719
 254.035 172.953 253.957 c 173.75 253.688 176.18 249.887 178.082 245.93 
c 180.297 241.328 181.559 239.863 183.711 239.398 c 184.461 239.234 185.277
 239.203 185.52 239.324 c 186.266 239.691 185.785 240.703 184.586 241.285
 c 183.992 241.574 183.074 242.273 182.551 242.836 c 181.281 244.195 179.809
 246.723 179.98 247.238 c 180.059 247.465 180.023 247.684 179.902 247.727
 c 179.781 247.766 179.012 249.027 178.191 250.531 c 177.371 252.031 176.316
 253.66 175.848 254.152 c 175.379 254.645 174.953 255.148 174.906 255.273
 c 174.859 255.398 174.355 255.848 173.785 256.27 c 173.215 256.695 172.543
 257.297 172.293 257.609 c 172.039 257.922 170.754 258.867 169.434 259.711
 c 165.184 262.434 157.164 264.727 152.086 264.672 c 147.605 264.621 146.527
 264.023 145.152 260.844 c 143.973 258.121 144.121 257.613 146.176 257.293
 c 148.02 257.004 149.602 256.371 150.957 255.375 c 151.602 254.906 153.09
 253.965 154.266 253.285 c 156.41 252.047 157.359 251.285 157.227 250.895
 c 157.188 250.781 156.289 250.551 155.227 250.383 c 153.762 250.152 152.668
 249.664 150.672 248.359 c 149.227 247.414 147.426 246.023 146.676 245.27
 c 145.309 243.898 l 143.32 244.727 l 142.152 245.215 140.254 246.371 138.727
 247.527 c 137.297 248.613 135.508 249.793 134.746 250.145 c 133.988 250.5
 132.711 251.234 131.91 251.781 c 130.52 252.727 130.371 252.766 128.496
 252.707 c 124.051 252.559 121.25 252.637 119.672 252.953 c 118.754 253.137
 117.172 253.352 116.156 253.434 c 115.141 253.512 112.832 254.016 111.023
 254.555 c 108.512 255.297 107.199 255.52 105.449 255.5 c 103.609 255.477
 102.527 255.672 99.949 256.496 c 98.184 257.062 96.152 257.832 95.43 258.203
 c 94.117 258.883 l 93.809 257.969 l 93.602 257.352 93.645 257.008 93.938
 256.91 c 94.488 256.723 94.355 256.332 93.184 254.668 c 91.914 252.863 
87.73 250.574 84.992 250.18 c 82.676 249.848 80.586 249.035 79.609 248.09
 c 77.605 246.156 78.473 243.273 81.68 241.199 c 84.707 239.246 90.441 237.418
 93.133 237.555 c 96.227 237.711 103.938 236.641 105.797 235.797 c 106.191
 235.617 106.855 235.629 107.281 235.824 c 108.855 236.535 115.742 234.582
 119.578 232.336 c 122.316 230.73 123.695 229.418 126.789 225.48 c 129.273
 222.316 129.363 222.172 129.699 220.879 c 129.926 219.992 l 128.832 220.293
 l 128.227 220.461 127.039 221.184 126.18 221.914 c 125.324 222.641 124.352
 223.328 124.02 223.438 c 123.234 223.703 122.973 222.926 123.668 222.414
 c 124.809 221.582 128.176 216.82 129.273 214.488 c 130.559 211.758 131.457
 208.594 131.324 207.273 c 131.238 206.414 131.219 206.43 130.086 208.23
 c 128.727 210.383 128.219 210.809 127.059 210.762 c 125.984 210.723 125.91
 210.5 126.238 208.316 c 126.707 205.199 126.738 204.875 126.629 203.922
 c 126.535 203.086 126.387 203.281 125.258 205.754 c 124.562 207.273 123.203
 209.52 122.238 210.738 c 119.855 213.75 116.094 217.68 115.355 217.93 c
 114.43 218.242 114.375 217.422 115.223 215.957 c 116.336 214.039 117.781
 210.828 117.578 210.727 c 117.484 210.68 117.23 211.035 117.012 211.512
 c 116.797 211.992 115.672 213.742 114.516 215.398 c 112.484 218.316 109.293
 224.395 108.273 227.285 c 107.426 229.691 106.328 230.434 100.777 232.355
 c 97.715 233.414 95.488 234.035 94.672 234.062 c 93.965 234.082 92.055 
234.391 90.426 234.746 c 88.793 235.098 86.562 235.398 85.461 235.41 c 82.508
 235.445 76.461 236.566 72.629 237.797 c 69.328 238.855 69.23 238.91 67.422
 240.656 c 64.73 243.258 64.496 245.016 66.496 247.594 c 67.855 249.348 
71.953 252.23 76.008 254.293 c 80.785 256.723 82.781 258.254 83.734 260.227
 c 85.25 263.379 84.578 266.68 81.809 269.648 c 80.848 270.676 79.852 271.758
 79.594 272.051 c 79.332 272.344 77.965 273.641 76.551 274.93 c 75.137 276.223
 73.855 277.531 73.699 277.844 c 73.547 278.152 73.238 278.465 73.02 278.539
 c 72.254 278.797 71.262 283.172 71.465 285.383 c 71.512 285.902 71.484 
287.152 71.406 288.16 c 71.324 289.168 71.223 290.953 71.18 292.125 c 71.137
 293.301 70.969 296.723 70.809 299.734 c 70.648 302.75 70.582 306.113 70.664
 307.211 c 70.746 308.309 70.668 310.035 70.496 311.047 c 70.176 312.887
 l 71.055 312.508 l 71.648 312.25 72.098 312.266 72.441 312.547 c 72.863
 312.891 72.855 313.125 72.391 313.914 c 71.723 315.059 69.93 315.992 65.559
 317.477 c 59.773 319.438 56.496 319.809 52.387 318.969 c 51.297 318.746
 49.988 318.617 49.484 318.68 c 48.367 318.824 48.074 319.633 48.18 322.266
 c 48.215 323.219 48.203 324.449 48.152 325.004 c 48.031 326.25 48.047 329.004
 48.176 329.383 c 48.23 329.539 48.215 330.309 48.141 331.086 c 48.066 331.867
 47.992 333.02 47.973 333.652 c 47.953 334.281 47.703 336.773 47.41 339.188
 c 47.121 341.605 46.895 343.941 46.906 344.383 c 46.918 344.824 46.672 
346.879 46.359 348.941 c 46.051 351.008 45.613 354.512 45.395 356.723 c 
45.172 358.938 44.871 361.176 44.73 361.699 c 44.586 362.219 44.504 362.742
 44.543 362.863 c 44.582 362.984 44.449 363.59 44.242 364.211 c 44.039 364.832
 43.684 366.426 43.457 367.75 c 43.23 369.074 42.902 370.965 42.734 371.953
 c 42.562 372.941 42.5 374.129 42.602 374.59 c 42.742 375.262 42.617 375.508
 41.98 375.805 c 41.48 376.043 40.879 376.047 40.367 375.824 c 38.199 374.875
 36.402 375.23 32.859 377.32 c 29.48 379.312 29.129 379.594 28.648 380.723
 c 28.227 381.723 27.305 385.777 27.422 386.125 c 27.461 386.25 27.312 386.895
 27.09 387.555 c 26.625 388.926 27.016 392.625 27.906 395.27 c 28.473 396.945
 l 29.59 396.566 l 30.832 396.148 32.957 394.605 34.59 392.926 c 35.699 
391.789 37.871 390.457 41.023 388.984 c 44.973 387.141 50.164 382.617 50.5
 380.723 c 50.918 378.379 51.605 375.453 52.16 373.652 c 52.484 372.605 
53.359 368.918 54.109 365.457 c 54.855 361.996 55.941 357.406 56.523 355.258
 c 57.961 349.914 58.891 341.797 58.332 339.402 c 57.91 337.598 l 58.906
 337.184 l 59.781 336.816 60.047 336.875 61.102 337.668 c 61.758 338.164
 62.637 338.602 63.047 338.637 c 64.25 338.746 66.863 339.352 68.785 339.969
 c 71.906 340.965 73.316 341.184 75.938 341.07 c 77.344 341.012 79.18 341.059
 80.023 341.172 c 80.863 341.289 82.043 341.328 82.645 341.262 c 83.246 
341.191 85.105 341.301 86.777 341.5 c 91.32 342.043 95.492 341.41 97.879
 339.812 c 98.461 339.426 99.672 338.812 100.57 338.453 c 102.344 337.746
 106.004 335.32 108.195 333.398 c 110.332 331.523 115.402 326.02 116.738
 324.121 c 117.402 323.18 118.301 321.941 118.73 321.371 c 119.164 320.797
 119.863 319.637 120.293 318.789 c 120.719 317.941 121.508 316.602 122.043
 315.805 c 123.312 313.922 124.656 311.047 124.492 310.562 c 124.324 310.066
 125.41 309.047 126.074 309.074 c 127.324 309.125 127.137 311.031 125.586
 314.059 c 124.656 315.867 120.207 323.18 119.195 324.555 c 118.445 325.574
 l 120.375 325.617 l 123.934 325.699 133.328 328.598 140.605 331.867 c 144.551
 333.637 147.672 334.703 150.102 335.109 c 151.047 335.27 153.129 335.738
 154.73 336.152 c 156.328 336.566 157.703 336.887 157.777 336.859 c 158.051
 336.77 164.098 338.137 164.82 338.457 c 165.812 338.887 169.398 339.41 
172.852 339.621 c 182.406 340.211 187.496 339.473 198.211 335.941 c 201.992
 334.695 205.219 333.52 205.379 333.324 c 205.598 333.062 205.43 332.84 
204.703 332.441 c 202.43 331.195 199.082 327.918 196.348 324.262 c 193.469
 320.41 189.266 316.152 187.531 315.332 c 186.34 314.766 184.387 314.293
 183.594 314.375 c 181.57 314.586 181.602 314.602 181.145 313.246 c 180.73
 312.02 180.754 311.941 181.543 311.676 c 182.004 311.52 182.773 311.531
 183.254 311.699 c 183.738 311.871 184.668 312.082 185.324 312.176 c 187.586
 312.492 189.711 313.785 192.359 316.461 c 195.027 319.156 195.258 319.414
 197.684 322.445 c 201.371 327.055 204.555 329.605 210.359 332.598 c 219.93
 337.535 222.402 339.031 227.148 342.746 c 233.543 347.754 234.371 348.824
 236.449 354.766 c 237.652 358.211 238.211 359.469 238.844 360.148 c 239.543
 360.898 242.379 362.953 245.801 365.188 c 246.59 365.703 249.242 368.141
 251.902 370.793 c 252.57 371.461 253.348 372.438 253.633 372.965 c 253.918
 373.492 255.309 375.504 256.723 377.434 c 259.863 381.719 260.426 382.633
 262.832 387.367 c 264.605 390.855 264.77 391.309 265.277 394.164 c 266.723
 402.238 266.871 402.785 267.812 403.441 c 270.375 405.227 272.988 405.289
 276.543 403.648 c 278.105 402.93 278.562 402.531 279.781 400.828 c 280.562
 399.738 281.562 397.945 282.004 396.84 c 282.66 395.203 282.723 394.734
 282.344 394.293 c 282.09 394 281.629 393.277 281.32 392.691 c 280.691 391.504
 278.023 389.887 275.867 389.383 c 274.133 388.98 270.234 386.957 269.168
 385.906 c 268.363 385.117 264.621 379.285 262.973 376.258 c 262.594 375.562
 261.652 374.25 260.879 373.34 c 259.676 371.93 258.18 369.773 255.461 365.543
 c 255.129 365.031 254.211 362.691 253.418 360.352 c 251.918 355.918 250.094
 352.23 248.629 350.664 c 247.812 349.793 245.621 348.223 244.781 347.91
 c 243.5 347.426 240.012 344.422 238.293 342.316 c 237.605 341.477 236.492
 340.176 235.816 339.422 c 235.141 338.668 233.852 336.77 232.953 335.199
 c 232.059 333.629 230.789 331.434 230.133 330.316 c 227.254 325.395 225.836
 320.684 226.246 317.406 c 226.539 315.09 226.348 311.848 225.762 309.176
 c 225.188 306.555 225.281 305.695 226.188 305.391 c 226.617 305.246 226.805
 305.422 227.07 306.215 c 227.891 308.641 228.512 313.676 228.379 316.805
 c 228.238 320.219 228.629 323.062 229.406 324.273 c 229.859 324.98 l 230.359
 324.047 l 231.086 322.695 231.754 318.582 231.625 316.246 c 231.566 315.133
 231.668 314.098 231.852 313.945 c 232.332 313.547 233.258 313.988 233.508
 314.738 c 233.824 315.676 233.344 320.699 232.73 322.895 c 232.438 323.938
 232.152 325.09 232.098 325.457 c 232.043 325.855 231.703 326.223 231.25
 326.375 c 230.492 326.629 l 231.32 328.215 l 232.477 330.434 235.055 334.727
 235.973 335.965 c 237.309 337.766 241.355 342.25 242.723 343.445 c 243.836
 344.422 244.902 345.113 247.262 346.391 c 248.492 347.055 250.566 349.176
 251.703 350.926 c 252.715 352.484 253.379 354.027 254.746 358.004 c 256.582
 363.328 257.879 365.824 260.691 369.453 c 263.332 372.863 264.066 373.883
 264.625 374.934 c 264.949 375.539 266.328 377.801 267.691 379.961 c 270.094
 383.77 270.23 383.926 272.25 385.137 c 273.398 385.82 275.73 386.844 277.434
 387.41 c 281.301 388.688 282.742 389.695 283.375 391.574 c 283.629 392.328
 284.082 393.145 284.379 393.391 c 284.816 393.75 284.891 394.066 284.773
 395.055 c 284.398 398.16 282.828 401.145 280.133 403.875 c 278.711 405.312
 278.434 405.469 275.691 406.348 c 273.203 407.148 272.516 407.254 271.043
 407.051 c h
116.84 362.164 m 117.551 361.488 118.141 360.719 118.152 360.453 c 118.16
 360.188 118.492 359.719 118.887 359.414 c 120.223 358.375 120.18 356.867
 118.441 344.273 c 118.266 342.996 118.062 340.805 117.988 339.402 c 117.914
 338 117.781 336.258 117.688 335.527 c 117.598 334.797 117.539 332.922 117.559
 331.359 c 117.578 329.793 117.59 328.262 117.59 327.953 c 117.59 326.613
 116.41 327.414 112.324 331.535 c 110.039 333.84 107.785 335.949 107.316
 336.219 c 106.547 336.66 106.484 336.852 106.699 338.062 c 106.832 338.805
 106.969 340.602 107.004 342.059 c 107.043 343.668 107.383 345.926 107.871
 347.836 c 108.781 351.383 108.949 352.805 108.746 355.078 c 108.641 356.223
 108.438 356.719 108.008 356.863 c 107.348 357.086 107.195 356.828 107.16
 355.391 c 107.113 353.527 106.848 350.566 106.684 350.078 c 106.195 348.625
 100.277 352.809 98.637 355.762 c 98.195 356.559 97.406 357.926 96.883 358.793
 c 96.359 359.664 95.902 360.805 95.867 361.332 c 95.832 361.859 95.629 
362.48 95.422 362.715 c 94.82 363.391 95.699 363.883 98.164 364.254 c 99.523
 364.457 101.039 364.434 102.18 364.191 c 103.188 363.977 104.383 363.82
 104.836 363.844 c 105.293 363.867 106.441 363.816 107.395 363.73 c 108.344
 363.645 110.105 363.68 111.309 363.809 c 114 364.098 115.172 363.75 116.84
 362.164 c h
313.703 368.457 m 313.004 368.445 312.098 368.27 311.691 368.07 c 310.75
 367.602 309.512 365.234 307.691 360.43 c 306.402 357.02 306.137 356.539
 304.676 354.961 c 303.797 354.012 302.855 353.086 302.582 352.914 c 302.309
 352.738 301.414 351.945 300.598 351.148 c 299.777 350.355 298.539 349.316
 297.844 348.836 c 297.148 348.355 296.051 347.562 295.41 347.07 c 294.766
 346.578 293.562 345.723 292.734 345.168 c 291.906 344.609 290.645 343.645
 289.934 343.023 c 289.223 342.398 287.316 340.75 285.703 339.359 c 284.086
 337.969 282.727 336.723 282.684 336.59 c 282.414 335.789 275.352 331.941
 274.613 332.188 c 274.527 332.219 273.496 332.137 272.328 332.008 c 269.828
 331.738 268.844 331.125 267.348 328.914 c 266.051 327.004 265.867 326.449
 264.965 321.793 c 264.301 318.367 264.246 318.215 263.047 316.605 c 262.371
 315.691 260.652 313.805 259.227 312.414 c 256.488 309.73 255.477 308.895
 247.691 302.898 c 247.34 302.633 245.965 301.832 244.637 301.121 c 243.305
 300.41 241.98 299.617 241.695 299.355 c 241.203 298.906 241.145 298.918
 240.52 299.641 c 240.156 300.059 239.113 300.836 238.199 301.371 c 236.746
 302.219 236.23 302.371 234.07 302.582 c 231.988 302.781 231.375 302.703
 230.145 302.062 c 228.684 301.305 l 227.621 302.281 l 224.316 305.316 219.887
 306.484 216.469 305.215 c 214.598 304.523 213.684 303.395 213.07 301.016
 c 212.477 298.715 212.852 297.57 214.625 296.246 c 215.379 295.688 216.316
 294.754 216.711 294.168 c 217.105 293.582 217.547 293.066 217.688 293.02
 c 217.832 292.969 218.133 292.527 218.359 292.035 c 218.77 291.137 l 217.602
 289.523 l 216.445 287.93 215.457 287.109 212.637 285.418 c 211.84 284.941
 210.527 284.113 209.727 283.582 c 207.695 282.242 202.141 280.254 195.707
 278.566 c 194.391 278.219 191.125 276.258 188.078 273.98 c 185.82 272.289
 184.715 270.742 183.324 267.316 c 182.719 265.828 181.664 263.613 180.988
 262.398 c 179.492 259.723 179.188 258.551 179.883 258.156 c 180.164 258
 180.559 257.957 180.762 258.055 c 181.398 258.371 183.281 261.836 184.594
 265.105 c 185.289 266.836 186.188 268.719 186.594 269.297 c 187.363 270.379
 190.613 273.07 192.414 274.109 c 192.984 274.438 193.484 274.816 193.527
 274.949 c 193.613 275.199 196.84 276.367 202.273 278.109 c 207.004 279.625
 209.309 280.578 210.684 281.586 c 211.359 282.078 212.941 283.027 214.199
 283.691 c 215.457 284.352 216.809 285.211 217.195 285.598 c 217.586 285.984
 218.152 286.453 218.449 286.641 c 218.75 286.828 219.367 287.691 219.828
 288.559 c 221.84 292.363 226.766 296.031 230.633 296.602 c 232.688 296.906
 234.773 296.008 238.215 293.336 c 240.012 291.941 241.004 288.305 241.145
 282.582 c 241.223 279.453 241.059 278.785 240.039 278.035 c 237.801 276.387
 232.777 270.492 231.344 267.836 c 230.773 266.781 229.383 264.625 228.246
 263.043 c 227.113 261.465 226.008 259.91 225.793 259.59 c 225.406 259.016
 224.379 257.18 220.113 249.414 c 218.918 247.234 217.801 245.262 217.633
 245.031 c 217.18 244.406 216.926 240.914 217.129 238.105 c 217.336 235.195
 217.465 234.75 218.16 234.516 c 218.918 234.262 218.844 233.312 218.039
 232.945 c 217.66 232.777 216.172 232.156 214.73 231.57 c 211.16 230.117
 208.848 229.008 208.742 228.699 c 208.695 228.555 208.16 228.207 207.555
 227.922 c 206.375 227.367 205.035 225.816 204.906 224.852 c 204.789 224.004
 205.848 223.758 206.562 224.469 c 206.891 224.797 207.816 225.449 208.621
 225.922 c 209.887 226.664 210.297 226.734 211.652 226.453 c 212.52 226.273
 214.477 226.156 216.004 226.195 c 220.02 226.297 220.543 226.258 222.215
 225.738 c 223.836 225.234 226.422 223.07 228.301 220.637 c 230.359 217.969
 231.855 212.559 231.141 210.34 c 230.953 209.75 230.484 208.852 230.105
 208.348 c 229.418 207.43 l 228.566 208.414 l 227.965 209.109 226.734 209.867
 224.352 211.004 c 220.02 213.074 217.391 213.949 214.961 214.133 c 213.227
 214.262 212.934 214.355 212.332 214.988 c 211.84 215.504 211.199 215.793
 209.988 216.043 c 206.473 216.773 202.566 218.023 202.02 218.59 c 200.559
 220.102 199.348 222.32 199.117 223.914 c 198.98 224.852 198.648 226.238
 198.375 227 c 198.105 227.758 197.957 228.355 198.047 228.324 c 198.578
 228.145 200.707 225.812 201.547 224.484 c 202.121 223.582 202.852 222.816
 203.285 222.672 c 205.121 222.051 204.723 226.051 202.645 229.125 c 202.215
 229.762 201.711 230.332 201.527 230.395 c 201.34 230.457 200.934 230.895
 200.617 231.371 c 199.488 233.07 195.676 237.305 194.316 238.367 c 192.617
 239.691 189.207 240.945 188.996 240.32 c 188.898 240.035 189.383 239.664
 190.578 239.102 c 192.621 238.137 195.273 235.539 197.363 232.449 c 198.141
 231.309 199.164 230.148 199.645 229.871 c 200.125 229.594 200.598 229.16
 200.695 228.906 c 200.812 228.609 200.395 228.816 199.523 229.488 c 198.785
 230.059 197.688 230.699 197.09 230.906 c 196.043 231.27 195.984 231.242
 195.668 230.301 c 195.484 229.758 195.484 229.074 195.668 228.777 c 196.02
 228.215 196.586 226.305 197.105 223.941 c 197.414 222.539 l 196.777 223.516
 l 194.012 227.738 192.227 229.641 191.078 229.59 c 190.336 229.562 190.02
 228.316 190.527 227.422 c 190.957 226.668 191.312 224.086 191.078 223.434
 c 191.016 223.246 190.781 223.832 190.566 224.73 c 190.352 225.633 189.578
 227.543 188.852 228.98 c 187.777 231.109 187.383 231.621 186.727 231.738
 c 186.078 231.859 185.918 232.059 185.891 232.805 c 185.867 233.48 185.66
 233.793 185.125 233.973 c 184.301 234.25 183.656 233.621 183.582 232.469
 c 183.535 231.719 183.047 235.121 182.848 237.598 c 182.754 238.766 182.602
 239.062 182.043 239.168 c 181.102 239.344 181.012 238.812 181.219 234.188
 c 181.316 232.012 181.23 229.781 181.027 229.172 c 180.488 227.574 180.59
 227.074 181.516 226.762 c 182.453 226.445 183.762 227.398 185.051 229.336
 c 185.473 229.977 185.91 230.469 186.023 230.43 c 186.133 230.391 186.637
 229.531 187.141 228.516 c 188.465 225.84 189.176 222.785 188.867 221.102
 c 188.492 219.059 188.641 218.613 189.918 217.93 c 191.285 217.195 191.637
 217.395 192.258 219.254 c 192.645 220.41 192.797 221.293 193.078 224.094
 c 193.152 224.801 193.168 224.797 193.875 224.066 c 194.273 223.652 195.172
 222.25 195.875 220.949 c 196.629 219.547 197.41 218.492 197.789 218.363
 c 198.137 218.246 198.66 217.898 198.945 217.594 c 199.84 216.637 203.363
 214.465 205.371 213.633 c 206.594 213.129 208.02 212.781 209.285 212.684
 c 210.379 212.594 211.941 212.301 212.75 212.027 c 213.559 211.754 214.867
 211.543 215.652 211.562 c 217.586 211.602 219.473 210.977 222.906 209.164
 c 226.957 207.02 226.977 207.008 227.145 205.926 c 227.312 204.816 228.473
 203.656 229.426 203.641 c 229.875 203.633 230.25 203.973 230.68 204.785
 c 231.02 205.422 231.645 206.336 232.07 206.816 c 233.031 207.895 233.859
 210.215 233.871 211.848 c 233.883 213.68 232.949 216.805 231.582 219.516
 c 230.707 221.254 229.719 222.582 228.039 224.277 c 225.75 226.586 225.664
 226.641 223.078 227.477 c 221.012 228.148 219.762 228.344 217.246 228.402
 c 215.484 228.438 214.012 228.531 213.977 228.605 c 213.941 228.68 214.691
 229.043 215.645 229.41 c 221.02 231.477 222.699 232.539 225.465 235.621
 c 227.367 237.734 228.961 241.605 229.277 244.871 c 229.395 246.078 229.586
 247.75 229.703 248.59 c 229.82 249.426 230.012 251.281 230.133 252.715 
c 230.254 254.148 230.395 255.453 230.449 255.613 c 230.504 255.777 231.387
 256.547 232.406 257.328 c 235.746 259.875 239.512 264.496 241.176 268.09
 c 241.82 269.477 243.035 271.766 243.875 273.176 c 244.715 274.59 245.633
 276.289 245.914 276.953 c 246.738 278.906 248.738 281.273 251.074 283.07
 c 251.477 283.379 252.383 284.168 253.09 284.82 c 254.449 286.082 255.863
 287.25 257.867 288.766 c 259.246 289.809 263.004 293.566 263.176 294.07
 c 263.234 294.254 263.918 295.051 264.691 295.848 c 265.465 296.645 266.66
 297.98 267.348 298.82 c 268.035 299.656 269.145 300.926 269.812 301.641
 c 270.48 302.359 271.102 303.176 271.199 303.461 c 271.297 303.746 271.543
 304.062 271.754 304.164 c 271.961 304.27 272.738 305.301 273.477 306.453
 c 274.219 307.609 275.441 309.062 276.195 309.684 c 276.949 310.309 277.586
 310.875 277.609 310.945 c 277.633 311.016 278.668 311.902 279.902 312.918
 c 282.883 315.355 284.832 317.625 286.262 320.324 c 287.75 323.133 289.957
 326.254 291.176 327.273 c 291.863 327.848 292.719 328.699 293.078 329.156
 c 293.434 329.617 294.094 330.262 294.547 330.594 c 294.996 330.926 295.809
 331.629 296.348 332.16 c 296.891 332.691 298.301 333.746 299.484 334.508
 c 300.672 335.266 301.852 336.141 302.109 336.449 c 302.363 336.762 303.602
 337.773 304.855 338.699 c 306.109 339.625 307.434 340.621 307.797 340.906
 c 308.16 341.195 309.004 341.848 309.668 342.363 c 310.328 342.879 310.895
 343.363 310.922 343.445 c 310.949 343.523 311.934 344.328 313.105 345.227
 c 315.359 346.957 317.59 347.977 320.906 348.805 c 323.586 349.473 325.977
 350.613 326.223 351.336 c 326.465 352.062 325.699 356.469 325.039 358.137
 c 324.77 358.812 324.254 360.141 323.891 361.082 c 323.035 363.309 320.48
 365.883 317.797 367.227 c 315.352 368.453 315.246 368.484 313.703 368.457
 c h
319.977 363.445 m 321.234 362.219 322.633 359.766 323.207 357.785 c 324.305
 354 324.5 352.906 324.164 352.449 c 323.816 351.973 321.195 350.855 320.766
 351 c 320.652 351.039 319.574 350.809 318.367 350.488 c 316.09 349.879 
313.297 348.059 309.789 344.891 c 308.203 343.457 306.609 342.195 304.984
 341.082 c 304.547 340.785 303.004 339.555 301.555 338.352 c 300.102 337.148
 298.445 335.883 297.875 335.539 c 293.582 332.965 287.375 326.316 284.633
 321.359 c 283.289 318.93 282.074 317.457 280.133 315.91 c 276.617 313.109
 272.879 309.387 272.504 308.312 c 272.285 307.691 267.562 301.777 264.215
 297.93 c 260.496 293.66 258.398 291.551 255.562 289.23 c 254.199 288.117
 253.059 287.133 253.027 287.039 c 252.996 286.949 252.305 286.355 251.488
 285.719 c 250.672 285.082 248.984 283.551 247.734 282.312 c 245.754 280.348
 245.184 279.539 243.289 276.031 c 242.09 273.812 240.625 270.926 240.027
 269.609 c 238.137 265.445 232.953 258.977 231.523 259.004 c 231.168 259.008
 230.805 259.164 230.715 259.348 c 230.441 259.898 232.742 266.906 233.477
 267.766 c 233.828 268.184 235.012 269.598 236.105 270.918 c 237.875 273.055
 239.992 275.23 241.676 276.637 c 242.586 277.395 243.242 280.363 243.09
 283.004 c 243.016 284.277 242.773 286.664 242.555 288.312 c 242.332 289.961
 242.199 291.465 242.266 291.652 c 242.328 291.84 242.234 292.844 242.059
 293.887 c 241.543 296.906 241.973 297.594 245.793 299.797 c 248.738 301.492
 251.41 303.395 254.777 306.188 c 255.023 306.395 255.871 307.039 256.66
 307.621 c 258.535 309.008 263.504 313.945 264.988 315.898 c 266.156 317.434
 266.16 317.445 266.691 320.91 c 267.312 324.941 267.488 325.531 268.629
 327.461 c 269.586 329.082 271.711 330.32 273.281 330.18 c 274.797 330.039
 278.852 331.352 280.59 332.543 c 281.492 333.164 283.906 335.223 285.949
 337.121 c 289.547 340.465 291.758 342.289 295.047 344.629 c 300.684 348.641
 303.273 350.777 305.688 353.406 c 306.469 354.258 307.199 354.922 307.312
 354.883 c 307.426 354.848 307.855 355.266 308.266 355.812 c 308.824 356.559
 308.984 356.992 308.895 357.523 c 308.75 358.387 309.691 361.254 310.934
 363.715 c 311.707 365.25 312.02 365.586 313.078 366.016 c 314.25 366.488
 314.434 366.469 316.457 365.652 c 318.012 365.027 318.977 364.422 319.977
 363.445 c h
237.645 299.551 m 238.914 298.73 240.176 296.715 240.156 295.535 c 240.148
 295.133 240.062 294.766 239.961 294.715 c 239.859 294.664 238.547 295.426
 237.043 296.406 c 234.34 298.168 232.605 298.82 230.082 299.035 c 228.668
 299.152 229.281 299.895 231.18 300.367 c 234.105 301.098 235.516 300.918
 237.645 299.551 c h
225.035 302.02 m 226.527 300.969 228.445 298.84 228.312 298.383 c 228.195
 297.98 224.969 296.406 224.551 296.543 c 224.352 296.609 223.48 297.414
 222.613 298.328 c 221.023 300.008 219.871 300.711 219.867 300.004 c 219.867
 299.586 219.887 299.562 222.113 297.504 c 223.691 296.043 223.852 295.543
 222.863 295.164 c 222.559 295.047 222.262 294.82 222.211 294.664 c 222.016
 294.09 220.496 292.719 220.18 292.832 c 219.996 292.895 219.426 293.594
 218.914 294.391 c 218.398 295.184 217.297 296.383 216.461 297.051 c 214.574
 298.559 214.273 299.48 215.117 301.18 c 215.879 302.715 216.566 303.301
 218 303.641 c 220.141 304.148 222.91 303.508 225.035 302.02 c h
229.008 259.027 m 228.82 258.473 228.246 253.062 227.66 246.344 c 227.32
 242.445 226.359 239.922 224.309 237.52 c 223.383 236.438 222.418 235.539
 222.164 235.527 c 221.633 235.508 220.855 236.75 221.047 237.32 c 221.121
 237.535 221.383 237.645 221.633 237.559 c 222.008 237.434 222.137 237.66
 222.363 238.852 c 222.516 239.648 222.676 240.789 222.723 241.383 c 222.77
 242.07 223.078 242.898 223.555 243.641 c 224.121 244.52 224.316 245.129
 224.352 246.113 c 224.406 247.789 223.918 249.699 223.32 250.145 c 222.977
 250.402 222.957 250.684 223.258 251.223 c 223.48 251.621 223.961 252.578
 224.328 253.344 c 224.879 254.508 227.23 258.43 228.086 259.613 c 228.484
 260.164 229.23 259.688 229.008 259.027 c h
220.824 240.754 m 221.047 240.676 221.055 240.227 220.844 239.609 c 220.531
 238.68 220.426 238.613 219.66 238.871 c 218.762 239.176 218.605 239.691
 219.023 240.934 c 219.23 241.559 219.363 241.609 219.867 241.277 c 220.195
 241.059 220.625 240.824 220.824 240.754 c h
233.754 328.602 m 233.16 327.883 233.191 326.367 233.875 322.645 c 234.293
 320.367 234.516 317.641 234.457 315.57 c 234.289 309.828 234.301 309.629
 234.746 309.371 c 235.078 309.18 235.262 309.355 235.508 310.086 c 235.914
 311.293 236.336 318.895 236.09 320.598 c 235.844 322.312 235.914 322.371
 236.727 321.164 c 237.672 319.766 238.301 316.773 238.137 314.477 c 237.824
 310.184 237.824 310.223 238.426 310.02 c 239.348 309.707 239.633 310.387
 240.246 314.395 c 241.035 319.57 240.984 319.477 242.086 317.715 c 243.824
 314.941 243.07 309.176 240.422 304.969 c 238.875 302.512 238.801 302.113
 239.832 301.766 c 240.496 301.543 240.781 301.617 241.055 302.082 c 242.594
 304.695 243.141 305.805 243.664 307.379 c 245.105 311.703 245.266 315.918
 244.074 318.109 c 243.68 318.832 242.941 320.227 242.434 321.199 c 241.246
 323.488 240.594 323.633 239.828 321.77 c 239.273 320.41 l 238.051 322.371
 l 237.379 323.449 236.523 325.273 236.156 326.422 c 235.66 327.965 235.297
 328.574 234.777 328.75 c 234.391 328.883 233.93 328.812 233.754 328.602
 c h
229.945 293.102 m 229.777 292.957 229.566 292.344 229.48 291.734 c 229.395
 291.125 229.184 290.586 229.012 290.535 c 228.445 290.375 226.406 287.879
 226.105 286.98 c 225.926 286.449 225.539 286.027 225.125 285.902 c 224.746
 285.793 223.691 285.238 222.781 284.676 c 221.152 283.664 221.121 283.621
 220.688 281.789 c 220.398 280.555 220.117 279.898 219.852 279.836 c 219.633
 279.785 219.367 279.488 219.262 279.18 c 219.16 278.867 218.891 278.676
 218.668 278.75 c 218.16 278.922 217.695 278.371 217.262 277.09 c 217.078
 276.543 216.797 276.141 216.637 276.191 c 216.477 276.246 216.211 275.895
 216.047 275.41 c 215.875 274.895 215.547 274.52 215.262 274.508 c 214.707
 274.484 213.871 273.285 212.758 270.918 c 212.109 269.543 211.871 269.289
 211.199 269.266 c 210.562 269.238 210.332 269.027 210.051 268.191 c 209.859
 267.617 209.359 266.617 208.941 265.969 c 208.527 265.32 208.156 264.434
 208.121 263.996 c 208.07 263.348 208.238 263.141 209.012 262.879 c 210.039
 262.531 209.797 262.277 212.051 266.07 c 212.273 266.441 212.688 267.195
 212.977 267.746 c 213.332 268.438 213.695 268.738 214.125 268.707 c 214.535
 268.68 214.832 268.914 214.992 269.383 c 215.125 269.781 215.484 270.199
 215.793 270.32 c 216.16 270.461 216.527 271.059 216.863 272.055 c 217.234
 273.16 217.598 273.707 218.184 274.051 c 218.629 274.312 219.09 274.816
 219.211 275.176 c 219.332 275.531 219.656 275.91 219.93 276.016 c 220.254
 276.141 220.836 277.184 221.551 278.926 c 222.855 282.09 223.664 282.824
 226.766 283.652 c 227.777 283.926 228.875 284.43 229.199 284.777 c 229.84
 285.461 231.25 289.449 231.551 291.43 c 231.707 292.465 231.621 292.719
 231 293.012 c 230.594 293.203 230.117 293.242 229.949 293.102 c h
178.27 308.457 m 176.871 307.297 175.172 304.172 173.926 300.473 c 171.586
 293.527 168.418 274.859 169.223 272.77 c 169.328 272.492 169.289 270.707
 169.133 268.809 c 168.832 265.125 168.941 264.383 169.824 264.086 c 170.734
 263.777 171.059 264.59 170.832 266.613 c 170.711 267.66 170.801 269.695
 171.023 271.137 c 172.051 277.75 172.68 282.664 172.711 284.344 c 172.746
 286.387 174.219 292.402 176.07 298.078 c 177.008 300.961 l 176.246 301.066
 l 175.508 301.168 175.5 301.211 176.094 302.457 c 177.461 305.348 178.309
 306.695 179.133 307.293 c 179.609 307.637 180.07 308.129 180.156 308.383
 c 180.434 309.211 179.234 309.258 178.27 308.457 c h
195.746 302.465 m 195.52 302.449 195.277 302.273 195.207 302.07 c 195.141
 301.867 194.703 301.48 194.238 301.211 c 193.77 300.938 192.289 299.629
 190.941 298.301 c 185.73 293.152 179.504 281.406 176.309 270.695 c 174.828
 265.738 174.453 263.086 175.172 262.676 c 175.871 262.281 176.199 262.977
 176.68 265.883 c 177.277 269.496 179.531 276.238 180.152 276.266 c 180.664
 276.285 181.926 278.914 183.465 283.152 c 184.574 286.207 187.418 291.199
 188.195 291.453 c 188.473 291.543 189.137 292.27 189.672 293.062 c 192.68
 297.527 195.223 300.586 196.094 300.789 c 196.277 300.832 196.531 301.188
 196.664 301.578 c 196.895 302.262 196.629 302.516 195.746 302.465 c h
199.516 291.926 m 198.859 291.391 197.594 290.25 196.699 289.391 c 195.809
 288.531 194.168 287.059 193.059 286.113 c 189.266 282.891 187.504 281.164
 186.812 280.008 c 186.434 279.375 185.75 278.25 185.301 277.512 c 184.848
 276.773 184.215 275.746 183.898 275.227 c 183.586 274.711 182.762 273.309
 182.074 272.113 c 181.387 270.918 180.504 269.43 180.113 268.801 c 179.207
 267.34 177.84 263.301 177.883 262.203 c 177.902 261.695 178.141 261.285
 178.484 261.168 c 179.008 260.992 179.152 261.23 180.188 263.918 c 181.375
 267.008 183.176 270.535 185.516 274.359 c 186.285 275.613 187.32 277.309
 187.809 278.125 c 188.848 279.848 189.996 281.027 193.668 284.156 c 197.402
 287.34 201.504 291.531 201.477 292.141 c 201.441 293.016 200.758 292.941
 199.516 291.926 c h
202.465 264.43 m 202.098 264.402 201.246 264.559 200.566 264.773 c 199.559
 265.094 199.062 265.039 197.824 264.461 c 196.066 263.641 194.719 261.941
 193.406 258.898 c 192.555 256.914 l 191.434 257.246 l 190.816 257.426 189.473
 257.488 188.441 257.379 c 186.945 257.223 186.527 257.047 186.34 256.5 
c 185.883 255.141 186.906 254.328 188.535 254.75 c 189.289 254.949 189.516
 254.891 190 254.371 c 190.48 253.863 190.711 253.797 191.391 253.969 c 
191.84 254.082 193.113 253.961 194.227 253.695 c 197.473 252.926 197.68 
253.008 203.496 257.426 c 205.039 258.598 205.32 258.965 205.789 260.383
 c 206.23 261.715 206.238 262.121 205.836 262.684 c 205.23 263.527 203.355
 264.496 202.465 264.43 c h
202.906 259.492 m 202.812 259.203 202.449 258.777 202.102 258.547 c 201.754
 258.316 200.832 257.613 200.059 256.98 c 199.281 256.352 198.285 255.629
 197.844 255.379 c 197.016 254.906 195.785 255.094 195.641 255.715 c 195.594
 255.906 195.172 256.195 194.703 256.355 c 193.684 256.699 193.707 256.812
 195.066 258.297 c 196.164 259.5 196.812 259.566 197.527 258.551 c 197.859
 258.078 198.109 258.094 199.363 258.664 c 200.16 259.023 201.066 259.562
 201.375 259.859 c 202.059 260.512 203.164 260.246 202.906 259.492 c h
S Q
0 g
136.309 277.163 m 140.602 278.514 l 142.602 272.17 l 148.938 274.167 l 
146.938 280.514 l 151.23 281.866 l 156.48 265.217 l 152.188 263.862 l 149.961
 270.92 l 143.625 268.924 l 145.852 261.866 l 141.559 260.51 l 136.309 277.163
 l 0 161.737 m 4.316 172.651 13.074 181.581 23.105 185.885 c 37.859 190.663
 51.293 199.034 62.074 210.745 c 65.336 220.553 73.789 219.913 83.684 220.604
 c 95.941 222.639 107.18 231.678 106.172 245.116 c 109.859 254.292 109.051
 266.19 96.27 261.069 c 85.977 255.768 71.367 256.6 64.992 267.432 c 54.016
 284.678 79.645 267.432 87.914 271.624 c 101.852 274.854 116.996 266.901
 126.445 280.444 c 143.125 288.647 162.086 287.424 179.746 291.967 c 193.934
 295.581 206.43 300.057 219.453 307.018 c 237.992 317.092 254.879 331.229
 266.48 349.057 c 258.59 354.573 248.387 360.85 245.062 371.018 c 251.406
 375.354 279.887 367.725 264.297 379.424 c 254.031 385.627 246.102 399.819
 240.316 407.077 c 251.48 408.334 257.516 396.565 267.062 392.913 c 276.996
 388.448 287.543 383.635 293.082 373.542 c 304.582 373.116 311.297 363.651
 320.25 357.952 c 327.742 355.803 337.395 349.811 329.781 343.147 c 318.719
 336.948 302.562 342.401 293.082 336.065 c 287.395 321.545 279.371 307.924
 270.402 295.338 c 282.312 295.467 296.621 294.67 284.223 280.834 c 277.207
 270.1 269.512 258.686 260.422 250.272 c 252.641 242.065 242.059 234.217
 230.246 233.385 c 224.785 232.858 200.695 234.456 209.766 240.331 c 216.859
 243.045 223.941 250.92 231.125 250.608 c 239.512 249.846 250.504 263.163
 252.668 268.264 c 235.676 259.815 219.695 250.12 201.969 243.35 c 191.793
 238.393 178.285 246.424 170.312 235.045 c 151.797 222.424 131.359 214.202
 109.801 209.026 c 99.191 206.545 87.895 205.17 78.277 199.061 c 58.523 
188.588 40.508 175.444 21.254 164.182 c 14.781 161.885 6.793 159.319 0 161.737
 c h
15.832 167.389 m 36.301 175.999 53.09 191.436 72.711 201.35 c 82.668 207.256
 92.438 210.538 103.766 212.741 c 126.031 217.534 146.867 226.542 166.027
 239.159 c 174.004 247.221 184.297 248.807 194.984 245.881 c 213.398 252.495
 229.902 262.737 247.688 271.034 c 253.578 273.526 269.582 281.741 259.867
 268.69 c 253.367 258.401 243.555 249.838 232.836 244.475 c 225.648 248.956
 210.207 235.233 226.559 237.565 c 247.645 238.67 262.109 256.698 273.57
 272.397 c 277.797 279.448 288.934 293.299 272.609 289.295 c 264.199 288.901
 252.109 288.112 263.836 296.827 c 275.684 309.983 284.816 325.042 291.891
 341.268 c 281.871 353.135 301.793 337.663 308.188 342.487 c 318.688 342.62
 327.191 345.647 328.047 351.217 c 317.801 353.678 310.562 362.124 301.941
 367.362 c 290.324 365.479 287.969 377.897 279.023 382.405 c 268.055 386.87
 257.719 393.135 249.023 401.491 c 251.34 394.096 263.059 386.19 270.418
 380.331 c 278.008 374.729 282.113 362.956 268.555 368.432 c 260.41 369.069
 244.645 369.682 257.566 360.225 c 262.945 354.51 278.801 352.913 268.172
 344.112 c 254.973 324.385 236.641 308.198 215.023 298.159 c 203.16 293.549
 190.801 288.803 178.25 286.604 c 162.031 282.045 143.734 283.979 128.914
 275.811 c 120.926 261.518 106.641 271.209 94.18 268.577 c 87.035 263.877
 68.789 272.44 68.621 268.237 c 78.312 255.112 93.191 267.698 105.406 265.502
 c 121.164 265.381 111.102 252.467 110.941 243.483 c 111.977 231.42 103.203
 221.084 91.973 218.276 c 83.227 213.483 69.98 218.381 64.875 207.252 c 
54.09 195.252 39.297 188.295 24.988 181.909 c 19.543 177.905 8.004 174.745
 8.855 166.448 c 11.211 166.284 13.598 166.631 15.832 167.389 c h
132.535 235.702 m 137.141 243.807 137.734 256.764 146.859 260.92 c 164.211
 260.917 182.059 263.999 197.859 270.479 c 207.828 273.479 215.953 284.284
 227.023 279.729 c 233.855 277.549 253.922 275.409 235.445 274.206 c 223.367
 275.213 214.387 265.932 203.398 262.729 c 186.387 256.588 167.246 254.081
 148.75 253.838 c 140.332 252.756 138.16 238.311 132.535 235.702 c h
251.492 290.522 m 240.117 302.053 262.234 311.362 267.566 320.768 c 271.234
 324.612 284.246 345.846 276.484 330.612 c 269.727 318.499 260.203 308.124
 252.82 296.514 c 250.398 293.678 258.723 286.62 251.492 290.522 c h
311.906 351.307 m 302.719 355.53 289.957 353.104 286.441 365.147 c 278.578
 376.049 288.145 367.217 292.562 362.381 c 301.824 363.542 306.953 353.819
 315.23 351.307 c 314.492 350.506 312.645 350.506 311.906 351.307 c h
275.09 356.28 m 269.656 356.788 252.219 367.545 267.781 364.268 c 274.977
 367.815 290.895 351.526 275.09 356.28 c h
f
Q Q
showpage
%%Trailer
end restore
%%EOF
