%!PS-Adobe-3.0 EPSF-3.0
%%Creator: cairo 1.12.2 (http://cairographics.org)
%%CreationDate: Sun Mar  1 17:49:48 2015
%%Pages: 1
%%DocumentData: Clean7Bit
%%LanguageLevel: 2
%%BoundingBox: 0 -1 513 218
%%EndComments
%%BeginProlog
save
50 dict begin
/q { gsave } bind def
/Q { grestore } bind def
/cm { 6 array astore concat } bind def
/w { setlinewidth } bind def
/J { setlinecap } bind def
/j { setlinejoin } bind def
/M { setmiterlimit } bind def
/d { setdash } bind def
/m { moveto } bind def
/l { lineto } bind def
/c { curveto } bind def
/h { closepath } bind def
/re { exch dup neg 3 1 roll 5 3 roll moveto 0 rlineto
      0 exch rlineto 0 rlineto closepath } bind def
/S { stroke } bind def
/f { fill } bind def
/f* { eofill } bind def
/n { newpath } bind def
/W { clip } bind def
/W* { eoclip } bind def
/BT { } bind def
/ET { } bind def
/pdfmark where { pop globaldict /?pdfmark /exec load put }
    { globaldict begin /?pdfmark /pop load def /pdfmark
    /cleartomark load def end } ifelse
/BDC { mark 3 1 roll /BDC pdfmark } bind def
/EMC { mark /EMC pdfmark } bind def
/cairo_store_point { /cairo_point_y exch def /cairo_point_x exch def } def
/Tj { show currentpoint cairo_store_point } bind def
/TJ {
  {
    dup
    type /stringtype eq
    { show } { -0.001 mul 0 cairo_font_matrix dtransform rmoveto } ifelse
  } forall
  currentpoint cairo_store_point
} bind def
/cairo_selectfont { cairo_font_matrix aload pop pop pop 0 0 6 array astore
    cairo_font exch selectfont cairo_point_x cairo_point_y moveto } bind def
/Tf { pop /cairo_font exch def /cairo_font_matrix where
      { pop cairo_selectfont } if } bind def
/Td { matrix translate cairo_font_matrix matrix concatmatrix dup
      /cairo_font_matrix exch def dup 4 get exch 5 get cairo_store_point
      /cairo_font where { pop cairo_selectfont } if } bind def
/Tm { 2 copy 8 2 roll 6 array astore /cairo_font_matrix exch def
      cairo_store_point /cairo_font where { pop cairo_selectfont } if } bind def
/g { setgray } bind def
/rg { setrgbcolor } bind def
/d1 { setcachedevice } bind def
%%EndProlog
%%Page: 1 1
%%BeginPageSetup
%%PageBoundingBox: 0 -1 513 218
%%EndPageSetup
q 0 -1 513 219 rectclip q
0.996078 0.996078 0.992157 rg
151.66 90.008 m 151.91 118.93 151.41 147.906 152.738 176.785 c 159.992 
168.598 151.828 140.715 169.648 153.606 c 180.359 159.059 196.801 150.004
 208.602 146.442 c 220.961 140.594 234.887 134.321 241.816 121.887 c 242.102
 105.156 224.172 93.891 211.484 85.656 c 200.266 82.672 191.602 88.754 187.426
 98.321 c 174.41 101.617 176.211 87.992 179.609 80.676 c 171.801 67.598 
182.453 48.547 196.461 45.129 c 209.688 45.926 222.426 43.524 235.438 42.238
 c 251.793 41.668 263.988 55.172 263.699 71.047 c 272.988 55.711 288.52 
44.828 304.344 36.563 c 298.168 26.871 284.863 9.887 304.531 6.684 c 319.934
 0.528 338.57 2.301 342.684 21.196 c 339.684 13.606 338.125 4.238 347.395
 1.242 c 308.387 -0.82 269.211 0.391 230.129 0.043 c 203.938 0.031 177.746
 0.02 151.555 0.008 c 151.59 30.008 151.625 60.008 151.66 90.008 c h
373.109 1.133 m 392.992 0.985 381.34 32.328 400.559 27.946 c 411.434 21.488
 436.988 21.442 433.406 39.887 c 434.5 49.52 451.043 73.321 457.539 55.86
 c 460.426 44.004 457.988 24.371 476.996 28.113 c 496.223 26.656 502.668
 44.481 499.285 60.426 c 492.086 72.176 487.168 86.035 491.105 100.024 c
 492.684 109.27 493.309 118.641 494.113 127.977 c 500.613 127.735 510.414
 136.465 512.773 134.543 c 512.773 0.008 l 466.227 0.328 419.605 -0.547 
373.109 1.133 c h
356.762 3.758 m 355.277 16.289 371.727 17.395 367.102 4.231 c 363.926 3.09
 359.961 2.387 356.762 3.758 c h
345.352 6.699 m 341.574 22.188 357.098 9.492 346.84 5.27 c h
306.578 9.266 m 299.371 16.656 318.562 23.512 311.625 10.289 c 311.109 
7.906 307.98 8.879 306.578 9.266 c h
296.895 14.004 m 298.062 29.418 305.676 15.496 296.895 14.004 c h
414.559 31.539 m 421.719 43.934 424.016 24.219 412.891 27.551 c h
403.809 30.11 m 408.535 34.453 406.102 25.731 403.809 30.11 c h
467.32 32.11 m 460.785 43.227 476.887 41.367 469.875 31.539 c h
476.883 35.828 m 482.512 52.004 489.543 23.426 476.75 33.297 c h
201 62.059 m 193.438 63.235 182.246 69.203 196.594 64.594 c 209.559 60.903
 223.082 60.379 236.441 59.363 c 224.566 59.281 212.535 58.551 201 62.059
 c h
239.227 61.031 m 246.629 62.238 236.988 58.703 239.227 61.031 c h
246.676 63.039 m 252.57 69.352 253.758 64.953 246.676 63.039 c h
216.273 67.039 m 207.652 76.125 231.262 75.578 221.219 66.805 c 218.984
 66.594 l h
182.695 69.801 m 176.633 77.309 192.531 62.535 182.695 69.801 c h
234.984 70.141 m 234.074 77.399 241.648 93.555 246.125 81.91 c 245.539 
79.449 236.812 60.082 234.984 70.141 c h
201.047 69.738 m 196.734 82.551 218.375 67.414 203.117 68.922 c h
184.922 80.184 m 177.391 85.348 183.426 94.953 188.891 90.547 c 193.297
 84.043 196.305 64.031 186.145 78.035 c h
216.324 85.246 m 220.773 89.113 235.551 100.016 224.227 89.75 c 223.762
 88.293 209.387 79.145 216.324 85.246 c h
241.324 89.004 m 244.336 95.461 252.625 84.774 241.324 89.004 c h
179.25 93.731 m 187.719 102.399 191.449 89.516 179.25 93.731 c h
247.289 97.488 m 246.883 111.27 251.355 96.789 248.051 94.719 c h
236.695 102.352 m 239.266 107.641 246.477 113.188 239.32 104.715 c 237.004
 102.301 l 236.555 101.981 l h
244.504 118.606 m 245.395 125.535 245.129 110.789 244.504 118.606 c h
487.555 144.793 m 475.637 163.086 456.91 179.617 433.824 179.059 c 413.129
 181.106 393.539 173.184 375.719 163.539 c 361.406 159.586 346.191 158.055
 331.355 157.52 c 321.887 158.379 308.957 157.324 301.441 162.36 c 303.281
 171.309 301.91 186.496 289.98 175.301 c 283.121 172.071 280.574 158.383
 275.559 171.504 c 266.836 182.664 259.371 164.535 249.688 171.762 c 234.004
 166.313 245.34 192.207 235.906 199.426 c 238.305 206.442 221.715 219.301
 234.094 216.738 c 512.773 216.738 l 512.492 191.66 513.496 166.52 511.965
 141.492 c 505.383 141.692 492.105 135.27 487.555 144.793 c h
219.887 143.977 m 210.086 150.992 231.875 138.18 219.887 143.977 c h
237.598 151.797 m 235.473 159.512 241.09 146.934 237.598 151.797 c h
206.34 152.922 m 213.535 158.223 214.812 149.035 206.34 152.922 c h
270.758 153.563 m 268.934 158.024 255.742 152.344 263.234 161.293 c 268.371
 163.942 284.117 152.84 270.758 153.563 c h
256.309 155.934 m 246.352 159.469 261.211 162.985 256.91 154.125 c 256.488
 154.656 l h
159.168 158.238 m 158.336 164.082 169.281 182.723 167.961 168.391 c 166.918
 163.598 166.281 153.953 159.168 158.238 c h
204.52 162.465 m 199.043 171.539 211.594 181.793 212.43 167.778 c 213.391
 161.586 214.68 154.781 206.34 156.992 c 202.855 155.715 205.215 160.805
 204.52 162.465 c h
177.164 158.574 m 185 159.461 177.344 156.711 177.164 158.574 c h
230.379 162.856 m 224.113 174.383 239.996 151.067 231.727 160.867 c h
223.148 173.473 m 221.023 181.184 226.641 168.606 223.148 173.473 c h
217.062 180.918 m 209.414 189.778 226.27 172.336 217.062 180.918 c h
167.812 189.641 m 182.449 194.199 167.418 187.379 164.961 188.297 c h
151.609 202.59 m 152.602 206.856 149.469 215.238 153.242 216.738 c 174.578
 216.43 196.02 217.508 217.277 215.906 c 206.219 210.446 190.555 207.59 
177.352 212.164 c 160.266 220.946 157.703 201.836 152.387 190.805 c 150.844
 193.035 152.004 199.172 151.609 202.59 c h
181.957 192.281 m 191.676 193.137 183.176 190.449 181.957 192.281 c h
f
0.301961 g
354.641 2.012 m 349.426 6.457 375.254 -0.207 363.477 1.496 c 360.527 1.426
 357.504 1.117 354.641 2.012 c h
369.73 3.86 m 364.195 19.442 376.656 0.805 369.73 3.86 c h
350.035 5.672 m 360.766 13.891 353.449 2.469 350.035 5.672 c h
373.203 4.059 m 382.137 9.742 379.137 4.817 373.203 4.059 c h
322.531 5.836 m 331.809 10.305 322.051 24.266 317.816 11.903 c 312.145 
-4.277 311.922 23.309 315.215 19.324 c 313.508 1.899 323.199 27.785 328.164
 14.895 c 327.301 10.633 327.656 5.992 331.777 6.711 c 330.375 6.379 321.094
 4.512 322.531 5.836 c h
343.035 6.586 m 338.602 15.555 348.457 1.778 343.035 6.586 c h
332.164 8.891 m 339.422 17.571 334.48 8.082 332.164 8.891 c h
351.539 12.363 m 349.902 20.055 341.16 11.52 346.309 18.68 c 351.934 21.653
 355.961 4.344 351.539 12.363 c h
356.109 11.793 m 359.59 17.356 369.293 17.696 359.152 12.649 c 358.969 
12.016 353.57 7.141 356.109 11.793 c h
382.832 12.75 m 384.004 17.02 383.578 7.524 382.832 12.75 c h
366.43 13.332 m 364.914 18.344 371.684 8.903 366.43 13.332 c h
302.453 14.02 m 303.316 20.457 299.242 22.84 298.945 22.555 c 304.809 29.789
 303.281 10.008 306.918 21.047 c 320.145 24.867 300.758 18.317 304.133 13.348
 c h
336.656 15.754 m 339.582 21.656 336.121 9.262 336.656 15.754 c h
384.035 17.567 m 385.207 21.836 384.785 12.34 384.035 17.567 c h
385.238 23.586 m 386.41 27.856 385.988 18.36 385.238 23.586 c h
347.816 24.016 m 350.676 30.645 349.102 19.719 347.816 24.016 c h
341.273 28.551 m 340.504 33.305 344.746 23.418 341.273 28.551 c h
411.727 28.129 m 403.949 28.317 413.406 38.465 413.484 31.836 c 406.227
 41.031 415.48 23.196 411.727 28.129 c h
386.527 29.656 m 385.152 32.66 389.645 44.192 389.543 36.66 c 398.809 45.875
 388.062 30.028 386.527 29.656 c h
423.645 30.789 m 422.484 35.406 416.676 43.473 423.625 34.617 c 425.262
 32.418 426.23 23.754 423.645 30.789 c h
344.879 29.996 m 351.746 29.348 350.395 35.813 349.324 37.293 c 353.707
 33.625 359.566 38.172 352.633 31.883 c 351.504 30.629 346.98 27.524 344.879
 29.996 c h
388.758 31.125 m 395.281 37.871 392.793 36.969 391.391 30.93 c 393.699 
29.891 388.543 29.891 388.758 31.125 c h
471.977 32.727 m 471.809 33.848 480.516 30.969 472.332 30.668 c h
337.41 34.727 m 332.055 40.949 329.383 54.317 336.109 40.078 c 339.074 
37.219 345.84 26.293 337.41 34.727 c h
401.398 32.516 m 396.09 36.969 410.363 29.012 401.398 32.516 c h
405.02 33.707 m 407.102 35.981 409.086 30.039 405.02 33.707 c h
485.988 35.84 m 480.605 47.551 489.723 40.453 487.629 33.203 c 486.324 
32.778 486.375 35.817 485.988 35.84 c h
327.949 34.922 m 328.32 39.18 333.273 30.621 327.949 34.922 c h
430.023 38.535 m 430.73 49.582 430.699 27.465 430.023 38.535 c h
463.516 36.129 m 462.148 47.676 475.789 40.41 476.844 40.11 c 473.496 30.77
 468.059 49.664 464.98 37.317 c 463.797 34.414 l h
323.137 36.129 m 326.828 40 323.516 31.981 323.137 36.129 c h
492.984 36.481 m 497.535 42.477 491.461 30.973 492.984 36.481 c h
314.676 37.285 m 323.102 41.5 320.297 34.797 314.676 37.285 c h
353.613 38.156 m 361.016 39.363 351.375 35.824 353.613 38.156 c h
362.289 39.063 m 365.363 42.738 355.211 38.098 363.773 43.356 c 372.164
 50.375 357.844 31.383 362.289 39.063 c h
413.719 38.684 m 420.75 42.571 410.523 34.543 413.719 38.684 c h
417.652 40.258 m 423.535 45.91 423.723 41.246 417.652 40.258 c h
422.469 40.258 m 428.352 45.91 428.539 41.246 422.469 40.258 c h
494.809 41.645 m 495.98 45.914 495.559 36.418 494.809 41.645 c h
388.895 43.352 m 391.312 56.125 390.852 41.524 388.969 41.184 c 388.945
 41.906 388.918 42.629 388.895 43.352 c h
462.301 42.852 m 463.469 47.121 463.047 37.625 462.301 42.852 c h
479.062 43.352 m 483.496 48.199 483.68 38.641 479.062 43.352 c h
397.871 44.418 m 399.141 49.055 398.773 66.492 400.77 52.332 c 400.16 51.008
 399.871 41.086 397.871 44.418 c h
423.676 43.809 m 430.93 52.488 425.988 43 423.676 43.809 c h
231.926 45.406 m 244.027 46.11 234.055 43.801 231.926 45.406 c h
291.836 45.746 m 293.922 48.024 295.902 42.078 291.836 45.746 c h
370.695 46.965 m 379.039 56.012 367.492 38.946 370.695 46.965 c h
243.668 46.965 m 254.457 51.063 239.859 42.867 243.668 46.965 c h
496.277 51.781 m 496.891 63.567 496.824 39.836 496.277 51.781 c h
199.418 47.836 m 214.852 48.336 204.031 46.442 199.418 47.836 c h
218.984 48.168 m 216.934 51.703 228.449 44.145 218.984 48.168 c h
428.492 47.418 m 435.746 56.098 430.805 46.61 428.492 47.418 c h
211.359 51.379 m 208.121 57.582 215.777 49.965 211.359 51.379 c h
433.305 50.953 m 439.309 57.297 443.512 60.418 435.535 52.266 c 435.465
 53.106 433.637 49.442 433.305 50.953 c h
377.117 53.656 m 385.219 66.594 383.852 52.438 377.117 53.656 c h
185.117 55.09 m 181.699 60.457 191.965 48.207 185.117 55.09 c h
255.488 54.957 m 259.52 67.992 260.156 59.008 255.488 54.957 c h
460.477 56.242 m 459.703 61 463.949 51.113 460.477 56.242 c h
211.758 57.801 m 218.66 62.504 217.48 53.508 211.758 57.801 c h
232.227 57.801 m 243.652 63.481 230.289 52.906 232.227 57.801 c h
181.602 60.313 m 178.742 66.211 184.082 60.676 183.453 57.875 c 182.797
 58.391 l h
203.332 59.004 m 208.535 63.242 209.957 56.738 203.332 59.004 c h
239.977 58.875 m 245.836 61.91 259.566 66.696 245.801 59.762 c 245.043 
59.918 239.168 56.336 239.977 58.875 c h
194 61.379 m 180.863 66.387 202.566 62.617 200.762 59.332 c 198.375 58.699
 196.164 60.75 194 61.379 c h
456.672 61.715 m 448.914 70.715 466.043 52.871 456.672 61.715 c h
494.809 60.91 m 495.98 65.18 495.559 55.684 494.809 60.91 c h
200.043 64.403 m 193.949 65.117 174.996 73.012 183.617 78.028 c 190.996
 64.832 199.367 76.453 196.496 84.297 c 209.938 82.051 221.176 75.363 234.953
 81.539 c 237.082 77.196 229.906 60.953 241.293 66.824 c 241.039 72.121 
244.883 68.797 245.359 75.328 c 252.043 81.645 261.078 75.285 254.297 65.785
 c 256.961 79.848 248.969 62.797 243.582 63.957 c 232.266 59.16 215.969 
61.696 203.117 63.649 c h
225.023 68.598 m 223.793 83.711 204.215 65.492 220.902 65.832 c 222.617
 65.688 227.059 65.559 225.023 68.598 c h
208.848 68.637 m 215.039 75.664 195.781 80.817 199.34 69.664 c 202.141 
67.688 205.676 67.778 208.848 68.637 c h
445.949 65.024 m 454.52 74.574 440.379 56.449 445.949 65.024 c h
179.344 66.328 m 180.621 73.41 189.797 62.914 180.043 65.918 c 179.57 65.301
 l h
451.719 67.418 m 445.484 72.324 457.688 71.528 452.324 65.613 c h
259.09 72.852 m 258.992 83.145 257.754 68.469 259.23 68.715 c 259.125 70.305
 l h
276.332 68.887 m 262.941 72.024 288.117 67.68 292.871 70.996 c 303.395 
69.957 295.992 68.094 290.289 69.426 c 301.027 66.969 274.855 67.121 276.332
 68.887 c h
299.656 71.047 m 296.551 75.434 306.273 67.199 299.656 71.047 c h
302.789 72.051 m 304.457 75.875 306.051 68.86 302.789 72.051 c h
453.125 73.535 m 451 81.246 456.617 68.668 453.125 73.535 c h
178.047 75.188 m 180.508 82.781 179.109 69.832 178.047 75.188 c h
263.637 74.656 m 265.414 84.047 267.02 75.551 263.637 74.656 c h
455.773 78.805 m 457.133 80.711 457.355 87.102 457.625 78.742 c 456.594
 77.422 l h
251.102 81.164 m 255.176 96.942 253.133 75.699 251.102 81.164 c h
261.125 81.18 m 256.223 89.168 266.945 83.836 264.207 82.785 c 264 82.406
 260.84 77.153 261.125 81.18 c h
211.758 83.016 m 214.617 89.641 213.043 78.719 211.758 83.016 c h
485.316 84.891 m 486.207 91.821 485.941 77.074 485.316 84.891 c h
269.297 84.891 m 274.688 92.106 280.25 95.66 271.891 86.903 c 271.562 86.563
 266.918 80.836 269.297 84.891 c h
458.137 84.938 m 455.547 93.457 462.008 79.699 458.137 84.938 c h
247.07 85.992 m 246.262 92.965 256.281 80.727 247.07 85.992 c h
239.984 87.203 m 233.691 95.059 249.582 81.125 239.984 87.203 c h
262.008 87.004 m 264.953 100.461 269.711 89.16 262.008 87.004 c h
224.402 89.106 m 232.973 98.656 218.832 80.531 224.402 89.106 c h
459.355 88.844 m 458.047 94.301 461.414 112.258 461.844 97.856 c 463.145
 93.594 459.074 91.18 459.355 88.844 c h
251.492 91.242 m 247.609 96.512 250.008 110.336 251.84 96.758 c 252.477
 96.098 252.316 84.946 251.492 91.242 c h
269.555 89.485 m 275.555 95.824 279.758 98.946 271.781 90.797 c 271.715
 91.637 269.887 87.969 269.555 89.485 c h
244.27 91.496 m 231.629 93.75 260.879 91.813 244.27 91.496 c h
177.379 92.824 m 176.766 100.778 181.27 88.485 177.379 92.824 c h
188.129 93.281 m 186.469 104.824 191.695 86.938 188.129 93.281 c h
486.52 94.524 m 487.41 101.453 487.145 86.707 486.52 94.524 c h
225.004 93.172 m 232.262 101.852 227.32 92.363 225.004 93.172 c h
232.832 96.332 m 241.402 105.879 227.262 87.754 232.832 96.332 c h
232.227 99.34 m 239.996 107.516 230.605 94.754 230.406 97.215 c h
245.707 99.34 m 246.598 106.27 246.332 91.524 245.707 99.34 c h
183.84 98.36 m 191.242 99.567 181.605 96.028 183.84 98.36 c h
487.586 100.645 m 488.754 104.914 488.332 95.418 487.586 100.645 c h
238.25 101.602 m 245.504 110.281 240.562 100.793 238.25 101.602 c h
284.004 101.602 m 291.262 110.281 286.316 100.793 284.004 101.602 c h
290.789 105.363 m 299.738 117.895 289.359 101.121 287.922 101.238 c h
251.129 105.664 m 248.434 110.875 251.383 121.133 253.59 111.117 c 248.863
 114.379 254.984 101.821 251.129 105.664 c h
488.93 107.77 m 489.816 114.699 489.555 99.953 488.93 107.77 c h
290.121 109.574 m 295.637 119.793 288.078 102.504 290.121 109.574 c h
252.996 116.774 m 248.23 125.477 258.711 111.762 252.996 116.774 c h
243.301 118.606 m 244.188 125.535 243.926 110.789 243.301 118.606 c h
292.527 117.504 m 293.699 121.774 293.273 112.278 292.527 117.504 c h
257.898 126.789 m 257.535 142.879 262.301 117.031 258.316 121.766 c 258.055
 123.985 l h
296.348 123.422 m 297.129 132.805 296.969 113.168 296.348 123.422 c h
255.297 122.821 m 256.531 130.117 255.832 115.977 255.297 122.821 c h
251.492 126.438 m 248.742 134.707 247.629 139.121 239.348 147.098 c 240.699
 155.754 226.359 170.985 218.992 180.688 c 211.879 185.446 211.434 190.246
 219.102 182.504 c 229.402 170.68 238.398 157.145 245.258 143.289 c 251.223
 136.289 253.652 131.028 251.742 124.512 c h
239.453 127.637 m 234.879 136.516 246.109 118.957 239.453 127.637 c h
488.883 127.637 m 490.117 134.934 489.422 120.793 488.883 127.637 c h
292.527 128.34 m 293.699 132.61 293.273 123.113 292.527 128.34 c h
234.484 133.356 m 231.066 138.723 241.332 126.473 234.484 133.356 c h
340.895 136.848 m 334.594 140.278 333.418 148.231 339.195 139.84 c 346.16
 135.793 350.66 127 340.895 136.848 c h
489.898 132.524 m 484.004 133.836 494.047 141.899 490.328 131.25 c h
504.766 134.731 m 509.367 142.289 510.648 134.117 502.344 132.645 c 502.695
 133.133 l h
290.688 136.164 m 285.316 143.02 296.648 133.063 290.688 136.164 c h
494.414 136.914 m 506.512 137.617 496.543 135.313 494.414 136.914 c h
221.922 141.551 m 216.363 146.832 230.887 135.586 221.922 141.551 c h
331.141 144.879 m 324.305 148.375 315.051 155.879 328.113 148.543 c 330.414
 148.442 336.164 141.742 331.141 144.879 c h
353.84 146.903 m 347.238 149.696 340.273 154.524 350.523 150.418 c 355.508
 150 362.195 140.649 353.84 146.903 c h
211.758 146.903 m 208.652 151.289 218.379 143.055 211.758 146.903 c h
265.41 148.219 m 270.516 150.067 276.949 148.934 273.078 152.168 c 278.715
 157.262 284.484 158.379 277.168 152.758 c 282.781 148.492 266.781 146.774
 265.41 148.219 c h
258.043 150 m 257.66 152.047 265.027 156.074 262.582 148.918 c 265.605 
147.196 257.414 148.949 258.043 150 c h
477.703 151.418 m 474 156.942 485.031 144.438 477.703 151.418 c h
235.688 152.621 m 231.984 158.145 243.012 145.641 235.688 152.621 c h
269.648 152.02 m 267.434 155.629 261.219 150.485 268.316 155.074 c 271.281
 156.227 270.41 147.934 269.648 152.02 c h
289.434 151.738 m 292.898 153.508 300.465 160.215 292.629 151.668 c 292.598
 151.086 287.742 149.281 289.434 151.738 c h
163.223 152.496 m 172.223 159.692 161.91 149.563 163.223 152.496 c h
213.844 154.223 m 216.879 161.16 213.316 146.117 213.844 154.223 c h
252.531 153.84 m 251.668 156.875 260.688 151.305 252.531 153.84 c h
318.117 153.543 m 321.312 157.262 338.898 154.047 324.348 154.168 c 322.586
 155.028 318.375 150.793 318.117 153.543 c h
340.16 153.524 m 350.965 160.051 343.648 149.485 340.16 153.524 c h
285.508 153.719 m 279.492 162.446 292.207 150.559 288.023 160.664 c 289.074
 167.438 304.777 180.262 299.234 165.235 c 297.086 157.391 297.977 171.317
 296.531 160.613 c 293.43 159.168 290.277 151.926 285.508 153.719 c h
334.273 153.719 m 339.051 154.738 338.309 151.824 334.273 153.719 c h
187.453 154.949 m 194.855 156.156 185.215 152.617 187.453 154.949 c h
202.363 158.438 m 201.215 163.895 189.141 176.828 188.895 177.125 c 198.23
 164.024 179.449 159.414 168.391 160.289 c 165.398 164.301 175.211 158.426
 169.102 165.91 c 173.297 173.141 164.117 177.196 160.594 173.125 c 152.922
 181.981 167.387 189.461 177.531 190.395 c 188.359 191.754 198.613 189.586
 207.438 185.969 c 218.344 180.336 220.645 173.93 227.445 167.051 c 221.133
 162.465 210.863 152.856 213.703 167.977 c 215.012 179.969 198.906 176.653
 201.996 171.742 c 203.801 171.25 202.992 153.824 202.363 158.438 c h
188.5 183.25 m 186.336 184.11 189.312 178.11 188.5 183.25 c h
474.09 156.235 m 470.387 161.758 481.418 149.254 474.09 156.235 c h
195.879 156.153 m 203.285 157.36 193.645 153.824 195.879 156.153 c h
232.227 157.738 m 227.656 166.617 238.887 149.059 232.227 157.738 c h
247.121 157.914 m 242.934 162.598 262.656 154.828 249.449 156.367 c h
351.73 156.16 m 361.445 157.016 352.949 154.328 351.73 156.16 c h
176.617 157.356 m 184.02 158.563 174.379 155.028 176.617 157.356 c h
191.062 157.356 m 198.469 158.563 188.828 155.028 191.062 157.356 c h
362.566 157.395 m 372.438 158.184 369.742 156.156 362.176 157.043 c 361.805
 157.203 l h
247.789 160.371 m 245.043 166.535 254.32 165.719 248.961 161.395 c 260.293
 159.219 252.082 171.645 253.422 169.238 c 261.766 164.805 253.617 159.895
 247.789 160.371 c h
376.816 160.512 m 384.496 166.285 388.023 165.207 376.816 160.512 c h
158.801 163.258 m 162.016 179.961 159.852 155.856 158.801 163.258 c h
228.461 163.457 m 225.047 168.824 235.309 156.574 228.461 163.457 c h
242.426 163.801 m 230.199 167.121 246.434 168.063 244.742 161.524 c h
260.438 163.664 m 265.059 168.793 270.207 160.914 260.57 162.688 c h
281.633 162.301 m 285.484 169.567 293.344 174.723 281.633 162.301 c h
269.555 163.742 m 262.539 171.758 284.34 162.016 269.555 163.742 c h
397.664 164.36 m 408.52 170.367 402.012 160.863 397.664 164.36 c h
465.664 164.66 m 461.957 170.184 472.988 157.68 465.664 164.66 c h
406.016 168.098 m 408.426 176.442 422.195 169.66 409.715 170.719 c 409.344
 170.539 406.062 165.5 406.016 168.098 c h
460.848 168.274 m 457.145 173.797 468.172 161.293 460.848 168.274 c h
247.602 169.981 m 253.398 173.098 248.82 167.219 247.602 169.981 c h
261.125 169.028 m 268.383 177.707 263.441 168.223 261.125 169.028 c h
413.934 174.688 m 413.816 178.395 423.168 172.274 413.934 174.688 c h
422.246 174.215 m 429.648 175.422 420.008 171.883 422.246 174.215 c h
295.766 176 m 301.562 179.117 296.984 173.238 295.766 176 c h
430.598 175.477 m 439.027 176.278 446.18 174.676 433.762 175.024 c 432.965
 175.024 427.418 175.071 430.598 175.477 c h
153.965 181.399 m 160.73 191.774 173.113 194.574 184.668 195.02 c 174.301
 192.172 160.715 190.692 155.84 180.613 c 154.516 180.848 l h
237.141 184.93 m 238.312 189.199 237.887 179.703 237.141 184.93 c h
154.059 187.336 m 155.23 191.606 154.809 182.11 154.059 187.336 c h
209.352 187.84 m 201.93 189.485 207.086 193.856 210.719 187.34 c 209.754
 187.137 l h
155.207 190.852 m 156.41 197.16 159.137 193.906 155.547 190.531 c h
199.418 191.149 m 192.258 197.309 209.391 190.434 199.418 191.149 c h
234.312 193.762 m 233.855 200.367 237.094 187.906 234.312 193.762 c h
188.254 193.817 m 196.301 198.375 198.457 189.625 188.254 193.817 c h
231.023 198.676 m 227.918 203.063 237.645 194.828 231.023 198.676 c h
161.098 201.43 m 162.742 207.844 161 208.293 169.379 206.223 c 167.957 
207.113 155.344 195.164 161.098 201.43 c h
223.219 205.055 m 219.656 216.789 227.168 199.371 223.219 205.055 c h
190.086 204.899 m 195.164 207.453 203.992 209.496 193.07 204.332 c 192.598
 203.742 189.598 202.969 190.086 204.899 c h
219.078 205.399 m 220.25 209.668 219.828 200.172 219.078 205.399 c h
212.578 207.891 m 209.016 210.125 229.961 217.719 217.836 211.117 c 216.203
 209.914 214.84 207.785 212.578 207.891 c h
178.363 209.172 m 187.527 210.094 184.43 207.621 177.547 208.977 c h
170.219 210.715 m 170.535 215.133 173.832 206.66 170.219 210.715 c h
206.641 210.309 m 211.418 211.328 210.68 208.414 206.641 210.309 c h
227.578 211.961 m 221.273 219.321 236.773 204.778 227.578 211.961 c h
f
0 g
347.215 1.625 m 332.41 1.996 348.09 30.957 338.719 14.309 c 332.957 -3.262
 310.641 4.621 298.152 9.192 c 280.496 18.117 317.348 35.758 296.645 40.961
 c 283.5 48.156 271.531 58.465 263.699 71.047 c 263.988 55.172 251.793 41.668
 235.438 42.238 c 222.426 43.524 209.688 45.926 196.461 45.129 c 181.805
 48.738 171.668 68.543 179.934 81.942 c 177.242 87.418 174.16 99.449 179.879
 87.742 c 183.449 82.313 183.406 76.235 178.449 76.278 c 177.902 61.36 188.895
 45.434 205.082 46.86 c 215.617 55.18 226.004 42.106 239.047 45.188 c 255
 45.735 261.312 62.184 259.941 75.965 c 259.555 81.496 264.75 95.766 261.336
 82.285 c 267.461 84.649 281.547 100.039 289.883 107.797 c 297.684 114.149
 289.766 136.399 292.57 135.059 c 301.984 120.473 292 103.285 279.395 94.535
 c 271.566 89.055 256.98 73.938 270.457 70.113 c 268.535 59.617 287.68 49.485
 296.984 43.125 c 300.73 37.93 323.758 38.738 308.039 34.965 c 303.328 31.156
 288.574 8.762 301.676 13.871 c 310.543 25.309 296.992 3.77 309.918 7.461
 c 326.098 -0.578 339.734 11.375 342.34 27.235 c 338.469 35.391 348.012 
26.524 351.266 30.531 c 347.887 22.926 334.734 0.985 351.973 5.274 c 356.133
 8.313 355.117 -2.879 363.305 1.36 c 374.727 2.774 387.133 9.031 386.168
 24.012 c 385.18 30.856 395.621 44.309 397.848 42.078 c 394.512 36.664 382.801
 27.5 396.711 31.723 c 424.773 38.692 448.598 59.977 459.176 86.789 c 459.246
 79.649 450.789 72.231 452.383 66.129 c 465.984 58.203 459.156 41.516 466.297
 31.028 c 475.457 27.379 473.039 32.543 475.094 36.555 c 477.051 20.285 
501.254 37.621 496.844 49.781 c 497.613 65.778 481.469 78.313 487.574 95.008
 c 490.961 106.309 488.227 124.324 490.629 131.699 c 498.758 127.887 519.066
 140.434 499.887 137.684 c 483.926 130.469 482.543 150.375 472.789 158.281
 c 457.02 178.625 425.848 180.516 405.152 166.942 c 401.328 167.973 420.895
 175.313 417.789 175.68 c 400.59 174.344 385.828 164.789 370.43 158.129 
c 356.738 158.414 343.332 152.156 329.863 154.953 c 323.121 157.278 317.707
 153.211 317.953 152.801 c 311.996 158.11 297.367 156.863 295.262 156.637
 c 302.332 164.352 302.016 185.567 289.414 171.672 c 281.148 166.641 281.324
 149.574 272.801 160.598 c 259.449 165.242 271.598 160.707 275.336 165.715
 c 269.539 186.488 249.922 156.309 265.375 151.848 c 267.828 156.637 273.02
 148.035 275.359 151.719 c 266.035 145.711 258.863 151.305 250.973 156.016
 c 254.996 156.641 259.969 148.379 258.617 159.285 c 254.668 162.809 255.141
 161.043 257.07 165.785 c 248.465 177.074 241.066 163.578 249.34 158.981
 c 232.281 165.828 242.352 186.211 232.855 198.098 c 220.836 197.641 238.551
 210.598 226.02 213.934 c 214.527 210.024 204.227 209.883 191.531 205.789
 c 186.477 216.016 160.152 200.414 171.211 211.66 c 158.762 214.832 164.047
 199.727 156.523 193.629 c 150.309 187.563 158.84 174.742 154.488 172.692
 c 146.676 185.656 157.246 198.52 160.555 210.672 c 171.211 219.453 185.996
 206.113 198.18 210.074 c 210.469 212.582 233.457 225.278 234.617 203.598
 c 240.715 193.981 239.824 178.723 243.668 170.781 c 253.316 171.656 260.027
 168.379 267.75 175.801 c 277.332 175.024 279.738 157.18 285.922 172.071
 c 294.137 182.883 306.367 179.668 301.625 165.645 c 299.992 157.317 314.289
 160.082 319.32 158.133 c 335.074 155.649 350.387 159.621 365.988 160.867
 c 383.629 164.551 398.32 177.711 416.887 178.563 c 437.793 181.567 460.957
 176.809 475.223 160.168 c 484.137 147.504 493.605 134.047 510.801 140.965
 c 517.262 131.207 496.934 131.5 493.969 126.301 c 493.672 110.52 488.199
 94.922 490.801 79.188 c 496.121 66.844 502.672 55.067 498.738 40.942 c 
495.113 26.672 463.699 21.379 460.207 38.059 c 462.512 50.438 452.438 73.914
 441.504 55.145 c 428.656 46.832 439.496 21.91 418.492 24.367 c 405.801 
24.731 384.883 35.629 387.258 13.153 c 382.211 -1.586 362.617 -0.25 349.969
 0.801 c h
422.488 30.11 m 422.273 34.817 428.195 22.446 429.941 32.117 c 431.641 
39.254 432.898 50.324 424.473 41.77 c 416.77 35.153 409.508 33.727 402.324
 30.524 c 406.098 22.367 415.941 39.52 412.137 26.817 c 415.328 26.684 421.727
 25.656 422.488 30.11 c h
361.965 15.254 m 366.742 16.274 366.004 13.356 361.965 15.254 c h
312.297 20.477 m 312.617 24.891 315.914 16.418 312.297 20.477 c h
351.43 36.106 m 359.941 36.391 375.945 54.836 376.707 52.942 c 369.344 
46.946 361.863 34.25 351.43 36.106 c h
318.02 36.957 m 327.734 37.813 319.234 35.125 318.02 36.957 c h
219.887 57.469 m 235.32 57.969 224.5 56.074 219.887 57.469 c h
207.266 58.637 m 215.102 59.524 207.445 56.778 207.266 58.637 c h
186.473 65.024 m 183.367 69.414 193.094 61.176 186.473 65.024 c h
244.27 65.024 m 253.664 69.344 240.555 60.992 244.27 65.024 c h
209.543 71.047 m 210.777 78.344 210.078 64.199 209.543 71.047 c h
245.305 76.446 m 246.023 85.926 253.582 84.176 252.078 76.422 c 244.754
 80.84 240.418 60.024 245.305 76.446 c h
274.145 69.461 m 281.547 70.668 271.906 67.133 274.145 69.461 c h
290.324 69.469 m 300.039 70.324 291.543 67.633 290.324 69.469 c h
298.453 70.699 m 309.578 76.438 300.832 69.289 298.453 70.699 c h
195.238 77.067 m 194.121 82.617 181.844 108.309 191.566 92.715 c 198.312
 78.348 219.516 86.774 227.227 96.957 c 232.023 99.703 246.625 120.895 237.785
 106.317 c 233.121 96.125 214.223 89.352 213.648 81.883 c 227.219 89.86 
245.234 101.18 245.473 118.832 c 246.938 124.586 243.766 128.367 239.398
 131.637 c 230.48 139.535 220.234 149.262 207.98 149.934 c 219.227 141.645
 235.508 137.367 242.023 123.422 c 229.102 139.098 208.863 146.77 190.895
 153.61 c 197.578 152.649 209.609 149.84 197.801 155.852 c 192.102 158.36
 166.703 159.633 184.758 162.598 c 197.691 162.231 186.574 177.988 189.676
 177.317 c 193.551 167.899 203.562 163.75 203.938 153.141 c 216.262 144.774
 217 170.238 228.32 163.688 c 235.766 151.031 246.059 139.746 251.723 126.231
 c 250.477 115.516 247.363 100.41 243.867 92.719 c 235.621 90.828 238.039
 76.973 226.25 80.164 c 217.688 71.422 196.707 93.629 196.184 79.328 c 197.25
 78.442 197.516 71.832 195.238 77.067 c h
253.148 80.035 m 251.797 90.016 256.441 74.477 253.148 80.035 c h
250.52 87.449 m 247.035 96.844 254.562 91.137 251.812 86.258 c h
459.891 92.219 m 461.062 96.488 460.641 86.992 459.891 92.219 c h
178.578 96.867 m 190.098 103.488 174.828 92.488 178.578 96.867 c h
461.191 99.942 m 462.426 107.242 461.727 93.098 461.191 99.942 c h
251.59 110.278 m 252.758 114.547 252.336 105.051 251.59 110.278 c h
252.793 115.094 m 253.965 119.363 253.543 109.867 252.793 115.094 c h
242.051 116.801 m 243.285 124.098 242.586 109.957 242.051 116.801 c h
253.688 123.422 m 252.078 130.012 251.969 135.809 254.57 126.047 c 255.566
 122.688 254.016 114.903 253.688 123.422 c h
157.812 151.547 m 151.098 157.914 164.098 185.125 159.836 165.875 c 154.027
 158.535 164.559 144.227 167.484 157.238 c 168.055 168.309 171.367 162.738
 170.875 158.707 c 174.914 157.684 192.906 153.246 178.551 155.125 c 168.477
 160.258 168.906 145.012 157.812 151.547 c h
285.207 157.926 m 285.461 164.043 296.914 173.531 288.664 162.024 c 288.203
 160.313 289.684 150.375 285.207 157.926 c h
221.238 173.09 m 217.82 178.457 228.086 166.203 221.238 173.09 c h
200.922 173.321 m 203.781 179.946 202.207 169.024 200.922 173.321 c h
187.773 182.524 m 188.945 186.789 188.523 177.297 187.773 182.524 c h
157.051 183.375 m 161.602 189.371 155.527 177.867 157.051 183.375 c h
165.684 186.785 m 172.715 190.672 162.484 182.645 165.684 186.785 c h
184.969 194.656 m 189.746 195.676 189.008 192.762 184.969 194.656 c h
220.188 205.903 m 224.059 214.153 223.801 197.789 220.188 205.903 c h
f
444.262 155.231 m 446.641 150.867 l 444.5 150.754 442.566 150.485 440.844
 150.063 c 439.121 149.641 437.555 149.047 436.152 148.281 c 433.719 146.953
 432.09 145.457 431.277 143.785 c 430.48 142.125 430.555 140.422 431.504
 138.68 c 432.301 137.219 433.34 136.348 434.621 136.071 c 435.91 135.817
 437.902 136.125 440.605 137.004 c 443.609 137.926 l 447.293 139.11 450.363
 139.324 452.82 138.578 c 455.285 137.852 457.25 136.145 458.711 133.457
 c 460.461 130.254 460.707 127.238 459.449 124.406 c 458.211 121.586 455.516
 119.047 451.367 116.785 c 449.801 115.93 448.035 115.199 446.07 114.586
 c 444.121 113.985 442.012 113.516 439.742 113.18 c 437.23 117.785 l 439.605
 117.758 441.801 117.957 443.824 118.391 c 445.852 118.824 447.703 119.5
 449.387 120.418 c 451.941 121.809 453.641 123.387 454.48 125.145 c 455.32
 126.906 455.234 128.719 454.219 130.578 c 453.336 132.203 452.141 133.199
 450.637 133.567 c 449.148 133.942 447.145 133.742 444.621 132.957 c 441.605
 132.004 l 437.906 130.852 434.926 130.578 432.66 131.18 c 430.398 131.785
 428.578 133.352 427.199 135.875 c 425.605 138.801 425.379 141.664 426.512
 144.465 c 427.664 147.274 430.047 149.664 433.664 151.637 c 435.215 152.485
 436.871 153.203 438.633 153.801 c 440.395 154.399 442.273 154.875 444.262
 155.231 c f
66.98 76.981 m 69.09 77.645 l 70.074 74.528 l 73.188 75.508 l 72.203 78.629
 l 74.312 79.293 l 76.895 71.11 l 74.781 70.446 l 73.688 73.914 l 70.578
 72.934 l 71.672 69.465 l 69.559 68.801 l 66.98 76.981 l 0 20.262 m 2.121
 25.625 6.426 30.012 11.355 32.129 c 18.605 34.477 25.207 38.59 30.5 44.344
 c 32.105 49.164 36.258 48.848 41.121 49.188 c 47.145 50.192 52.668 54.633
 52.172 61.235 c 53.984 65.742 53.586 71.59 47.309 69.074 c 42.246 66.469
 35.07 66.879 31.938 72.199 c 26.543 80.676 39.137 72.199 43.199 74.258 
c 50.047 75.848 57.492 71.938 62.133 78.594 c 70.328 82.625 79.648 82.024
 88.328 84.258 c 95.297 86.031 101.438 88.231 107.836 91.653 c 116.945 96.602
 125.246 103.551 130.945 112.309 c 127.066 115.02 122.055 118.106 120.422
 123.102 c 123.539 125.231 137.531 121.485 129.871 127.231 c 124.828 130.281
 120.934 137.254 118.09 140.821 c 123.574 141.438 126.543 135.653 131.234
 133.86 c 136.113 131.664 141.297 129.301 144.02 124.34 c 149.668 124.133
 152.969 119.481 157.367 116.68 c 161.051 115.625 165.793 112.68 162.051
 109.406 c 156.617 106.36 148.676 109.039 144.02 105.926 c 141.223 98.793
 137.281 92.098 132.871 85.914 c 138.727 85.977 145.758 85.586 139.664 78.785
 c 136.219 73.512 132.434 67.903 127.969 63.77 c 124.145 59.735 118.945 
55.879 113.141 55.469 c 110.457 55.211 98.621 55.996 103.078 58.883 c 106.562
 60.215 110.043 64.086 113.574 63.934 c 117.695 63.559 123.094 70.102 124.16
 72.61 c 115.809 68.457 107.957 63.692 99.246 60.367 c 94.246 57.93 87.609
 61.875 83.688 56.285 c 74.59 50.082 64.547 46.043 53.957 43.5 c 48.742 
42.281 43.191 41.606 38.465 38.602 c 28.758 33.457 19.906 27 10.445 21.465
 c 7.266 20.336 3.34 19.074 0 20.262 c h
7.781 23.039 m 17.836 27.27 26.09 34.856 35.73 39.727 c 40.621 42.629 45.422
 44.242 50.992 45.324 c 61.93 47.68 72.172 52.106 81.586 58.309 c 85.504
 62.27 90.562 63.047 95.812 61.61 c 104.859 64.86 112.973 69.891 121.711
 73.969 c 124.605 75.196 132.473 79.231 127.695 72.821 c 124.504 67.762 
119.68 63.555 114.414 60.918 c 110.883 63.121 103.293 56.379 111.328 57.524
 c 121.691 58.067 128.797 66.926 134.43 74.641 c 136.508 78.106 141.98 84.91
 133.957 82.942 c 129.824 82.75 123.883 82.36 129.645 86.645 c 135.469 93.11
 139.957 100.508 143.43 108.485 c 138.508 114.313 148.301 106.711 151.441
 109.082 c 156.602 109.145 160.777 110.637 161.199 113.371 c 156.164 114.578
 152.609 118.731 148.371 121.305 c 142.664 120.379 141.508 126.481 137.109
 128.696 c 131.719 130.891 126.641 133.969 122.367 138.074 c 123.504 134.442
 129.266 130.555 132.883 127.68 c 136.609 124.926 138.629 119.141 131.965
 121.828 c 127.965 122.145 120.215 122.446 126.566 117.797 c 129.207 114.992
 137 114.207 131.777 109.879 c 125.293 100.184 116.285 92.235 105.66 87.301
 c 99.832 85.035 93.758 82.699 87.59 81.621 c 79.621 79.383 70.629 80.332
 63.348 76.317 c 59.422 69.293 52.402 74.055 46.277 72.762 c 42.766 70.453
 33.801 74.66 33.719 72.598 c 38.48 66.145 45.793 72.328 51.797 71.25 c 
59.539 71.192 54.594 64.848 54.516 60.434 c 55.023 54.504 50.715 49.426 
45.195 48.047 c 40.895 45.692 34.387 48.098 31.879 42.629 c 26.578 36.731
 19.312 33.313 12.277 30.176 c 9.602 28.207 3.934 26.656 4.352 22.578 c 
5.508 22.496 6.68 22.668 7.781 23.039 c h
65.125 56.606 m 67.391 60.59 67.68 66.957 72.164 69 c 80.691 69 89.461 
70.512 97.227 73.696 c 102.125 75.172 106.117 80.481 111.559 78.242 c 114.914
 77.172 124.773 76.121 115.695 75.528 c 109.762 76.024 105.348 71.461 99.949
 69.887 c 91.59 66.871 82.184 65.637 73.094 65.52 c 68.957 64.988 67.891
 57.891 65.125 56.606 c h
123.582 83.547 m 117.992 89.211 128.859 93.785 131.48 98.406 c 133.281 
100.297 139.676 110.731 135.859 103.246 c 132.543 97.293 127.859 92.196 
124.234 86.488 c 123.043 85.098 127.133 81.629 123.582 83.547 c h
153.27 113.414 m 148.754 115.488 142.484 114.297 140.754 120.219 c 136.891
 125.574 141.594 121.235 143.762 118.856 c 148.312 119.43 150.836 114.649
 154.902 113.414 c 154.539 113.024 153.633 113.024 153.27 113.414 c h
135.176 115.86 m 132.508 116.11 123.938 121.395 131.586 119.785 c 135.121
 121.528 142.941 113.524 135.176 115.86 c h
f
Q Q
showpage
%%Trailer
end restore
%%EOF
