%!PS-Adobe-3.0 EPSF-3.0
%%Creator: cairo 1.12.2 (http://cairographics.org)
%%CreationDate: Mon Mar  2 20:38:41 2015
%%Pages: 1
%%DocumentData: Clean7Bit
%%LanguageLevel: 2
%%BoundingBox: 0 -1 190 187
%%EndComments
%%BeginProlog
save
50 dict begin
/q { gsave } bind def
/Q { grestore } bind def
/cm { 6 array astore concat } bind def
/w { setlinewidth } bind def
/J { setlinecap } bind def
/j { setlinejoin } bind def
/M { setmiterlimit } bind def
/d { setdash } bind def
/m { moveto } bind def
/l { lineto } bind def
/c { curveto } bind def
/h { closepath } bind def
/re { exch dup neg 3 1 roll 5 3 roll moveto 0 rlineto
      0 exch rlineto 0 rlineto closepath } bind def
/S { stroke } bind def
/f { fill } bind def
/f* { eofill } bind def
/n { newpath } bind def
/W { clip } bind def
/W* { eoclip } bind def
/BT { } bind def
/ET { } bind def
/pdfmark where { pop globaldict /?pdfmark /exec load put }
    { globaldict begin /?pdfmark /pop load def /pdfmark
    /cleartomark load def end } ifelse
/BDC { mark 3 1 roll /BDC pdfmark } bind def
/EMC { mark /EMC pdfmark } bind def
/cairo_store_point { /cairo_point_y exch def /cairo_point_x exch def } def
/Tj { show currentpoint cairo_store_point } bind def
/TJ {
  {
    dup
    type /stringtype eq
    { show } { -0.001 mul 0 cairo_font_matrix dtransform rmoveto } ifelse
  } forall
  currentpoint cairo_store_point
} bind def
/cairo_selectfont { cairo_font_matrix aload pop pop pop 0 0 6 array astore
    cairo_font exch selectfont cairo_point_x cairo_point_y moveto } bind def
/Tf { pop /cairo_font exch def /cairo_font_matrix where
      { pop cairo_selectfont } if } bind def
/Td { matrix translate cairo_font_matrix matrix concatmatrix dup
      /cairo_font_matrix exch def dup 4 get exch 5 get cairo_store_point
      /cairo_font where { pop cairo_selectfont } if } bind def
/Tm { 2 copy 8 2 roll 6 array astore /cairo_font_matrix exch def
      cairo_store_point /cairo_font where { pop cairo_selectfont } if } bind def
/g { setgray } bind def
/rg { setrgbcolor } bind def
/d1 { setcachedevice } bind def
%%EndProlog
%%Page: 1 1
%%BeginPageSetup
%%PageBoundingBox: 0 -1 190 187
%%EndPageSetup
q 0 -1 190 188 rectclip q
0.301961 g
103.18 186.523 m 103.926 185.953 104.312 185.086 104.809 184.324 c 107.539
 179.922 110.258 175.519 112.984 171.117 c 114.961 167.734 117.297 164.582
 119.508 161.351 c 126.453 151.519 132.793 141.281 139.469 131.262 c 141.629
 127.195 143.891 123.183 145.977 119.078 c 147.156 116.035 148.52 113.051
 149.434 109.918 c 150.262 106.187 151.746 102.594 152.012 98.754 c 152.516
 95.621 152.23 92.441 152.305 89.285 c 152.43 85.363 151.914 81.465 151.578
 77.566 c 151.02 75.234 150.543 72.879 149.895 70.566 c 149.203 68.504 148.297
 66.516 147.52 64.484 c 146.672 62.148 145.348 60.023 144.195 57.828 c 142.602
 54.652 140.352 51.879 138.383 48.941 c 136.816 47.402 135.496 45.637 133.867
 44.148 c 131.789 41.867 129.207 40.141 126.793 38.242 c 124.184 36.601 
121.52 35.039 118.871 33.469 c 116.703 32.5 114.477 31.676 112.27 30.797
 c 109.117 29.926 105.914 29.238 102.734 28.484 c 99.332 28.066 95.953 27.262
 92.516 27.262 c 93.297 28.121 93.953 29.086 94.801 29.883 c 96.336 31.211
 96.758 33.293 97.688 35.016 c 98.305 36.398 99.293 37.676 99.379 39.238
 c 99.617 41.801 100.266 44.332 100.133 46.922 c 100.035 49.394 100.465 
51.957 99.512 54.32 c 98.895 57.738 97.207 60.801 95.832 63.945 c 91.906
 70.535 87.734 76.973 83.668 83.473 c 81.395 87.539 79.066 91.578 76.871
 95.683 c 75.746 98.512 74.668 101.363 73.621 104.219 c 71.836 111.211 70.258
 118.355 70.445 125.613 c 70.801 129.324 71.254 133.023 71.707 136.723 c
 72.391 141.043 73.145 145.351 73.844 149.668 c 73.918 150.215 74.105 150.738
 74.34 151.238 c 74.645 146.808 75.211 142.387 76.305 138.078 c 77.445 134.445
 78.887 130.91 80.289 127.367 c 81.539 124.871 82.496 122.215 84.043 119.875
 c 86.965 115.82 89.66 111.582 92.898 107.766 c 93.93 106.773 94.789 105.625
 95.789 104.601 c 98.871 100.922 102.652 97.883 105.727 94.195 c 106.836
 93.113 107.957 92.027 108.828 90.734 c 110.203 88.543 111.68 86.422 113.102
 84.262 c 114.934 81.035 116.574 77.711 118.207 74.383 c 119.395 71.863 
120.18 69.105 121.852 66.844 c 122.09 69.504 121.441 72.117 121.191 74.75
 c 120.703 78.988 119.266 83.019 117.859 87.023 c 117.25 88.676 116.355 
90.195 115.609 91.785 c 113.922 95.66 111.883 99.371 109.934 103.117 c 108.543
 106.422 106.715 109.519 105.32 112.82 c 103.73 115.844 102.418 118.988 
100.844 122.019 c 99.09 126.101 97.141 130.109 95.594 134.281 c 94.77 136.742
 93.695 139.125 92.992 141.625 c 92.355 144.859 91.57 148.062 90.973 151.305
 c 90.156 157.5 89.074 163.715 89.418 169.992 c 89.914 169.039 90.176 167.996
 90.418 166.957 c 90.883 164.945 91.641 163.019 92.27 161.058 c 92.75 159.676
 93.004 158.215 93.68 156.906 c 95.234 153.879 96.656 150.789 98.34 147.832
 c 98.977 146.25 100.16 145.004 101.098 143.601 c 103.52 140.316 105.68 
136.851 107.98 133.488 c 112.18 127.808 116.816 122.453 120.762 116.594 
c 122.984 113.558 124.934 110.336 126.965 107.172 c 128.164 105.144 129.68
 103.285 130.516 101.058 c 131.762 98.418 133.223 95.875 134.297 93.156 
c 135.676 89.703 137.156 86.277 138.133 82.683 c 138.59 81.058 139.043 79.43
 139.57 77.824 c 139.652 79.996 140.512 82.07 140.387 84.258 c 140.324 87.922
 140.523 91.601 140.18 95.262 c 139.434 101.473 136.887 107.262 134.434 
112.961 c 132.684 117.293 130.242 121.305 128.406 125.598 c 124.828 132.66
 121.742 139.953 118.172 147.019 c 116.449 150.101 114.879 153.262 113.152
 156.344 c 112.203 158.258 111.477 160.269 110.613 162.223 c 109.496 165.062
 108.145 167.816 107.293 170.758 c 106.223 174.551 104.727 178.223 103.98
 182.101 c 103.695 183.574 103.133 185.004 103.18 186.523 c h
f
142.945 139.125 m 147.191 137.555 151.676 136.457 155.539 134.012 c 159.641
 131.414 162.613 127.308 164.348 122.82 c 165.191 120.851 165.527 118.695
 166.57 116.808 c 160.434 120.82 154.906 125.785 150.359 131.543 c 149.512
 132.582 148.848 133.769 147.84 134.672 c 146.203 136.148 144.562 137.625
 142.945 139.125 c h
f
30.156 131.516 m 34.355 134.93 39.625 136.531 44.656 138.285 c 40.004 134.601
 36.504 129.762 32.844 125.148 c 29.602 121.457 25.316 118.926 21.543 115.836
 c 23.285 119.109 23.605 122.957 25.551 126.133 c 26.867 128.098 28.277 
130.047 30.156 131.516 c h
f
161.215 131.207 m 165.227 130.387 168.75 127.914 171.301 124.762 c 173.133
 122.5 174.496 119.805 174.926 116.898 c 175.84 111.074 174.059 105.137 
175.367 99.336 c 172.641 104.058 167.938 107.055 163.602 110.129 c 160.797
 112.16 157.863 114.176 155.84 117.043 c 153.977 119.648 152.957 122.746
 152.324 125.859 c 153.234 124.258 154.336 122.75 155.75 121.555 c 159.02
 118.723 163.039 116.945 166.426 114.277 c 167.672 113.308 168.738 112.133
 169.836 111.008 c 170.996 109.808 171.441 108.113 172.566 106.894 c 172.242
 107.91 171.719 108.844 171.324 109.832 c 169.754 113.637 168.852 117.668
 167.688 121.605 c 167.156 123.394 166.672 125.238 165.621 126.805 c 164.512
 128.59 162.938 130.027 161.215 131.207 c h
f
17.805 124.859 m 20.125 127.418 23.176 129.332 26.547 130.117 c 24.625 
128.84 22.977 127.125 21.953 125.039 c 19.977 121.098 19.695 116.601 18.27
 112.469 c 17.562 110.195 16.391 108.082 15.891 105.746 c 17.363 108.488
 19.172 111.098 21.598 113.098 c 24.992 115.875 29.059 117.726 32.309 120.695
 c 33.668 121.941 34.793 123.441 35.516 125.144 c 35.613 125.094 35.809 
124.996 35.906 124.949 c 35.445 124.812 l 35.43 120.832 33.266 117.211 30.695
 114.308 c 27.949 111.23 24.602 108.769 21.156 106.535 c 18.18 104.273 15.312
 101.707 13.453 98.422 c 13.273 100.59 13.789 102.754 13.566 104.922 c 13.113
 109.336 12.703 113.891 13.895 118.23 c 14.566 120.742 15.93 123.055 17.805
 124.859 c h
f
175.68 120.383 m 176.887 119.644 177.652 118.426 178.504 117.332 c 184.293
 110.379 185.871 100.207 182.566 91.805 c 181.316 89.051 180.105 86.262 
179.344 83.324 c 178.902 81.859 178.703 80.34 178.277 78.871 c 177.391 84.066
 174.113 88.355 170.785 92.262 c 168.086 95.519 165.18 98.703 163.367 102.57
 c 162.23 105.07 161.305 107.672 160.754 110.367 c 164.145 105.172 170.078
 102.523 174.02 97.851 c 175.254 96.41 176.086 94.68 176.766 92.922 c 177.328
 91.375 177.27 89.648 178.023 88.168 c 178.105 89.203 177.883 90.223 177.777
 91.246 c 177.125 97.348 177.469 103.512 178.348 109.566 c 178.523 113.312
 177.918 117.277 175.68 120.383 c h
f
10.074 116.598 m 10.82 117.539 11.52 118.543 12.453 119.308 c 11.398 117.558
 10.453 115.699 10.18 113.648 c 9.156 107.035 11.961 100.531 11.219 93.906
 c 11.066 91.648 10.738 89.398 10.746 87.133 c 11.398 87.84 11.305 88.875
 11.531 89.754 c 11.988 92.613 13.469 95.195 15.32 97.379 c 17.84 100.312
 20.891 102.715 23.883 105.144 c 25.316 106.305 26.52 107.75 27.387 109.379
 c 26.93 106.023 25.75 102.793 24.219 99.785 c 21.031 94.344 16.367 89.937
 13.227 84.465 c 12.02 82.398 11.156 80.141 10.68 77.797 c 9.996 85.035 
4.914 91.016 4.375 98.285 c 4.293 101.016 4.27 103.797 4.949 106.465 c 5.844
 110.183 7.746 113.586 10.074 116.598 c h
f
41.262 111.793 m 41.746 113.098 42.168 114.422 42.746 115.683 c 42.953 
113.832 42.422 112.027 42.133 110.215 c 41.199 104.898 41.02 99.355 42.32
 94.082 c 43.242 90.984 44.352 87.945 45.562 84.949 c 46.199 82.648 47.883
 80.894 49.016 78.844 c 50.09 76.887 51.785 75.422 53.191 73.719 c 55.148
 71.516 57.645 69.937 59.957 68.148 c 62.387 66.176 65.383 65.129 68.086
 63.601 c 69.574 62.695 71.242 62.133 72.836 61.43 c 73.812 61.375 73.504
 62.523 73.145 63.035 c 70.652 67.031 68.551 71.258 66.078 75.266 c 65.617
 76.031 65.133 76.785 64.797 77.621 c 63.531 81.199 62.344 84.816 61.527
 88.531 c 60.805 94.629 61.113 100.781 61.051 106.906 c 61.102 108.187 60.898
 109.488 61.211 110.742 c 61.93 107.398 61.871 103.918 62.727 100.586 c 
64.133 94.109 66.383 87.812 69.473 81.949 c 71.906 78.226 74.43 74.551 77.301
 71.148 c 79.746 68.707 82.184 66.254 84.637 63.816 c 86.859 62.152 88.445
 59.851 90.312 57.832 c 92.477 53.437 93.531 48.476 93.297 43.574 c 92.836
 41.449 92.438 39.273 91.277 37.391 c 90.816 36.082 89.793 35.152 88.836
 34.199 c 87.586 32.379 85.527 31.414 83.969 29.898 c 83.469 30.808 83.477
 31.898 82.98 32.808 c 82.402 34.051 81.418 35.027 80.48 35.996 c 77.793
 37.465 75.102 38.945 72.281 40.148 c 67.473 42.93 62.477 45.449 58.109 
48.922 c 55.926 50.738 53.547 52.34 51.641 54.465 c 50.641 55.617 49.246
 56.359 48.352 57.609 c 46.613 59.851 44.648 61.922 43.156 64.344 c 42.086
 66.168 40.699 67.824 39.969 69.828 c 38.75 72.711 37.094 75.488 36.68 78.633
 c 35.801 82.445 36.047 86.383 36.008 90.262 c 35.816 93.457 36.977 96.5
 37.477 99.617 c 38.188 103.832 39.984 107.738 41.262 111.793 c h
f
186.195 98.441 m 190.57 89.582 189.363 78.625 184.426 70.254 c 180.918 
65.652 176.734 61.598 173.359 56.891 c 173.68 60.433 174.117 64.133 172.934
 67.57 c 170.254 74.695 167.887 82.008 166.953 89.59 c 166.688 91.172 166.777
 92.769 166.875 94.355 c 168.555 87.965 173.895 83.465 176.309 77.418 c 
177.348 74.937 177.52 72.207 177.352 69.551 c 177.207 67.926 176.582 66.402
 176.348 64.797 c 176.68 65.101 176.996 65.441 177.062 65.906 c 178.133 
69.707 178.812 73.629 180.297 77.305 c 182.246 81.808 184.914 86.058 186.004
 90.898 c 186.59 93.367 186.613 95.945 186.195 98.441 c h
f
2.559 97.285 m 2.078 94.73 2.113 92.082 2.801 89.57 c 4.32 83.793 8.102
 78.945 9.809 73.238 c 10.727 70.406 11.004 67.398 12.117 64.625 c 12.258
 64.258 12.484 63.945 12.789 63.691 c 12.148 65.93 11.492 68.215 11.672 
70.574 c 11.965 76.59 15.293 81.875 18.715 86.621 c 20.227 88.601 21.07 
90.973 21.805 93.328 c 22.273 89.246 21.266 85.207 20.637 81.203 c 19.418
 75.758 17.43 70.527 15.816 65.195 c 14.961 62.133 15.363 58.937 15.738 
55.84 c 14.719 56.867 14.074 58.187 13.113 59.262 c 9.598 63.637 4.977 67.262
 2.672 72.504 c 0.656 77.906 -0.523 83.781 0.285 89.547 c 0.816 92.18 1.395
 94.848 2.559 97.285 c h
f
168.32 74.98 m 167.512 67.941 171.363 61.273 170.363 54.242 c 169.93 50.805
 168.328 47.676 166.445 44.824 c 167.195 45.187 167.633 45.922 168.145 46.543
 c 170.797 49.879 173.227 53.43 176.336 56.375 c 180.137 59.785 184.199 
63.109 186.797 67.582 c 187.898 69.422 188.535 71.484 188.902 73.582 c 189.586
 69.086 188.969 64.41 187.059 60.281 c 184.238 54.078 179.141 49.18 173.469
 45.543 c 168.754 42.715 163.934 40.058 159.352 37.016 c 160.16 38.652 161.184
 40.187 161.758 41.93 c 165.102 50.914 163.551 60.812 166.363 69.918 c 166.883
 71.656 167.68 73.285 168.32 74.98 c h
f
20.785 69.926 m 20.91 71.176 20.797 72.437 20.824 73.691 c 25.305 64.297
 24.168 53.586 26.488 43.664 c 27.043 40.969 28.723 38.726 29.836 36.262
 c 22.484 40.73 14.535 44.437 8.195 50.363 c 3.953 54.301 0.84 59.629 0.184
 65.433 c -0.059 67.715 -0.078 70.035 0.227 72.312 c 0.359 69.613 1.562 
67.098 3.121 64.933 c 7.465 59 14.07 55.168 18.293 49.121 c 19.656 47.344
 20.863 45.379 22.656 43.976 c 22.32 44.676 21.887 45.316 21.453 45.949 
c 19.184 49.488 18.246 53.793 18.59 57.965 c 18.867 62.031 20.422 65.875
 20.785 69.926 c h
f
157.52 52.152 m 159.02 54.066 160.465 56.035 162.188 57.746 c 159.047 51.738
 159.68 44.672 157.309 38.422 c 155.637 34.098 152.32 30.691 148.848 27.738
 c 150.871 28.285 152.234 29.961 153.918 31.086 c 159.535 35.082 166.195
 37.148 172.219 40.414 c 176.637 42.734 180.676 46.125 182.934 50.652 c 
182.113 45.461 179.133 40.875 175.52 37.172 c 171.043 32.644 165.504 29.156
 159.453 27.176 c 153.398 25.469 147.027 25.183 141 23.332 c 144.801 26.281
 147.426 30.465 149.168 34.894 c 151.555 40.812 153.223 47.242 157.52 52.152
 c h
f
26.781 56.851 m 30.305 53.004 33.734 48.965 36.059 44.254 c 38.473 38.965
 39.84 33.156 43.156 28.305 c 44.566 26.195 46.383 24.394 48.387 22.851 
c 40.84 25.035 32.676 24.703 25.406 27.914 c 18.926 31.094 12.977 35.738
 9.141 41.937 c 7.73 44.23 6.68 46.754 6.156 49.398 c 7.598 46.719 9.562
 44.308 12.016 42.496 c 18.957 37.223 27.895 35.57 34.926 30.433 c 36.68
 29.101 38.52 27.832 40.59 27.035 c 38.848 28.644 36.895 30.039 35.371 31.875
 c 33.984 33.582 32.715 35.414 31.926 37.476 c 29.465 43.734 30.02 50.851
 26.781 56.851 c h
f
131.344 25.367 m 137.09 30.297 142.496 35.738 149.031 39.641 c 145.523 
35.465 144.16 29.922 140.492 25.859 c 138.754 23.898 136.449 22.551 134.055
 21.551 c 132.316 20.875 130.457 20.59 128.742 19.859 c 130.66 19.848 132.555
 20.234 134.438 20.582 c 141.945 21.988 149.676 21.578 157.152 23.187 c 
161.508 24.105 165.715 26.082 168.812 29.332 c 166.25 24.453 161.703 20.933
 156.875 18.465 c 151.73 15.832 145.863 14.699 140.109 15.195 c 132.18 15.758
 124.59 18.375 116.707 19.262 c 121.883 20.375 127.246 21.832 131.344 25.367
 c h
f
40.152 38.961 m 46.344 35.25 51.633 30.289 57.113 25.641 c 61.469 21.785
 67.195 20.031 72.809 18.988 c 71.418 18.629 69.969 18.633 68.562 18.375
 c 61.246 16.785 53.961 14.582 46.41 14.586 c 40.406 14.527 34.414 16.281
 29.359 19.508 c 25.82 21.754 22.648 24.691 20.504 28.316 c 23.059 25.887
 26.184 24.086 29.582 23.133 c 37.777 20.719 46.453 21.648 54.801 20.176
 c 56.797 19.91 58.77 19.246 60.809 19.445 c 59.676 19.98 58.43 20.164 57.219
 20.445 c 54.375 21.238 51.621 22.582 49.543 24.715 c 45.477 28.805 43.754
 34.527 40.152 38.961 c h
f
64.422 14.262 m 70.094 16.488 75.93 18.598 82.051 19.094 c 85.453 19.414
 88.883 19.109 92.227 18.457 c 93.27 18.219 94.297 17.707 95.398 17.816 
c 97.703 18.844 100.254 19.027 102.738 19.223 c 109.711 19.629 116.762 18.254
 123.094 15.32 c 127.258 13.918 131.305 11.976 135.711 11.445 c 141.73 10.672
 148.078 11.59 153.371 14.664 c 149.141 10.09 143.242 7.199 137.125 6.203
 c 128.746 4.965 120.289 7.914 113.371 12.523 c 110.59 14.148 107.98 16.355
 104.703 16.851 c 102.73 17.016 100.727 16.969 98.781 16.562 c 106.488 13.312
 113.656 8.828 119.973 3.348 c 118.789 2.191 117.457 1.203 116.129 0.223
 c 109.945 6.148 103.305 11.871 95.406 15.375 c 93.879 15.469 92.465 14.508
 91.094 13.891 c 84.602 10.254 78.52 5.715 73.711 -0 c 72.367 0.996 71.027
 1.992 69.68 2.988 c 74.93 7.73 80.801 11.793 87.172 14.875 c 88.379 15.512
 89.68 15.953 90.863 16.637 c 87.152 17.762 83.203 16.637 79.996 14.672 
c 75.293 11.793 70.742 8.473 65.406 6.863 c 59.527 5.019 53.008 4.832 47.211
 7.07 c 43.18 8.555 39.18 10.621 36.344 13.922 c 42.191 10.613 49.277 9.988
 55.793 11.289 c 58.805 11.848 61.574 13.191 64.422 14.262 c h
f
Q Q
showpage
%%Trailer
end restore
%%EOF
