%!PS-Adobe-3.0 EPSF-3.0
%%Creator: cairo 1.12.2 (http://cairographics.org)
%%CreationDate: Mon Mar  2 20:30:47 2015
%%Pages: 1
%%DocumentData: Clean7Bit
%%LanguageLevel: 2
%%BoundingBox: 0 -1 152 137
%%EndComments
%%BeginProlog
save
50 dict begin
/q { gsave } bind def
/Q { grestore } bind def
/cm { 6 array astore concat } bind def
/w { setlinewidth } bind def
/J { setlinecap } bind def
/j { setlinejoin } bind def
/M { setmiterlimit } bind def
/d { setdash } bind def
/m { moveto } bind def
/l { lineto } bind def
/c { curveto } bind def
/h { closepath } bind def
/re { exch dup neg 3 1 roll 5 3 roll moveto 0 rlineto
      0 exch rlineto 0 rlineto closepath } bind def
/S { stroke } bind def
/f { fill } bind def
/f* { eofill } bind def
/n { newpath } bind def
/W { clip } bind def
/W* { eoclip } bind def
/BT { } bind def
/ET { } bind def
/pdfmark where { pop globaldict /?pdfmark /exec load put }
    { globaldict begin /?pdfmark /pop load def /pdfmark
    /cleartomark load def end } ifelse
/BDC { mark 3 1 roll /BDC pdfmark } bind def
/EMC { mark /EMC pdfmark } bind def
/cairo_store_point { /cairo_point_y exch def /cairo_point_x exch def } def
/Tj { show currentpoint cairo_store_point } bind def
/TJ {
  {
    dup
    type /stringtype eq
    { show } { -0.001 mul 0 cairo_font_matrix dtransform rmoveto } ifelse
  } forall
  currentpoint cairo_store_point
} bind def
/cairo_selectfont { cairo_font_matrix aload pop pop pop 0 0 6 array astore
    cairo_font exch selectfont cairo_point_x cairo_point_y moveto } bind def
/Tf { pop /cairo_font exch def /cairo_font_matrix where
      { pop cairo_selectfont } if } bind def
/Td { matrix translate cairo_font_matrix matrix concatmatrix dup
      /cairo_font_matrix exch def dup 4 get exch 5 get cairo_store_point
      /cairo_font where { pop cairo_selectfont } if } bind def
/Tm { 2 copy 8 2 roll 6 array astore /cairo_font_matrix exch def
      cairo_store_point /cairo_font where { pop cairo_selectfont } if } bind def
/g { setgray } bind def
/rg { setrgbcolor } bind def
/d1 { setcachedevice } bind def
%%EndProlog
%%Page: 1 1
%%BeginPageSetup
%%PageBoundingBox: 0 -1 152 137
%%EndPageSetup
q 0 -1 152 138 rectclip q
0.129412 0.172549 0.207843 rg
80.723 24.441 m 79.539 24.132 77.48 22.191 79.047 21.074 c 79.891 20.472
 81.234 20.593 82.199 20.297 c 84.535 19.578 86.395 18.086 88.992 18.902
 c 90.625 19.414 93.457 22.851 90.727 23.972 c 89.484 24.484 88.18 22.746
 86.926 22.64 c 84.652 22.449 83.105 25.066 80.723 24.441 c h
5.355 33.629 m -7.945 67.429 4.785 105.906 35.625 125.101 c 66.461 144.297
 106.609 138.73 131.062 111.871 c 155.516 85.011 158.137 45.554 135.266 
15.613 c 132.281 16.968 126.039 16.254 121.625 16.359 c 119.258 16.379 116.402
 16.84 115.758 16.078 c 114.359 14.531 116.023 13.851 114.199 12.164 c 112.832
 10.925 110.688 10.761 107.387 8.691 c 102.895 5.906 96.961 -1.914 94.324
 0.613 c 92.914 2.007 96.137 4.871 99.008 8.343 c 101.891 11.785 105.172
 15.937 106.055 18.718 c 107.141 22.23 106.902 24.48 107.402 26.007 c 108.551
 29.804 109.578 33.402 107.672 33.672 c 106.359 33.851 104.656 32.953 102.484
 33.105 c 100.219 33.265 98.887 33.672 95.863 33.621 c 93.48 33.578 91.031
 33.129 88.875 33.179 c 84.883 33.34 83.895 34.101 80.711 34.105 c 77.355
 34.109 70.426 32.078 65 34.484 c 60.637 36.429 57.707 43.164 53.688 44.953
 c 51.828 45.773 50.621 44.101 48.664 44.73 c 46.207 45.531 45.445 50.015
 40.414 53.054 c 37.105 55.039 33.738 53.281 32.816 52.273 c 29.656 48.773
 32.312 43.683 35.391 39.586 c 37.738 36.418 40.215 36.351 40.465 34.211
 c 40.641 32.687 38.309 31.16 36.445 31.668 c 31.598 33.015 29.129 38.691
 25.793 39.882 c 24.473 40.363 22.398 39.922 20.812 39.961 c 17.59 39.98
 11.16 39.929 7.469 39.988 c 8.117 35.394 7.484 34.593 5.355 33.629 c h
f
0 g
0.236212 w
0 J
0 j
[] 0.0 d
4 M q 1 0 0 -1 0 136.589508 cm
80.723 112.148 m 79.539 112.457 77.48 114.398 79.047 115.516 c 79.891 116.117
 81.234 115.996 82.199 116.293 c 84.535 117.012 86.395 118.504 88.992 117.688
 c 90.625 117.176 93.457 113.738 90.727 112.617 c 89.484 112.105 88.18 113.844
 86.926 113.949 c 84.652 114.141 83.105 111.523 80.723 112.148 c h
5.355 102.961 m -7.945 69.16 4.785 30.684 35.625 11.488 c 66.461 -7.707
 106.609 -2.141 131.062 24.719 c 155.516 51.578 158.137 91.035 135.266 120.977
 c 132.281 119.621 126.039 120.336 121.625 120.23 c 119.258 120.211 116.402
 119.75 115.758 120.512 c 114.359 122.059 116.023 122.738 114.199 124.426
 c 112.832 125.664 110.688 125.828 107.387 127.898 c 102.895 130.684 96.961
 138.504 94.324 135.977 c 92.914 134.582 96.137 131.719 99.008 128.246 c
 101.891 124.805 105.172 120.652 106.055 117.871 c 107.141 114.359 106.902
 112.109 107.402 110.582 c 108.551 106.785 109.578 103.188 107.672 102.918
 c 106.359 102.738 104.656 103.637 102.484 103.484 c 100.219 103.324 98.887
 102.918 95.863 102.969 c 93.48 103.012 91.031 103.461 88.875 103.41 c 84.883
 103.25 83.895 102.488 80.711 102.484 c 77.355 102.48 70.426 104.512 65 
102.105 c 60.637 100.16 57.707 93.426 53.688 91.637 c 51.828 90.816 50.621
 92.488 48.664 91.859 c 46.207 91.059 45.445 86.574 40.414 83.535 c 37.105
 81.551 33.738 83.309 32.816 84.316 c 29.656 87.816 32.312 92.906 35.391
 97.004 c 37.738 100.172 40.215 100.238 40.465 102.379 c 40.641 103.902 
38.309 105.43 36.445 104.922 c 31.598 103.574 29.129 97.898 25.793 96.707
 c 24.473 96.227 22.398 96.668 20.812 96.629 c 17.59 96.609 11.16 96.66 
7.469 96.602 c 8.117 101.195 7.484 101.996 5.355 102.961 c h
S Q
1 g
125.32 117.64 m h
41.445 91.949 m 35.02 91.949 26.949 92.933 21.07 89.785 c 18.715 88.527
 15.969 86.41 15.32 83.679 c 14.395 79.793 16.805 76.617 19.273 73.933 c
 23.906 68.89 28.852 64.328 34.359 60.238 c 53.383 46.113 76.734 38.968 
100.215 37.933 c 111.402 37.445 125.844 41.992 133.156 50.898 c 136.91 55.472
 139.535 63.992 136.383 69.504 c 133.727 74.152 124.039 79.058 118.82 79.84
 c 117.859 76.886 116.59 74.074 113.801 72.457 c 113.199 76.289 115.445 
80.789 115.266 84.859 c 114.938 92.304 110.676 99.91 107.953 106.715 c 106.547
 110.226 105.383 114.058 102.574 116.73 c 94.98 123.953 85.75 120.09 76.887
 119.441 c 70.242 118.953 63.723 122.097 57.098 121.054 c 46.742 119.425
 44.996 105.613 43.688 96.968 c 42.746 90.742 48.754 87.922 53.555 86.097
 c 58.773 84.117 64.16 82.543 69.5 80.937 c 72.32 80.093 75.73 79.304 77.656
 76.882 c 78.957 75.242 78.633 73.191 79.109 71.277 c 79.453 69.89 82.348
 67.699 81.816 66.382 c 81.379 65.3 78.957 65.625 78.066 65.715 c 74.461
 66.074 70.836 67.539 67.434 68.718 c 60.789 71.027 54.328 74.05 48.238 
77.562 c 45.707 79.023 42.492 80.605 41.207 83.382 c 39.918 86.172 40.801
 89.136 41.445 91.949 c 84.562 116.461 m 84.562 116.164 l 86.051 115.808
 91.387 115.672 91.086 113.207 c 90.945 112.07 89.363 111.129 88.699 110.257
 c 91.016 109.574 100.266 109.953 97.598 114.39 c 95.348 118.136 88.113 
117.316 84.562 116.461 c h
53.031 107.578 m 51.945 107.019 51.809 105.414 51.785 104.351 c 51.719 
101.156 53.852 98.797 56.805 97.672 c 58.426 97.054 59.75 98.433 61.234 
98.929 c 64.82 100.132 70.848 99.101 73.859 101.441 c 76.125 103.207 72.055
 103.945 70.98 104.183 c 66.816 105.101 62.531 103.285 58.574 104.679 c 
57.043 105.218 54.707 108.433 53.031 107.578 c h
f*
0 g
q 1 0 0 -1 0 136.589508 cm
125.32 18.949 m 41.445 44.641 m 35.02 44.641 26.949 43.656 21.07 46.805
 c 18.715 48.062 15.969 50.18 15.32 52.91 c 14.395 56.797 16.805 59.973 
19.273 62.656 c 23.906 67.699 28.852 72.262 34.359 76.352 c 53.383 90.477
 76.734 97.621 100.215 98.656 c 111.402 99.145 125.844 94.598 133.156 85.691
 c 136.91 81.117 139.535 72.598 136.383 67.086 c 133.727 62.438 124.039 
57.531 118.82 56.75 c 117.859 59.703 116.59 62.516 113.801 64.133 c 113.199
 60.301 115.445 55.801 115.266 51.73 c 114.938 44.285 110.676 36.68 107.953
 29.875 c 106.547 26.363 105.383 22.531 102.574 19.859 c 94.98 12.637 85.75
 16.5 76.887 17.148 c 70.242 17.637 63.723 14.492 57.098 15.535 c 46.742
 17.164 44.996 30.977 43.688 39.621 c 42.746 45.848 48.754 48.668 53.555
 50.492 c 58.773 52.473 64.16 54.047 69.5 55.652 c 72.32 56.496 75.73 57.285
 77.656 59.707 c 78.957 61.348 78.633 63.398 79.109 65.312 c 79.453 66.699
 82.348 68.891 81.816 70.207 c 81.379 71.289 78.957 70.965 78.066 70.875
 c 74.461 70.516 70.836 69.051 67.434 67.871 c 60.789 65.562 54.328 62.539
 48.238 59.027 c 45.707 57.566 42.492 55.984 41.207 53.207 c 39.918 50.418
 40.801 47.453 41.445 44.641 c 84.562 20.129 m 84.562 20.426 l 86.051 20.781
 91.387 20.918 91.086 23.383 c 90.945 24.52 89.363 25.461 88.699 26.332 
c 91.016 27.016 100.266 26.637 97.598 22.199 c 95.348 18.453 88.113 19.273
 84.562 20.129 c h
53.031 29.012 m 51.945 29.57 51.809 31.176 51.785 32.238 c 51.719 35.434
 53.852 37.793 56.805 38.918 c 58.426 39.535 59.75 38.156 61.234 37.66 c
 64.82 36.457 70.848 37.488 73.859 35.148 c 76.125 33.383 72.055 32.645 
70.98 32.406 c 66.816 31.488 62.531 33.305 58.574 31.91 c 57.043 31.371 
54.707 28.156 53.031 29.012 c h
S Q
Q Q
showpage
%%Trailer
end restore
%%EOF
