%!PS-Adobe-3.0 EPSF-3.0
%%Creator: cairo 1.12.2 (http://cairographics.org)
%%CreationDate: Sun Mar  1 22:10:01 2015
%%Pages: 1
%%DocumentData: Clean7Bit
%%LanguageLevel: 2
%%BoundingBox: 0 -1 288 319
%%EndComments
%%BeginProlog
save
50 dict begin
/q { gsave } bind def
/Q { grestore } bind def
/cm { 6 array astore concat } bind def
/w { setlinewidth } bind def
/J { setlinecap } bind def
/j { setlinejoin } bind def
/M { setmiterlimit } bind def
/d { setdash } bind def
/m { moveto } bind def
/l { lineto } bind def
/c { curveto } bind def
/h { closepath } bind def
/re { exch dup neg 3 1 roll 5 3 roll moveto 0 rlineto
      0 exch rlineto 0 rlineto closepath } bind def
/S { stroke } bind def
/f { fill } bind def
/f* { eofill } bind def
/n { newpath } bind def
/W { clip } bind def
/W* { eoclip } bind def
/BT { } bind def
/ET { } bind def
/pdfmark where { pop globaldict /?pdfmark /exec load put }
    { globaldict begin /?pdfmark /pop load def /pdfmark
    /cleartomark load def end } ifelse
/BDC { mark 3 1 roll /BDC pdfmark } bind def
/EMC { mark /EMC pdfmark } bind def
/cairo_store_point { /cairo_point_y exch def /cairo_point_x exch def } def
/Tj { show currentpoint cairo_store_point } bind def
/TJ {
  {
    dup
    type /stringtype eq
    { show } { -0.001 mul 0 cairo_font_matrix dtransform rmoveto } ifelse
  } forall
  currentpoint cairo_store_point
} bind def
/cairo_selectfont { cairo_font_matrix aload pop pop pop 0 0 6 array astore
    cairo_font exch selectfont cairo_point_x cairo_point_y moveto } bind def
/Tf { pop /cairo_font exch def /cairo_font_matrix where
      { pop cairo_selectfont } if } bind def
/Td { matrix translate cairo_font_matrix matrix concatmatrix dup
      /cairo_font_matrix exch def dup 4 get exch 5 get cairo_store_point
      /cairo_font where { pop cairo_selectfont } if } bind def
/Tm { 2 copy 8 2 roll 6 array astore /cairo_font_matrix exch def
      cairo_store_point /cairo_font where { pop cairo_selectfont } if } bind def
/g { setgray } bind def
/rg { setrgbcolor } bind def
/d1 { setcachedevice } bind def
%%EndProlog
%%Page: 1 1
%%BeginPageSetup
%%PageBoundingBox: 0 -1 288 319
%%EndPageSetup
q 0 -1 288 320 rectclip q
1 g
0 159.201 m 0 318.4 l 288 318.4 l 288 0.002 l 0 0.002 l h
128.348 8.556 m 128.602 9.209 128.602 10.072 128.355 10.47 c 128.109 10.873
 128.398 11.201 129.004 11.201 c 130.277 11.201 133.938 14.955 134.656 17.002
 c 135.449 19.248 137.309 18.623 139.156 15.494 c 140.871 12.587 l 142.672
 14.283 l 143.922 15.455 145.652 16.021 148.309 16.119 c 151.551 16.244 
152.254 16.56 152.871 18.185 c 153.27 19.24 153.605 20.892 153.617 21.853
 c 153.641 24.494 160.625 27.529 166.773 27.568 c 171.043 27.595 171.652
 27.81 172.543 29.587 c 173.98 32.47 175.898 33.599 179.352 33.599 c 181.793
 33.599 182.398 33.896 182.398 35.091 c 182.398 35.912 183.121 37.498 184
 38.619 c 184.879 39.736 185.602 40.92 185.602 41.248 c 185.602 41.58 184.16
 43.08 182.398 44.587 c 179.348 47.201 178.223 49.599 180.055 49.599 c 181.602
 49.599 188.832 56.244 189.293 58.087 c 189.574 59.212 190.168 59.732 190.867
 59.462 c 191.613 59.177 192.484 60.193 193.484 62.529 c 195.207 66.548 
196.41 67.736 199.164 68.123 c 200.359 68.291 202.199 69.806 203.859 71.986
 c 206.695 75.709 210.32 78.4 212.504 78.4 c 213.199 78.4 215.082 79.431
 216.684 80.693 c 218.289 81.955 221.039 83.732 222.801 84.646 c 224.559
 85.556 227.695 87.494 229.77 88.951 c 231.844 90.408 235.566 93.005 238.043
 94.728 c 240.52 96.447 242.758 98.427 243.016 99.127 c 243.273 99.826 245.398
 102.599 247.742 105.291 c 250.082 107.978 252 110.748 252 111.443 c 252
 112.138 252.328 112.908 252.73 113.158 c 253.605 113.697 256.941 122.486
 258.805 129.158 c 259.539 131.775 261.145 135.916 262.375 138.357 c 263.605
 140.802 266.125 147.298 267.977 152.798 c 269.828 158.298 271.984 164.232
 272.773 165.978 c 274 168.705 274.055 169.505 273.18 171.58 c 271.574 175.369
 270.582 179.802 269.594 187.599 c 269.094 191.56 268.301 196.24 267.836
 198.002 c 267.371 199.759 266.949 202.521 266.895 204.13 c 266.832 206.064
 265.93 208.248 264.25 210.533 c 262.848 212.439 260.094 216.173 258.129
 218.826 c 256.164 221.482 254.133 225.224 253.613 227.146 c 251.152 236.287
 246.27 243.259 233.465 255.92 c 230.25 259.095 228.672 261.388 228.039 
263.791 c 227.367 266.33 226.656 267.306 225.215 267.67 c 222.68 268.306
 220.801 271.279 220.801 274.658 c 220.801 279.193 216.375 286.693 212.105
 289.404 c 206.512 292.955 206.625 292.908 201.781 293.564 c 198.199 294.052
 196.285 293.849 192.586 292.603 c 188.477 291.212 187.758 291.166 186.559
 292.193 c 184.633 293.845 182.418 294.513 180.688 293.962 c 179.461 293.576
 179.355 293.205 180.078 291.853 c 180.754 290.591 180.691 289.947 179.809
 289.068 c 178.812 288.072 178.105 288.287 174.445 290.697 c 172.086 292.252
 169.031 295.252 167.504 297.521 c 165.055 301.162 161.449 304.002 159.277
 304.002 c 158.84 304.002 159.809 301.509 161.438 298.47 c 163.066 295.427
 164.168 292.709 163.887 292.423 c 163.605 292.142 161.09 292.502 158.297
 293.228 c 153.496 294.47 153.168 294.466 152.406 293.142 c 150.504 289.837
 149.008 289.013 144.707 288.904 c 133.906 288.634 132.098 294.064 141.504
 298.502 c 143.539 299.462 145.836 300.791 146.613 301.459 c 147.391 302.127
 150.047 302.947 152.52 303.283 c 157.723 303.986 159.137 304.951 157.629
 306.767 c 156.086 308.623 149.09 308.377 145.188 306.326 c 143.434 305.404
 139.738 302.341 136.973 299.525 c 132.055 294.509 130.238 293.521 129.156
 295.267 c 128.324 296.615 131.332 301.505 133.156 301.767 c 135.082 302.045
 135.926 304.798 134.086 304.798 c 133.41 304.798 132.496 304.127 132.055
 303.306 c 131.617 302.482 130.176 301.595 128.852 301.33 c 125.664 300.693
 123.203 298.115 123.191 295.4 c 123.176 292.021 118.336 290.029 109.824
 289.9 c 105.164 289.83 102.73 289.435 101.773 288.603 c 100.332 287.349
 98.109 286.701 91.793 285.693 c 89.438 285.318 87.148 284.302 85.793 283.041
 c 84.586 281.916 82.25 280.755 80.602 280.462 c 78.156 280.025 77.602 279.587
 77.602 278.084 c 77.602 274.736 67.996 262.037 63.867 259.931 c 60.469 
258.197 58.043 254.884 56.773 250.244 c 56.133 247.912 55.379 247.08 53.18
 246.283 c 51.652 245.732 50.395 244.72 50.387 244.041 c 50.367 242.478 
45.84 235.201 44.887 235.201 c 44.5 235.201 43.18 232.845 41.957 229.97 
c 39.812 224.927 39.781 224.638 41.027 222.025 c 42.688 218.541 41.805 211.97
 39.316 209.322 c 37.328 207.209 37.059 204.158 38.801 203.49 c 40.219 202.947
 40.359 200.068 39.105 197.314 c 38.367 195.689 38.566 194.584 40.262 190.877
 c 42.508 185.974 43.297 185.482 44.578 188.201 c 50.414 200.564 50.816 
201.099 52.52 198.771 c 53.84 196.962 53.914 191.556 52.684 186.67 c 51.949
 183.752 50.52 181.791 45.484 176.783 c 39.449 170.779 39.199 170.384 39.199
 166.841 c 39.199 164.81 38.66 161.857 38 160.275 c 37.34 158.697 36.801
 156.63 36.801 155.689 c 36.801 153.681 33.586 148.712 30.344 145.705 c 
28.18 143.697 28.098 143.357 28.535 138.357 c 28.992 133.111 l 32.629 133.154
 l 35.992 133.197 36.312 133.025 36.949 130.798 c 38.027 127.037 37.047 
123.81 33.699 120.111 c 30.926 117.045 30.566 116.154 30.184 111.353 c 29.945
 108.416 30.078 105.4 30.477 104.658 c 31.738 102.298 31.348 93.49 29.91
 91.9 c 28.711 90.576 28.785 90.337 30.91 88.498 c 33.199 86.521 l 32.973
 76.462 l 32.746 66.451 32.754 66.4 34.57 66.392 c 36.605 66.38 42.133 61.224
 40.914 60.47 c 40.461 60.193 40.773 58.701 41.672 56.837 c 43.336 53.392
 43.602 51.142 42.48 49.959 c 41.5 48.927 44.25 38.736 46.039 36.755 c 46.812
 35.9 48.312 35.201 49.367 35.201 c 50.773 35.201 51.504 34.568 52.113 32.822
 c 52.719 31.084 53.398 30.494 54.637 30.623 c 55.777 30.74 56.438 30.275
 56.652 29.201 c 57.109 26.912 58.363 25.599 60.098 25.599 c 60.926 25.599
 61.602 25.111 61.602 24.509 c 61.602 23.763 60.934 23.548 59.48 23.826 
c 56.551 24.388 57.73 22.673 60.73 22.017 c 62 21.736 65.426 19.908 68.34
 17.955 c 74.742 13.658 77.543 12.927 90.141 12.271 c 99.879 11.763 l 101.184
 14.482 l 103.812 19.959 104.406 20.814 105.336 20.459 c 105.855 20.259 
106.715 20.615 107.238 21.248 c 107.766 21.88 108.895 22.4 109.75 22.4 c
 110.605 22.4 112.039 22.795 112.938 23.275 c 116.699 25.287 116.531 19.775
 112.727 16.334 c 111.816 15.509 111.199 13.892 111.199 12.322 c 111.199
 10.877 110.84 9.47 110.398 9.201 c 108.668 8.13 109.754 7.201 112.742 7.201
 c 114.473 7.201 116.426 7.74 117.086 8.4 c 118.703 10.017 121.293 9.916
 123 8.166 c 124.59 6.537 127.66 6.759 128.348 8.556 c h
87.512 13.947 m 86.914 15.498 90.352 20.002 92.137 20.002 c 92.996 20.002
 93.77 19.205 94.07 18.002 c 94.348 16.9 94.953 16.002 95.422 16.002 c 96.887
 16.002 95.285 14.943 92.184 13.865 c 88.402 12.545 88.047 12.552 87.512
 13.947 c h
84 23.955 m 84 24.857 84.359 25.599 84.801 25.599 c 85.238 25.599 85.602
 25.08 85.602 24.447 c 85.602 23.814 85.238 23.072 84.801 22.798 c 84.359
 22.529 84 23.048 84 23.955 c h
119.398 24.529 m 118.02 25.087 118.148 26.13 119.672 26.716 c 121.371 27.369
 122.438 26.623 121.879 25.173 c 121.41 23.951 121.062 23.861 119.398 24.529
 c h
61.168 30.455 m 60.43 31.646 61.285 32.291 62.816 31.705 c 63.523 31.435
 63.879 30.849 63.602 30.404 c 62.953 29.357 61.832 29.377 61.168 30.455
 c h
145.199 36.802 m 144.645 38.545 147.582 45.337 149.602 46.974 c 151.676
 48.662 152.801 48.138 152.801 45.494 c 152.801 42.013 148.539 35.334 146.254
 35.224 c 145.953 35.212 145.48 35.92 145.199 36.802 c h
161.602 40.353 m 161.602 40.986 161.914 41.701 162.297 41.935 c 162.68 
42.173 163.219 43.494 163.496 44.873 c 163.945 47.134 164.203 47.322 166.195
 46.822 c 167.406 46.517 168.566 46.103 168.77 45.896 c 169.461 45.205 167.469
 42.806 165.328 41.755 c 164.156 41.181 163.199 40.373 163.199 39.955 c 
163.199 39.541 162.84 39.201 162.398 39.201 c 161.961 39.201 161.602 39.72
 161.602 40.353 c h
99.598 42.404 m 99 43.373 100.957 44.24 102.887 43.869 c 103.645 43.72 
104.418 43.15 104.602 42.599 c 105.008 41.38 100.344 41.201 99.598 42.404
 c h
170.133 52.533 m 169.129 53.537 169.598 56.048 170.879 56.541 c 172.562
 57.185 173.695 55.275 172.715 53.443 c 171.91 51.935 171.039 51.63 170.133
 52.533 c h
139.32 76.4 m 138.113 80.642 138.137 80.798 140.023 80.798 c 142.25 80.798
 142.707 79.127 141.363 75.904 c 140.23 73.201 l h
112.602 78.056 m 112.27 78.392 112 79.58 112 80.693 c 112 82.15 112.242
 82.474 112.867 81.853 c 113.344 81.377 113.613 80.189 113.469 79.216 c 
113.32 78.244 112.93 77.724 112.602 78.056 c h
104.199 84.564 m 102.793 87.595 102.922 88.002 105.297 88.002 c 107.07 
88.002 107.242 87.814 106.402 86.802 c 105.859 86.146 105.602 84.888 105.832
 84.005 c 106.438 81.681 105.371 82.048 104.199 84.564 c h
178.398 87.154 m 178.398 87.568 178.762 88.127 179.199 88.4 c 179.641 88.673
 180 88.334 180 87.646 c 180 86.962 179.641 86.4 179.199 86.4 c 178.762 
86.4 178.398 86.74 178.398 87.154 c h
135.375 96.216 m 134.398 97.255 133.602 98.505 133.602 98.998 c 133.602
 99.494 133.18 100.908 132.668 102.146 c 132.152 103.388 131.703 105.048
 131.668 105.841 c 131.629 106.634 130.75 108.17 129.707 109.252 c 128.16
 110.857 127.996 111.431 128.805 112.408 c 130.129 114.002 131.082 113.912
 132.672 112.033 c 133.402 111.173 134.992 110.232 136.203 109.947 c 138.191
 109.474 138.453 109.67 138.914 111.978 c 139.336 114.087 139.715 114.451
 141.113 114.076 c 142.039 113.826 143.969 113.619 145.398 113.611 c 147.727
 113.599 148 113.357 148 111.31 c 148 109.302 147.758 109.068 146 109.404
 c 144.152 109.755 144.039 109.607 144.484 107.377 c 144.895 105.337 144.59
 104.693 142.484 103.134 c 139.621 101.021 139.512 100.603 141.344 98.771
 c 142.34 97.775 142.473 97.091 141.863 96.115 c 140.555 94.029 137.383 
94.076 135.375 96.216 c h
138.398 102.302 m 138.398 103.435 136.141 104.982 135.27 104.443 c 134.023
 103.673 135.199 101.599 136.887 101.599 c 137.719 101.599 138.398 101.916
 138.398 102.302 c h
49.5 100.302 m 48.812 101.806 48.922 102.642 50.016 104.314 c 51.031 105.865
 51.266 107.275 50.891 109.623 c 50.438 112.443 50.598 112.923 52.227 113.666
 c 53.668 114.322 54.074 115.154 54.078 117.455 c 54.082 119.076 54.488 
122.74 54.977 125.599 c 55.469 128.459 55.918 138.72 55.973 148.4 c 56.066
 164.959 56.723 173.33 58.461 180.095 c 59.109 182.615 59.582 183.052 62.129
 183.466 c 63.734 183.728 65.355 183.752 65.727 183.521 c 66.77 182.877 
66.527 180.935 65.133 178.806 c 63.562 176.412 64.039 175.576 67.656 174.38
 c 73.234 172.541 76.785 175.545 79.977 184.798 c 80.965 187.662 82.656 
191.541 83.734 193.423 c 84.812 195.31 86.055 199.076 86.492 201.798 c 87.402
 207.443 88.223 208.802 90.379 208.236 c 91.215 208.017 92.723 208.416 93.727
 209.119 c 96.234 210.877 96.594 210.775 98.41 207.798 c 100.34 204.634 
100.453 201.025 98.688 199.076 c 97.469 197.728 97.469 197.377 98.707 194.212
 c 99.754 191.533 101.16 190.045 105.25 187.291 c 110.461 183.783 l 117.469
 184.181 l 121.957 184.435 125.762 185.15 128.062 186.17 c 130.039 187.041
 132.992 188.009 134.629 188.314 c 140.434 189.404 137.137 192.002 129.945
 192.002 c 126.242 192.002 125.848 193.283 128.961 195.205 c 132.977 197.681
 135.09 197.955 139.117 196.513 c 144.031 194.752 147.324 194.853 150.754
 196.88 c 152.32 197.802 153.602 198.685 153.602 198.841 c 153.602 200.259
 151.441 203.197 149.875 203.912 c 147.008 205.216 146.398 205.021 146.398
 202.798 c 146.398 200.255 145.883 200.283 138.066 203.283 c 134.512 204.646
 129.98 206.384 128 207.142 c 123.719 208.779 122.84 210.912 126.148 211.638
 c 130.719 212.642 130.766 212.705 128.719 214.923 c 125.316 218.615 122.148
 219.404 109.031 219.822 c 98.793 220.15 96.418 220.002 94.066 218.884 c
 92.527 218.154 91.078 217.248 90.844 216.873 c 90.125 215.705 85.395 216.505
 84.32 217.974 c 83.223 219.478 81.602 219.002 81.602 217.17 c 81.602 215.642
 78.32 213.591 74.496 212.732 c 72.773 212.345 69.184 210.732 66.52 209.142
 c 63.855 207.556 61.301 206.49 60.84 206.775 c 59.516 207.595 59.828 211.357
 62.434 225.962 c 64.469 237.365 65.398 240.689 68.094 246.244 c 74.953 
260.373 88.48 269.646 109.719 274.791 c 120.719 277.455 126.828 278.002 
133.809 276.951 c 136.996 276.474 142.84 275.67 146.801 275.17 c 156.559
 273.939 159.934 273.005 163.004 270.685 c 165.5 268.795 165.586 268.548
 165.121 264.556 c 164.73 261.197 165.102 259.021 167.055 253.201 c 168.383
 249.24 169.719 244.74 170.023 243.201 c 170.332 241.662 171.262 238.888
 172.09 237.045 c 173.766 233.322 174.117 226.013 172.668 225.119 c 172.129
 224.787 170.832 225.564 169.574 226.966 c 168.293 228.404 166.359 229.541
 164.82 229.767 c 162.273 230.142 162.238 230.103 162.668 227.462 c 162.906
 225.982 163.836 223.845 164.73 222.705 c 165.625 221.568 166.586 219.416
 166.867 217.92 c 167.297 215.63 167.719 215.201 169.523 215.201 c 171.312
 215.201 172.145 214.373 174.555 210.201 c 178.738 202.947 180.543 199.119
 181.062 196.4 c 183.379 184.271 182.879 185.314 189.332 179.06 c 195.32
 173.259 202.906 164.361 204.633 161.123 c 205.289 159.884 205.289 158.673
 204.621 156.505 c 203.887 154.103 203.957 153.068 205.012 150.861 c 206.203
 148.357 206.199 148.072 204.949 146.982 c 202.742 145.06 200.246 144.002
 197.918 144.002 c 195.344 144.002 187.367 139.755 185.504 137.392 c 183.875
 135.334 181.602 136.048 181.602 138.623 c 181.602 139.779 180.68 141.181
 179.199 142.275 c 177.566 143.482 176.797 144.744 176.789 146.224 c 176.781
 147.42 176.473 148.88 176.098 149.466 c 174.914 151.337 174.609 148.068
 175.336 141.291 c 175.816 136.81 175.746 134.658 175.094 133.873 c 174.59
 133.263 174.078 131.603 173.957 130.181 c 173.836 128.763 173.305 126.521
 172.777 125.201 c 172.246 123.88 171.668 121.392 171.496 119.67 c 171.051
 115.275 170.152 114.486 166.168 114.978 c 162.27 115.462 160.375 117.384
 159.684 121.56 c 158.773 127.072 157.523 130.4 156.363 130.4 c 154.883 
130.4 154.887 128.697 156.371 125.146 c 158.195 120.779 155.621 115.486 
153.707 119.681 c 153.148 120.908 152.254 121.611 151.449 121.459 c 150.715
 121.314 150.238 121.021 150.391 120.798 c 150.547 120.58 150.238 119.591
 149.707 118.599 c 147.922 115.263 141.121 116.548 136.355 121.123 c 133.535
 123.83 133.016 124.783 133.363 126.599 c 133.621 127.939 133.438 128.798
 132.895 128.798 c 130.617 128.798 132.445 134.111 134.801 134.341 c 135.238
 134.388 135.621 136.127 135.648 138.212 c 135.672 140.295 136.141 143.06
 136.684 144.353 c 137.34 145.904 137.488 148.224 137.121 151.154 c 136.676
 154.732 136.102 155.99 134.188 157.599 c 132.875 158.701 130.859 160.513
 129.703 161.63 c 126.992 164.248 122.762 167.228 119.211 169.017 c 117.664
 169.795 114.961 171.318 113.199 172.404 c 109.883 174.447 106.844 174.966
 106.016 173.627 c 105.754 173.201 106.242 171.474 107.102 169.791 c 107.965
 168.103 108.918 165.392 109.223 163.763 c 109.527 162.134 110.098 160.798
 110.488 160.798 c 111.82 160.798 117.438 155.166 117.887 153.373 c 118.133
 152.388 119.43 150.939 120.766 150.146 c 122.105 149.357 123.199 148.404
 123.199 148.033 c 123.199 147.662 124.258 146.986 125.555 146.537 c 127.535
 145.845 131.199 140.845 131.199 138.834 c 131.199 138.142 127.336 138.334
 126.895 139.045 c 126.293 140.025 120.32 139.662 119 138.568 c 118.086 
137.806 116.527 137.939 111.629 139.193 c 104.422 141.037 100.191 143.396
 99.141 146.158 c 98.145 148.775 95.176 148.357 93.766 145.4 c 92.531 142.822
 89.602 142.353 89.602 144.736 c 89.602 147.326 90.5 148.798 92.086 148.798
 c 93.074 148.798 93.602 149.365 93.602 150.42 c 93.602 152.361 97.375 154.146
 98.691 152.83 c 99.641 151.877 103.172 151.701 103.258 152.599 c 103.289
 152.931 103.379 154.978 103.457 157.15 c 103.59 160.806 103.41 161.209 
101.059 162.587 c 99.184 163.689 96.625 164.13 91.262 164.275 c 86.934 164.396
 83.617 164.865 83.043 165.439 c 81.207 167.271 78.605 166.521 76.828 163.646
 c 75.555 161.587 74.484 160.834 72.562 160.646 c 70.414 160.439 69.707 
159.81 68.176 156.728 c 67.176 154.712 66.129 151.142 65.852 148.795 c 65.379
 144.814 65.445 144.576 66.871 145.181 c 67.711 145.537 69.953 146.369 71.848
 147.025 c 76.781 148.736 77.402 147.748 75.297 141.509 c 74.363 138.748
 73.602 135.322 73.602 133.892 c 73.602 130.99 72.461 129.822 70.891 131.123
 c 70.32 131.599 69.617 131.748 69.328 131.459 c 68.512 130.646 68.707 127.353
 69.602 126.798 c 70.039 126.529 70.41 123.357 70.426 119.752 c 70.449 114.541
 70.762 112.83 71.953 111.4 c 74.527 108.314 80 109.353 80 112.923 c 80 
114.048 82.93 119.197 84.41 120.677 c 84.586 120.853 86.371 119.552 88.375
 117.791 c 92.371 114.271 94.77 113.271 95.832 114.681 c 96.211 115.189 
96.957 117.13 97.492 119.002 c 98.027 120.869 98.809 122.4 99.23 122.4 c
 99.652 122.4 101.348 123.607 102.996 125.084 c 107.148 128.795 108.938 
129.599 113.051 129.599 c 116.992 129.599 119.383 127.865 117.727 126.205
 c 116.484 124.966 116.566 122.47 117.93 119.857 c 118.938 117.923 118.895
 117.568 117.488 116.298 c 115.945 114.904 115.953 114.869 117.961 113.818
 c 120.281 112.603 120.492 111.806 118.859 110.447 c 117.434 109.267 112.801
 111.388 112.801 113.22 c 112.801 115.947 109.773 117.599 104.789 117.599
 c 99.98 117.599 l 101.188 114.701 l 102.84 110.748 102.75 110.4 100.047
 110.4 c 98.754 110.4 97.465 110.025 97.18 109.568 c 96.398 108.302 90.59
 104.798 89.273 104.798 c 88.637 104.798 87.445 103.943 86.621 102.9 c 85.562
 101.556 84.082 100.892 81.562 100.638 c 76.773 100.158 74.398 101.689 74.398
 105.271 c 74.398 107.396 73.938 108.197 72.195 109.099 c 68.699 110.908
 64.727 111.041 63.688 109.384 c 63.199 108.603 60.754 105.814 58.254 103.185
 c 53.305 97.974 50.918 97.189 49.5 100.302 c h
168 119.658 m 168 120.404 167.457 120.81 166.668 120.658 c 164.66 120.271
 164.383 118.4 166.332 118.4 c 167.316 118.4 168 118.916 168 119.658 c h
150.801 128.002 m 150.414 128.627 149.953 128.673 149.418 128.138 c 148.98
 127.701 148.879 126.916 149.199 126.4 c 149.586 125.775 150.047 125.728
 150.582 126.259 c 151.02 126.701 151.121 127.482 150.801 128.002 c h
169.215 130.982 m 168.574 135.244 166.016 140.798 164.691 140.798 c 164.129
 140.798 164.012 139.88 164.359 138.201 c 164.66 136.771 165.098 134.045
 165.336 132.142 c 165.73 129.013 166.832 127.712 169.492 127.252 c 169.652
 127.224 169.527 128.9 169.215 130.982 c h
192.484 152.584 m 191.672 153.396 191 152.173 191.668 151.091 c 192.172
 150.279 192.359 150.275 192.629 151.087 c 192.816 151.646 192.75 152.318
 192.484 152.584 c h
157.832 107.4 m 157.41 107.951 156.586 109.619 155.992 111.107 c 155.02
 113.556 155.062 113.92 156.434 114.923 c 157.77 115.9 158.02 115.853 158.508
 114.529 c 158.816 113.701 159.637 112.802 160.332 112.537 c 161.824 111.962
 162.016 108.736 160.641 107.361 c 159.422 106.142 158.789 106.15 157.832
 107.4 c h
121.105 124.361 m 120.449 126.072 121.438 127.201 123.602 127.201 c 126.273
 127.201 126.75 125.935 124.637 124.455 c 122.414 122.896 121.672 122.877
 121.105 124.361 c h
59.734 194.935 m 59.441 195.228 59.199 196.295 59.199 197.306 c 59.199 
199.654 61.816 201.17 63.93 200.037 c 65.926 198.97 65.277 196.474 62.695
 195.298 c 60.379 194.244 60.418 194.248 59.734 194.935 c h
173.168 236.853 m 172.879 237.322 172.84 237.908 173.086 238.154 c 173.742
 238.81 176 237.783 176 236.826 c 176 235.74 173.844 235.759 173.168 236.853
 c h
198.867 282.009 m 196.312 285.908 200.469 288.912 204.352 285.974 c 205.207
 285.33 206.5 284.798 207.23 284.798 c 208.539 284.798 211.199 282.435 211.199
 281.271 c 211.199 280.939 209.402 280.845 207.203 281.064 c 205.004 281.279
 203.004 281.13 202.758 280.728 c 201.938 279.4 200.203 279.97 198.867 282.009
 c h
78.184 10.084 m 77.918 10.349 77.227 10.377 76.648 10.146 c 76.012 9.892
 76.203 9.701 77.133 9.662 c 77.977 9.627 78.449 9.818 78.184 10.084 c h
187.199 49.224 m 187.199 50.701 185.285 51.556 183.512 50.877 c 182.465
 50.474 182.406 50.154 183.207 49.189 c 184.5 47.634 187.199 47.658 187.199
 49.224 c h
28.023 126.056 m 28.449 127.408 28.801 129.162 28.801 129.955 c 28.801 
131.142 28.59 131.22 27.602 130.404 c 25.945 129.029 23.992 122.052 24.035
 117.654 c 24.066 114.002 l 25.656 118.798 l 26.527 121.439 27.594 124.705
 28.023 126.056 c h
278.125 183.564 m 277.863 184.244 277.266 184.798 276.797 184.798 c 276.207
 184.798 276.219 184.287 276.836 183.13 c 277.828 181.275 278.867 181.627
 278.125 183.564 c h
271.164 200.068 m 270.672 200.986 270.074 201.541 269.836 201.302 c 269.176
 200.642 270.234 198.4 271.203 198.4 c 271.793 198.4 271.781 198.912 271.164
 200.068 c h
f
0 g
123 8.166 m 121.293 9.916 118.703 10.017 117.086 8.4 c 116.426 7.74 114.473
 7.201 112.742 7.201 c 109.754 7.201 108.668 8.13 110.398 9.201 c 110.84
 9.47 111.199 10.877 111.199 12.322 c 111.199 13.892 111.816 15.509 112.727
 16.334 c 116.531 19.775 116.699 25.287 112.938 23.275 c 112.039 22.795 
110.605 22.4 109.75 22.4 c 108.895 22.4 107.766 21.88 107.238 21.248 c 106.715
 20.615 105.855 20.259 105.336 20.459 c 104.406 20.814 103.812 19.959 101.184
 14.482 c 99.879 11.763 l 90.141 12.271 l 77.543 12.927 74.742 13.658 68.34
 17.955 c 65.426 19.908 62 21.736 60.73 22.017 c 57.73 22.673 56.551 24.388
 59.48 23.826 c 60.934 23.548 61.602 23.763 61.602 24.509 c 61.602 25.111
 60.926 25.599 60.098 25.599 c 58.363 25.599 57.109 26.912 56.652 29.201
 c 56.438 30.275 55.777 30.74 54.637 30.623 c 53.398 30.494 52.719 31.084
 52.113 32.822 c 51.504 34.568 50.773 35.201 49.367 35.201 c 48.312 35.201
 46.812 35.9 46.039 36.755 c 44.25 38.736 41.5 48.927 42.48 49.959 c 43.602
 51.142 43.336 53.392 41.672 56.837 c 40.773 58.701 40.461 60.193 40.914
 60.47 c 42.133 61.224 36.605 66.38 34.57 66.392 c 32.754 66.4 32.746 66.451
 32.973 76.462 c 33.199 86.521 l 30.91 88.498 l 28.785 90.337 28.711 90.576
 29.91 91.9 c 31.348 93.49 31.738 102.298 30.477 104.658 c 30.078 105.4 
29.945 108.416 30.184 111.353 c 30.566 116.154 30.926 117.045 33.699 120.111
 c 37.047 123.81 38.027 127.037 36.949 130.798 c 36.312 133.025 35.992 133.197
 32.629 133.154 c 28.992 133.111 l 28.535 138.357 l 28.098 143.357 28.18
 143.697 30.344 145.705 c 33.586 148.712 36.801 153.681 36.801 155.689 c
 36.801 156.63 37.34 158.697 38 160.275 c 38.66 161.857 39.199 164.81 39.199
 166.841 c 39.199 170.384 39.449 170.779 45.484 176.783 c 50.52 181.791 
51.949 183.752 52.684 186.67 c 53.914 191.556 53.84 196.962 52.52 198.771
 c 50.816 201.099 50.414 200.564 44.578 188.201 c 43.297 185.482 42.508 
185.974 40.262 190.877 c 38.566 194.584 38.367 195.689 39.105 197.314 c 
40.359 200.068 40.219 202.947 38.801 203.49 c 37.059 204.158 37.328 207.209
 39.316 209.322 c 41.805 211.97 42.688 218.541 41.027 222.025 c 39.781 224.638
 39.812 224.927 41.957 229.97 c 43.18 232.845 44.5 235.201 44.887 235.201
 c 45.84 235.201 50.367 242.478 50.387 244.041 c 50.395 244.72 51.652 245.732
 53.18 246.283 c 55.379 247.08 56.133 247.912 56.773 250.244 c 58.043 254.884
 60.469 258.197 63.867 259.931 c 67.996 262.037 77.602 274.736 77.602 278.084
 c 77.602 279.587 78.156 280.025 80.602 280.462 c 82.25 280.755 84.586 281.916
 85.793 283.041 c 87.148 284.302 89.438 285.318 91.793 285.693 c 98.109 
286.701 100.332 287.349 101.773 288.603 c 102.73 289.435 105.164 289.83 
109.824 289.9 c 118.336 290.029 123.176 292.021 123.191 295.4 c 123.203 
298.115 125.664 300.693 128.852 301.33 c 130.176 301.595 131.617 302.482
 132.055 303.306 c 132.496 304.127 133.41 304.798 134.086 304.798 c 135.926
 304.798 135.082 302.045 133.156 301.767 c 131.332 301.505 128.324 296.615
 129.156 295.267 c 130.238 293.521 132.055 294.509 136.973 299.525 c 139.738
 302.341 143.434 305.404 145.188 306.326 c 149.09 308.377 156.086 308.623
 157.629 306.767 c 159.137 304.951 157.723 303.986 152.52 303.283 c 150.047
 302.947 147.391 302.127 146.613 301.459 c 145.836 300.791 143.539 299.462
 141.504 298.502 c 132.098 294.064 133.906 288.634 144.707 288.904 c 149.008
 289.013 150.504 289.837 152.406 293.142 c 153.168 294.466 153.496 294.47
 158.297 293.228 c 161.09 292.502 163.605 292.142 163.887 292.423 c 164.168
 292.709 163.066 295.427 161.438 298.47 c 159.809 301.509 158.84 304.002
 159.277 304.002 c 161.449 304.002 165.055 301.162 167.504 297.521 c 169.031
 295.252 172.086 292.252 174.445 290.697 c 178.105 288.287 178.812 288.072
 179.809 289.068 c 180.691 289.947 180.754 290.591 180.078 291.853 c 178.492
 294.818 183.211 295.064 186.559 292.193 c 187.758 291.166 188.477 291.212
 192.586 292.603 c 196.285 293.849 198.199 294.052 201.781 293.564 c 206.625
 292.908 206.512 292.955 212.105 289.404 c 216.375 286.693 220.801 279.193
 220.801 274.658 c 220.801 271.279 222.68 268.306 225.215 267.67 c 226.656
 267.306 227.367 266.33 228.039 263.791 c 228.672 261.388 230.254 259.095
 233.465 255.92 c 246.27 243.259 251.152 236.287 253.613 227.146 c 254.133
 225.224 256.164 221.482 258.129 218.826 c 260.094 216.173 262.848 212.439
 264.25 210.533 c 265.93 208.248 266.832 206.064 266.895 204.13 c 266.949
 202.521 267.371 199.759 267.836 198.002 c 268.301 196.24 269.094 191.56
 269.594 187.599 c 270.582 179.802 271.574 175.369 273.18 171.58 c 274.055
 169.505 274 168.705 272.773 165.978 c 271.984 164.232 269.828 158.298 267.977
 152.798 c 266.125 147.298 263.605 140.802 262.375 138.357 c 261.145 135.916
 259.539 131.775 258.805 129.158 c 256.941 122.486 253.605 113.697 252.73
 113.158 c 252.328 112.908 252 112.138 252 111.443 c 252 110.748 250.082
 107.978 247.742 105.291 c 245.398 102.599 243.273 99.826 243.016 99.127
 c 242.758 98.427 240.52 96.447 238.043 94.728 c 235.566 93.005 231.844 
90.408 229.77 88.951 c 227.695 87.494 224.559 85.556 222.801 84.646 c 221.039
 83.732 218.289 81.955 216.684 80.693 c 215.082 79.431 213.199 78.4 212.504
 78.4 c 210.32 78.4 206.695 75.709 203.859 71.986 c 202.199 69.806 200.359
 68.291 199.164 68.123 c 196.41 67.736 195.207 66.548 193.484 62.529 c 192.484
 60.193 191.613 59.177 190.867 59.462 c 190.168 59.732 189.578 59.212 189.293
 58.087 c 188.832 56.244 181.602 49.599 180.055 49.599 c 178.223 49.599 
179.348 47.201 182.398 44.587 c 184.16 43.08 185.602 41.58 185.602 41.248
 c 185.602 40.92 184.879 39.736 184 38.619 c 183.121 37.498 182.398 35.912
 182.398 35.091 c 182.398 33.896 181.793 33.599 179.352 33.599 c 175.902
 33.599 173.98 32.47 172.543 29.587 c 171.656 27.81 171.043 27.595 166.773
 27.568 c 160.625 27.529 153.641 24.494 153.617 21.853 c 153.605 20.892 
153.273 19.24 152.871 18.185 c 152.254 16.56 151.551 16.244 148.309 16.119
 c 145.652 16.021 143.922 15.455 142.672 14.283 c 140.871 12.587 l 139.156
 15.494 l 137.309 18.623 135.449 19.248 134.656 17.002 c 133.938 14.955 
130.277 11.201 129.004 11.201 c 128.398 11.201 128.109 10.873 128.355 10.47
 c 129.98 7.841 125.289 5.822 123 8.166 c h
92.184 13.865 m 95.285 14.943 96.887 16.002 95.422 16.002 c 94.953 16.002
 94.348 16.9 94.07 18.002 c 93.77 19.205 92.996 20.002 92.137 20.002 c 90.352
 20.002 86.914 15.498 87.512 13.947 c 88.047 12.552 88.402 12.545 92.184
 13.865 c h
85.602 24.447 m 85.602 25.08 85.238 25.599 84.801 25.599 c 84.359 25.599
 84 24.857 84 23.955 c 84 23.048 84.359 22.529 84.801 22.798 c 85.238 23.072
 85.602 23.814 85.602 24.447 c h
121.879 25.173 m 122.438 26.623 121.371 27.369 119.672 26.716 c 118.148
 26.13 118.02 25.087 119.398 24.529 c 121.062 23.861 121.41 23.951 121.879
 25.173 c h
63.602 30.404 m 63.879 30.849 63.523 31.435 62.816 31.705 c 61.285 32.291
 60.43 31.646 61.168 30.455 c 61.832 29.377 62.953 29.357 63.602 30.404 
c h
148.035 36.224 m 150.25 37.978 152.801 42.935 152.801 45.494 c 152.801 
48.138 151.676 48.662 149.602 46.974 c 147.582 45.337 144.645 38.545 145.199
 36.802 c 145.781 34.966 146.305 34.861 148.035 36.224 c h
163.199 39.955 m 163.199 40.373 164.156 41.181 165.328 41.755 c 167.469
 42.806 169.461 45.205 168.77 45.896 c 168.566 46.103 167.406 46.517 166.195
 46.822 c 164.203 47.322 163.945 47.134 163.496 44.873 c 163.219 43.494 
162.68 42.173 162.297 41.935 c 161.336 41.341 161.418 39.201 162.398 39.201
 c 162.84 39.201 163.199 39.541 163.199 39.955 c h
104.602 42.599 m 104.207 43.779 102.008 44.326 100.301 43.673 c 98.41 42.947
 99.844 41.599 102.516 41.599 c 104.094 41.599 104.816 41.947 104.602 42.599
 c h
172.715 53.443 m 173.695 55.275 172.562 57.185 170.879 56.541 c 168.945
 55.798 169.301 52.002 171.305 52.002 c 171.656 52.002 172.293 52.65 172.715
 53.443 c h
142.07 79.705 m 141.637 80.834 138.398 81.271 138.406 80.201 c 138.406 
79.869 138.82 78.162 139.32 76.4 c 140.23 73.201 l 141.363 75.904 l 141.98
 77.392 142.301 79.103 142.07 79.705 c h
112.867 81.853 m 112.242 82.474 112 82.15 112 80.693 c 112 78.056 113.121
 76.927 113.469 79.216 c 113.613 80.189 113.344 81.377 112.867 81.853 c 
h
105.832 84.005 m 105.602 84.888 105.859 86.146 106.402 86.802 c 107.242
 87.814 107.07 88.002 105.297 88.002 c 102.922 88.002 102.793 87.595 104.199
 84.564 c 105.371 82.048 106.438 81.681 105.832 84.005 c h
180 87.646 m 180 88.334 179.641 88.673 179.199 88.4 c 178.762 88.127 178.398
 87.568 178.398 87.154 c 178.398 86.74 178.762 86.4 179.199 86.4 c 179.641
 86.4 180 86.962 180 87.646 c h
141.863 96.115 m 142.473 97.091 142.34 97.775 141.344 98.771 c 139.512 
100.603 139.621 101.021 142.484 103.134 c 144.59 104.693 144.895 105.337
 144.484 107.377 c 144.039 109.607 144.152 109.755 146 109.404 c 147.758
 109.068 148 109.302 148 111.31 c 148 113.357 147.727 113.599 145.398 113.611
 c 143.969 113.619 142.039 113.826 141.113 114.076 c 139.715 114.451 139.336
 114.087 138.914 111.978 c 138.453 109.67 138.191 109.474 136.203 109.947
 c 134.992 110.232 133.402 111.173 132.672 112.033 c 131.082 113.912 130.129
 114.002 128.805 112.408 c 127.996 111.431 128.16 110.857 129.707 109.252
 c 130.75 108.17 131.629 106.634 131.668 105.841 c 131.703 105.048 132.152
 103.388 132.668 102.146 c 133.18 100.908 133.602 99.494 133.602 98.998 
c 133.602 98.505 134.398 97.255 135.375 96.216 c 137.383 94.076 140.555 
94.029 141.863 96.115 c h
134.922 102.775 m 134.672 103.42 134.828 104.17 135.27 104.443 c 136.141
 104.982 138.398 103.435 138.398 102.302 c 138.398 101.119 135.398 101.525
 134.922 102.775 c h
58.254 103.185 m 60.754 105.814 63.199 108.603 63.688 109.384 c 64.727 
111.041 68.699 110.908 72.195 109.099 c 73.938 108.197 74.398 107.396 74.398
 105.271 c 74.398 101.689 76.773 100.158 81.562 100.638 c 84.082 100.892
 85.562 101.556 86.621 102.9 c 87.445 103.943 88.637 104.798 89.273 104.798
 c 90.59 104.798 96.398 108.302 97.18 109.568 c 97.465 110.025 98.754 110.4
 100.047 110.4 c 102.75 110.4 102.84 110.748 101.188 114.701 c 99.98 117.599
 l 104.789 117.599 l 109.773 117.599 112.801 115.947 112.801 113.22 c 112.801
 111.388 117.434 109.267 118.859 110.447 c 120.492 111.806 120.281 112.603
 117.961 113.818 c 115.953 114.869 115.945 114.904 117.488 116.298 c 118.895
 117.568 118.938 117.923 117.93 119.857 c 116.566 122.47 116.484 124.966
 117.727 126.205 c 119.383 127.865 116.992 129.599 113.051 129.599 c 108.938
 129.599 107.148 128.795 102.996 125.084 c 101.348 123.607 99.652 122.4 
99.23 122.4 c 98.809 122.4 98.027 120.869 97.492 119.002 c 96.957 117.13
 96.211 115.189 95.832 114.681 c 94.77 113.271 92.371 114.271 88.375 117.791
 c 86.371 119.552 84.586 120.853 84.41 120.677 c 82.93 119.197 80 114.048
 80 112.923 c 80 109.353 74.527 108.314 71.953 111.4 c 70.762 112.83 70.449
 114.541 70.426 119.752 c 70.41 123.357 70.039 126.529 69.602 126.798 c 
68.707 127.353 68.512 130.646 69.328 131.459 c 69.617 131.748 70.32 131.599
 70.891 131.123 c 72.461 129.822 73.602 130.99 73.602 133.892 c 73.602 135.322
 74.363 138.748 75.297 141.509 c 77.402 147.748 76.781 148.736 71.848 147.025
 c 69.953 146.369 67.711 145.537 66.871 145.181 c 65.445 144.576 65.379 
144.814 65.852 148.795 c 66.129 151.142 67.176 154.712 68.176 156.728 c 
69.707 159.81 70.414 160.439 72.562 160.646 c 74.484 160.834 75.555 161.587
 76.828 163.646 c 78.605 166.521 81.207 167.271 83.043 165.439 c 83.617 
164.865 86.934 164.396 91.262 164.275 c 96.625 164.13 99.184 163.689 101.059
 162.587 c 103.41 161.209 103.59 160.806 103.457 157.15 c 103.379 154.978
 103.289 152.931 103.258 152.599 c 103.172 151.701 99.641 151.877 98.691
 152.83 c 97.375 154.146 93.602 152.361 93.602 150.42 c 93.602 149.365 93.074
 148.798 92.086 148.798 c 90.5 148.798 89.602 147.326 89.602 144.736 c 89.602
 142.353 92.531 142.822 93.766 145.4 c 95.176 148.357 98.145 148.775 99.141
 146.158 c 100.191 143.396 104.422 141.037 111.629 139.193 c 116.527 137.939
 118.086 137.806 119 138.568 c 120.32 139.662 126.293 140.025 126.895 139.045
 c 127.336 138.334 131.199 138.142 131.199 138.834 c 131.199 140.845 127.535
 145.845 125.555 146.537 c 124.258 146.986 123.199 147.662 123.199 148.033
 c 123.199 148.404 122.105 149.357 120.766 150.146 c 119.43 150.939 118.133
 152.388 117.887 153.373 c 117.438 155.166 111.82 160.798 110.488 160.798
 c 110.098 160.798 109.527 162.134 109.223 163.763 c 108.918 165.392 107.961
 168.103 107.102 169.791 c 106.242 171.474 105.754 173.201 106.016 173.627
 c 106.844 174.966 109.883 174.447 113.199 172.404 c 114.961 171.318 117.664
 169.795 119.211 169.017 c 122.762 167.228 126.992 164.248 129.703 161.63
 c 130.859 160.513 132.875 158.701 134.184 157.599 c 136.102 155.99 136.676
 154.732 137.121 151.154 c 137.488 148.224 137.34 145.904 136.684 144.353
 c 136.141 143.06 135.672 140.295 135.645 138.212 c 135.621 136.127 135.238
 134.388 134.801 134.341 c 132.445 134.111 130.617 128.798 132.895 128.798
 c 133.438 128.798 133.621 127.939 133.363 126.599 c 133.016 124.783 133.535
 123.83 136.355 121.123 c 141.121 116.548 147.922 115.263 149.707 118.599
 c 150.238 119.591 150.547 120.58 150.391 120.798 c 150.238 121.021 150.715
 121.314 151.449 121.459 c 152.254 121.611 153.148 120.908 153.707 119.681
 c 155.621 115.486 158.195 120.779 156.371 125.146 c 154.887 128.697 154.883
 130.4 156.363 130.4 c 157.52 130.4 158.773 127.072 159.684 121.56 c 160.375
 117.384 162.27 115.462 166.168 114.978 c 170.152 114.486 171.051 115.275
 171.496 119.67 c 171.668 121.392 172.246 123.88 172.773 125.201 c 173.305
 126.521 173.836 128.763 173.957 130.181 c 174.078 131.603 174.59 133.263
 175.094 133.873 c 175.746 134.658 175.816 136.81 175.336 141.291 c 174.609
 148.068 174.914 151.337 176.098 149.466 c 176.473 148.88 176.781 147.42
 176.789 146.224 c 176.797 144.744 177.566 143.482 179.199 142.275 c 180.68
 141.181 181.602 139.779 181.602 138.623 c 181.602 136.048 183.875 135.334
 185.504 137.392 c 187.367 139.755 195.344 144.002 197.918 144.002 c 200.246
 144.002 202.742 145.06 204.949 146.982 c 206.199 148.072 206.203 148.357
 205.008 150.861 c 203.957 153.068 203.887 154.103 204.621 156.505 c 205.289
 158.673 205.289 159.884 204.633 161.123 c 202.906 164.361 195.32 173.259
 189.332 179.06 c 182.879 185.314 183.379 184.271 181.062 196.4 c 180.543
 199.119 178.738 202.947 174.551 210.201 c 172.145 214.373 171.312 215.201
 169.523 215.201 c 167.719 215.201 167.297 215.63 166.867 217.92 c 166.586
 219.416 165.625 221.568 164.73 222.705 c 163.836 223.845 162.906 225.982
 162.668 227.462 c 162.238 230.103 162.273 230.142 164.82 229.767 c 166.359
 229.541 168.289 228.404 169.574 226.966 c 170.832 225.564 172.129 224.787
 172.668 225.119 c 174.117 226.013 173.766 233.322 172.09 237.045 c 171.262
 238.888 170.332 241.662 170.023 243.201 c 169.719 244.74 168.383 249.24
 167.055 253.201 c 165.102 259.021 164.73 261.197 165.121 264.556 c 165.586
 268.548 165.5 268.795 163 270.685 c 159.934 273.005 156.559 273.939 146.801
 275.17 c 142.84 275.67 136.996 276.474 133.809 276.951 c 126.828 278.002
 120.719 277.455 109.719 274.791 c 88.48 269.646 74.953 260.373 68.094 246.244
 c 65.398 240.689 64.469 237.365 62.434 225.962 c 59.828 211.357 59.516 
207.595 60.84 206.775 c 61.301 206.49 63.855 207.556 66.52 209.142 c 69.184
 210.732 72.773 212.345 74.496 212.732 c 78.32 213.591 81.602 215.642 81.602
 217.17 c 81.602 219.002 83.223 219.478 84.32 217.974 c 85.395 216.505 90.125
 215.705 90.844 216.873 c 91.078 217.248 92.527 218.154 94.066 218.884 c
 96.418 220.002 98.793 220.15 109.031 219.822 c 122.148 219.404 125.316 
218.615 128.719 214.923 c 130.766 212.705 130.719 212.642 126.148 211.638
 c 122.84 210.912 123.719 208.779 128 207.142 c 129.98 206.384 134.512 204.646
 138.066 203.283 c 145.883 200.283 146.398 200.255 146.398 202.798 c 146.398
 205.021 147.008 205.216 149.875 203.912 c 151.441 203.197 153.602 200.259
 153.602 198.841 c 153.602 198.685 152.32 197.802 150.754 196.88 c 147.32
 194.853 144.031 194.752 139.117 196.513 c 135.09 197.955 132.977 197.681
 128.961 195.205 c 125.848 193.283 126.242 192.002 129.945 192.002 c 137.137
 192.002 140.434 189.404 134.625 188.314 c 132.992 188.009 130.039 187.041
 128.062 186.17 c 125.762 185.15 121.957 184.435 117.469 184.181 c 110.461
 183.783 l 105.25 187.291 l 101.16 190.045 99.754 191.533 98.707 194.212
 c 97.469 197.377 97.469 197.728 98.688 199.076 c 100.453 201.025 100.34
 204.634 98.41 207.798 c 96.594 210.775 96.234 210.877 93.727 209.119 c 
92.723 208.416 91.215 208.017 90.379 208.236 c 88.223 208.802 87.402 207.443
 86.492 201.798 c 86.055 199.076 84.812 195.31 83.734 193.423 c 82.656 191.541
 80.965 187.662 79.977 184.798 c 76.785 175.545 73.234 172.541 67.656 174.38
 c 64.039 175.576 63.562 176.412 65.129 178.806 c 66.527 180.935 66.77 182.877
 65.727 183.521 c 65.352 183.752 63.734 183.728 62.129 183.466 c 59.582 
183.052 59.109 182.615 58.461 180.095 c 56.723 173.33 56.066 164.959 55.973
 148.4 c 55.918 138.72 55.469 128.459 54.977 125.599 c 54.484 122.74 54.082
 119.076 54.078 117.455 c 54.074 115.154 53.668 114.322 52.227 113.666 c
 50.598 112.923 50.438 112.443 50.887 109.623 c 51.266 107.275 51.031 105.865
 50.016 104.314 c 48.922 102.642 48.812 101.806 49.5 100.302 c 50.918 97.189
 53.305 97.974 58.254 103.185 c h
165 119.4 m 165.504 120.916 168 121.13 168 119.658 c 168 118.916 167.316
 118.4 166.332 118.4 c 165.355 118.4 164.805 118.814 165 119.4 c h
149.199 126.4 m 148.879 126.916 148.98 127.701 149.418 128.138 c 149.953
 128.673 150.414 128.627 150.801 128.002 c 151.121 127.482 151.02 126.701
 150.582 126.259 c 150.047 125.728 149.586 125.775 149.199 126.4 c h
167.484 127.994 m 166.223 128.502 165.656 129.595 165.336 132.142 c 165.098
 134.045 164.66 136.771 164.359 138.201 c 163.609 141.802 165.18 141.56 
167.109 137.783 c 168.457 135.134 170.273 127.115 169.492 127.252 c 169.332
 127.279 168.43 127.611 167.484 127.994 c h
191.668 151.091 m 191.32 151.65 191.254 152.322 191.52 152.587 c 192.234
 153.302 193.016 152.248 192.629 151.087 c 192.359 150.275 192.172 150.279
 191.668 151.091 c h
160.641 107.361 m 162.016 108.736 161.824 111.962 160.332 112.537 c 159.637
 112.802 158.816 113.701 158.508 114.529 c 158.02 115.853 157.77 115.9 156.434
 114.923 c 155.062 113.92 155.02 113.556 155.992 111.107 c 157.848 106.435
 158.883 105.603 160.641 107.361 c h
124.637 124.455 m 126.75 125.935 126.273 127.201 123.602 127.201 c 121.438
 127.201 120.449 126.072 121.105 124.361 c 121.672 122.877 122.414 122.896
 124.637 124.455 c h
62.695 195.298 m 65.277 196.474 65.926 198.97 63.93 200.037 c 61.816 201.17
 59.199 199.654 59.199 197.306 c 59.199 195.701 59.781 194.4 60.496 194.4
 c 60.621 194.4 61.609 194.802 62.695 195.298 c h
176 236.826 m 176 237.783 173.742 238.81 173.086 238.154 c 172.387 237.451
 173.574 236.002 174.848 236.002 c 175.48 236.002 176 236.373 176 236.826
 c h
202.758 280.728 m 203.004 281.13 205.004 281.279 207.203 281.064 c 209.402
 280.845 211.199 280.939 211.199 281.271 c 211.199 282.435 208.539 284.798
 207.23 284.798 c 206.5 284.798 205.207 285.33 204.352 285.974 c 200.469
 288.912 196.312 285.908 198.867 282.009 c 200.203 279.97 201.938 279.4 
202.758 280.728 c h
76.648 10.146 m 77.227 10.377 77.918 10.349 78.184 10.084 c 78.449 9.818
 77.977 9.627 77.133 9.662 c 76.203 9.701 76.012 9.892 76.648 10.146 c h
183.207 49.189 m 182.406 50.154 182.465 50.474 183.512 50.877 c 185.285
 51.556 187.199 50.701 187.199 49.224 c 187.199 47.658 184.5 47.634 183.207
 49.189 c h
24.035 117.654 m 23.992 122.052 25.945 129.029 27.602 130.404 c 28.59 131.22
 28.801 131.142 28.801 129.955 c 28.801 128.486 28.449 127.244 25.656 118.798
 c 24.066 114.002 l h
276.836 183.13 m 276.219 184.287 276.207 184.798 276.797 184.798 c 277.766
 184.798 278.824 182.556 278.164 181.896 c 277.926 181.658 277.328 182.212
 276.836 183.13 c h
269.875 199.634 m 269.133 201.576 270.172 201.923 271.164 200.068 c 271.781
 198.912 271.793 198.4 271.203 198.4 c 270.734 198.4 270.137 198.955 269.875
 199.634 c h
f
Q Q
showpage
%%Trailer
end restore
%%EOF
