%!PS-Adobe-3.0 EPSF-3.0
%%Creator: cairo 1.12.2 (http://cairographics.org)
%%CreationDate: Sun Mar  1 22:12:24 2015
%%Pages: 1
%%DocumentData: Clean7Bit
%%LanguageLevel: 2
%%BoundingBox: 0 -1 129 153
%%EndComments
%%BeginProlog
save
50 dict begin
/q { gsave } bind def
/Q { grestore } bind def
/cm { 6 array astore concat } bind def
/w { setlinewidth } bind def
/J { setlinecap } bind def
/j { setlinejoin } bind def
/M { setmiterlimit } bind def
/d { setdash } bind def
/m { moveto } bind def
/l { lineto } bind def
/c { curveto } bind def
/h { closepath } bind def
/re { exch dup neg 3 1 roll 5 3 roll moveto 0 rlineto
      0 exch rlineto 0 rlineto closepath } bind def
/S { stroke } bind def
/f { fill } bind def
/f* { eofill } bind def
/n { newpath } bind def
/W { clip } bind def
/W* { eoclip } bind def
/BT { } bind def
/ET { } bind def
/pdfmark where { pop globaldict /?pdfmark /exec load put }
    { globaldict begin /?pdfmark /pop load def /pdfmark
    /cleartomark load def end } ifelse
/BDC { mark 3 1 roll /BDC pdfmark } bind def
/EMC { mark /EMC pdfmark } bind def
/cairo_store_point { /cairo_point_y exch def /cairo_point_x exch def } def
/Tj { show currentpoint cairo_store_point } bind def
/TJ {
  {
    dup
    type /stringtype eq
    { show } { -0.001 mul 0 cairo_font_matrix dtransform rmoveto } ifelse
  } forall
  currentpoint cairo_store_point
} bind def
/cairo_selectfont { cairo_font_matrix aload pop pop pop 0 0 6 array astore
    cairo_font exch selectfont cairo_point_x cairo_point_y moveto } bind def
/Tf { pop /cairo_font exch def /cairo_font_matrix where
      { pop cairo_selectfont } if } bind def
/Td { matrix translate cairo_font_matrix matrix concatmatrix dup
      /cairo_font_matrix exch def dup 4 get exch 5 get cairo_store_point
      /cairo_font where { pop cairo_selectfont } if } bind def
/Tm { 2 copy 8 2 roll 6 array astore /cairo_font_matrix exch def
      cairo_store_point /cairo_font where { pop cairo_selectfont } if } bind def
/g { setgray } bind def
/rg { setrgbcolor } bind def
/d1 { setcachedevice } bind def
%%EndProlog
%%Page: 1 1
%%BeginPageSetup
%%PageBoundingBox: 0 -1 129 153
%%EndPageSetup
q 0 -1 129 154 rectclip q
1 g
25.902 41.936 m 39.316 20.553 l 56.715 11.749 l 83.125 20.346 l 99.055 
45.081 l 97.379 68.135 l 84.383 97.061 l 78.305 108.592 l 45.812 108.171
 l 44.137 98.319 l 32.816 79.245 l 25.273 58.495 l h
f
0.756863 0.756863 0.74902 rg
99 34.995 m 95.336 35.315 92.453 38.046 92.191 43.471 c 93.035 57.874 93.875
 72.788 83.902 82.401 c 82.352 94.374 76.832 98.772 74.23 106.46 c 70.137
 109.397 l 75.035 117.069 l 77.133 117.01 l 97.598 75.632 l 101.883 54.768
 l h
f
48.828 109.792 m 48.211 105.749 47.871 101.784 48.453 97.948 c 44.188 92.147
 40.949 86.292 40.574 80.268 c 37.34 71.643 29.652 64.35 30.98 47.323 c 
35.301 42.815 41.344 38.624 46.523 34.264 c 53.035 28.823 49.164 21.639 
39.996 23.339 c 37.957 25.585 33.336 39.655 24.582 48.315 c 26.301 59.671
 l 34.57 81.803 l 44.859 98.268 l 46 105.374 l 44.562 123.542 l 45.758 130.182
 l h
f
43.477 135.327 m 43.719 136.635 44.035 137.87 44.43 139.03 c 45.047 134.971
 l h
f
44.859 94.003 m 41.586 87.94 40.445 82.104 47.965 81.073 c 43.832 80.12
 38.688 76.284 33.484 69.831 c 33.598 82.944 l 39.789 93.272 l h
f
4.789 11.366 m 16.16 6.26 24.188 6.542 31.43 2.928 c 37.152 -0.083 42.934
 0.272 46.414 3.921 c 49.367 7.737 51.559 7.924 55.918 8.319 c 63.043 8.749
 70.004 8.823 76.289 8.167 c 83.473 7.589 l 83.344 -0.474 98.664 -1.466 
103.172 4.651 c 108.617 11.124 116.102 14.022 122.52 18.717 c 88.602 35.518
 l 79.902 14.491 47.48 8.991 42.988 25.717 c h
f
87.852 39.147 m 84.578 39.167 81.23 38.1 81.492 33.799 c 82.594 22.292 
l 92.527 27.436 l h
f
0 g
3.723 10.655 m 15.281 5.549 23.457 5.846 30.828 2.217 c 36.648 -0.775 42.523
 -0.439 46.078 3.229 c 49.09 7.026 51.316 7.214 55.75 7.608 c 62.988 8.057
 70.078 8.112 76.477 7.475 c 83.773 6.878 l 83.641 -1.185 99.246 -2.158 
103.828 3.96 c 109.367 10.432 116.98 13.311 123.508 18.026 c 88.992 34.807
 l 80.145 13.799 47.16 8.299 42.598 25.007 c h
f
0.301961 g
112.77 44.237 m 118.309 42.424 114.734 36.885 117.559 33.706 c 118.777 
31.01 121.34 28.635 125.625 26.428 c 132.789 22.815 124.184 16.342 115.484
 13.034 c 104.875 9.514 102.816 -0.177 91.199 2.686 c 86.992 4.089 85.758
 7.905 85.887 13.799 c 87.289 25.846 85.605 34.249 85.867 42.46 c 85.852
 45.753 87.102 46.147 93.258 45.284 c 93.988 35.315 104.988 35.053 112.77
 44.237 c h
f
0.8 g
101.676 9.253 m 109.984 12.452 118.363 16.663 125.117 20.815 c 127.195 
22.03 127.477 25.022 124.559 25.96 c 118.234 29.549 114.793 34.042 115.52
 39.878 c 115.633 41.917 113.125 44.089 112.453 42.143 c 106.934 23.585 
89.125 24.577 91.574 42.948 c 91.707 43.491 91.836 44.03 91.969 44.557 c
 88.77 45.21 87.535 44.499 87.684 42.049 c 90.152 14.456 l 90.77 8.167 95.879
 6.784 101.676 9.253 c h
f
0 g
105.531 84.366 m 111.949 75.987 118.516 54.862 113.312 44.35 c 107.215 
32.339 93.406 30.917 92.809 43.245 c 93.668 57.839 94.492 72.936 84.539 
82.663 c 82.988 94.807 77.449 99.257 74.848 107.042 c 66.207 113.327 l 48.133
 110.987 l 47.406 106.553 46.973 102.233 47.609 98.042 c 43.328 92.206 40.09
 86.311 39.715 80.268 c 36.48 71.608 28.789 64.257 30.117 47.155 c 34.441
 42.608 40.484 38.401 45.664 34.022 c 52.176 28.542 48.641 22.331 39.473
 24.049 c 33.914 30.186 28.172 36.21 22.598 42.331 c 16.648 46.557 14.441
 51.983 20.539 60.214 c 24.711 65.788 25.891 77.893 29.539 82.776 c 32.738
 87.585 37.395 91.885 40.781 96.694 c 42.578 99.858 43.141 102.288 42.859
 105.956 c 42.09 128.124 l 41.586 144.214 50.434 152.784 62.746 152.522 
c 76.703 152.389 88.152 142.846 88.301 125.749 c 89.48 117.424 87.027 112.655
 93.633 100.757 c 100.348 88.221 101.395 88.893 105.531 84.366 c h
f
0.756863 0.756863 0.74902 rg
81.324 93.178 m 81.902 90.952 l 80.387 93.682 78.574 98.378 76.289 100.436
 c 75.598 100.999 74.699 100.979 74.156 100.456 c 71.125 97.518 63.605 91.495
 57.582 92.28 c 52.941 92.749 48.414 95.874 47.422 99.257 c 46.898 101.69
 47.145 103.69 47.461 105.729 c 75.973 106.198 l 75.391 103.69 79.191 97.499
 81.324 93.178 c h
f
50.621 129.659 m 53.465 129.659 56.012 126.124 55.992 121.241 c 55.973 
117.967 53.84 117.124 52.23 115.682 c 51.52 115.03 51.352 111.495 50.473
 111.495 c 47.648 111.495 45.516 116.526 45.516 121.241 c 45.516 125.936
 47.797 129.659 50.621 129.659 c h
f
1 g
50.941 126.592 m 53.465 126.592 55.223 125.319 55.43 122.362 c 55.578 120.323
 55.039 117.049 53.617 116.358 c 52.961 116.038 50.695 113.178 49.91 113.214
 c 46.711 113.366 45.906 119.557 46.152 122.51 c 46.375 125.467 48.434 126.592
 50.941 126.592 c h
f
0 g
50.285 124.608 m 52.027 124.757 53.633 122.776 53.859 120.194 c 54.082 
117.612 52.828 115.366 51.09 115.217 c 49.352 115.065 47.742 117.049 47.516
 119.651 c 47.293 122.233 48.547 124.46 50.285 124.608 c h
f
0.756863 0.756863 0.74902 rg
52.68 120.811 m 52.773 120.342 52.25 120.1 52.102 120.565 c 51.949 121.147
 51.594 121.839 51.129 122.401 c 50.828 122.737 51.129 123.112 51.5 122.85
 c 52.156 122.307 52.531 121.632 52.68 120.811 c h
f
69.797 130.315 m 73.895 130.315 77.242 125.975 77.242 120.678 c 77.242 
115.366 73.895 111.046 69.797 111.046 c 65.699 111.046 62.391 115.366 62.391
 120.678 c 62.391 125.975 65.699 130.315 69.797 130.315 c h
f
1 g
71.836 126.608 m 74.664 125.6 76.289 123.374 76.496 120.999 c 76.738 118.264
 75.637 115.178 73.258 113.366 c 72.586 112.858 64.805 115.928 64.355 117.089
 c 63.68 118.753 63.27 121.952 63.773 123.842 c 63.98 124.589 64.672 125.674
 65.699 126.253 c 67.328 127.171 69.723 127.358 71.836 126.608 c h
f
0 g
69.781 125.057 m 72.043 125.057 73.895 122.885 73.895 120.249 c 73.895 
117.592 72.043 115.421 69.781 115.421 c 67.516 115.421 65.664 117.592 65.664
 120.249 c 65.664 122.885 67.516 125.057 69.781 125.057 c h
f
0.756863 0.756863 0.74902 rg
72.438 122.081 m 72.699 121.651 72.27 121.202 71.949 121.632 c 71.574 122.155
 70.957 122.717 70.305 123.112 c 69.875 123.335 70.023 123.842 70.508 123.69
 c 71.352 123.409 71.988 122.866 72.438 122.081 c h
f
0.301961 g
56.289 118.94 m 58.219 119.499 61.266 119.315 63.383 118.901 c 65.496 118.339
 71.125 115.366 77.094 112.128 c 77.863 111.737 78.086 110.464 77.094 110.053
 c 75.559 109.94 78.199 106.163 75.504 104.815 c 71.465 103.768 64.992 97.76
 61.793 97.276 c 60.016 96.882 58.18 96.827 56.199 97.276 c 49.949 98.546
 48.301 105.655 45.367 107.096 c 44.562 107.94 44.973 109.397 45.234 109.698
 c 45.551 111.214 52.324 118.491 56.289 118.94 c h
f
0.701961 g
61.605 118.585 m 64.992 118.21 72.176 113.889 75.637 112.147 c 76.496 111.678
 76.441 110.276 75.672 110.053 c 74.848 109.585 74.605 110.167 73.953 110.257
 c 72.902 110.819 71.184 109.471 69.816 108.444 c 61.941 102.495 60.371 
103.151 54.008 103.823 c 51.801 104.366 50.359 105.038 49.723 105.561 c 
50.191 108.182 55.133 118.116 56.758 118.339 c 57.172 118.882 60.184 118.901
 61.605 118.585 c h
f
0.717647 0.447059 0 rg
62.969 116.975 m 63.773 116.62 l 64.371 116.284 63.645 115.385 62.988 115.667
 c 61.809 116.077 l 61.117 116.655 61.941 117.479 62.969 116.975 c h
f
1 g
110.844 47.214 m 111.723 46.538 110.414 45.436 109.832 45.714 c 109.348
 45.885 108.992 46.444 108.766 46.725 c 108.562 47.042 108.582 47.569 108.766
 47.753 c 108.973 48.018 109.496 47.96 109.832 47.737 c 110.172 47.569 110.508
 47.382 110.844 47.214 c h
f
90.715 80.737 m 101.508 75.182 104.371 65.135 99.711 51.46 c 99.434 50.823
 100.254 50.374 100.535 50.971 c 105.625 65.452 102.145 75.592 91.125 81.503
 c 90.562 81.764 90.152 81.018 90.715 80.737 c h
f
32.141 76.061 m 23.383 61.057 23.328 51.85 29.668 47.007 c 29.988 46.764
 30.176 47.342 29.875 47.569 c 22.859 53.721 26.133 64.104 32.699 75.706
 c 32.887 76.042 32.27 76.342 32.141 76.061 c h
f
0.756863 0.756863 0.74902 rg
88.617 71.549 m 88.582 70.952 88.355 70.858 87.852 71.421 c 86.129 74.413
 74.512 80.757 68.863 81.467 c 67.797 81.842 67.852 82.327 68.898 82.475
 c 72.98 82.475 76.121 84.272 79.676 84.272 c 80.648 84.237 81.586 83.862
 82.125 83.299 c 83.457 82.44 88.281 75.78 88.617 71.549 c h
f
60.238 81.952 m 60.426 80.924 55.992 82.253 56.234 79.389 c 56.309 78.604
 55.133 78.174 55.168 79.389 c 55.168 81.581 55.281 81.542 53.109 81.952
 c 52.719 81.971 52.754 82.553 53.109 82.475 c 54.664 82.046 56.758 82.983
 56.664 84.03 c 56.629 84.385 57.227 84.331 57.207 84.03 c 57.078 82.366
 60.633 83.171 60.238 81.952 c h
f
52.812 40.757 m 52.828 39.991 52.082 40.159 52.027 40.702 c 49.855 47.214
 50.773 63.245 52.887 68.409 c 53.035 69.155 54.027 68.932 53.895 68.409
 c 51.652 58.924 51.688 49.159 52.812 40.757 c h
f
0.301961 g
26.863 46.202 m 33.094 40.12 37.172 30.917 43.215 22.592 c 52.008 12.003
 44.992 1.022 30.699 4.335 c 23.531 7.026 13.227 6.729 4.938 9.46 c -0.883
 10.882 -1.086 13.76 1.887 19.393 c 2.934 22.983 3.027 28.823 2.055 33.686
 c 1.531 37.37 3.234 39.428 7.164 39.858 c 10.492 39.897 15.133 38.549 17.66
 45.678 c 19.547 49.085 24.074 49.174 26.863 46.202 c h
f
0.8 g
19.828 42.405 m 19.621 47.1 23.645 48.053 26.34 45.19 c 31.148 39.299 35.543
 32.788 39.508 25.268 c 45.832 15.089 40.613 5.081 31.074 8.878 c 26.34 
11.534 15.02 12.714 8.922 13.799 c 4.844 14.135 4.301 16.792 5.855 18.288
 c 7.988 20.741 8.211 26.616 6.191 31.628 c 4.188 34.733 7.949 38.159 10.906
 36.737 c 13.637 35.128 20.09 38.757 19.828 42.405 c h
f
Q Q
showpage
%%Trailer
end restore
%%EOF
