%!PS-Adobe-3.0 EPSF-3.0
%%Creator: cairo 1.12.2 (http://cairographics.org)
%%CreationDate: Mon Mar  2 20:30:23 2015
%%Pages: 1
%%DocumentData: Clean7Bit
%%LanguageLevel: 2
%%BoundingBox: 0 -1 190 197
%%EndComments
%%BeginProlog
save
50 dict begin
/q { gsave } bind def
/Q { grestore } bind def
/cm { 6 array astore concat } bind def
/w { setlinewidth } bind def
/J { setlinecap } bind def
/j { setlinejoin } bind def
/M { setmiterlimit } bind def
/d { setdash } bind def
/m { moveto } bind def
/l { lineto } bind def
/c { curveto } bind def
/h { closepath } bind def
/re { exch dup neg 3 1 roll 5 3 roll moveto 0 rlineto
      0 exch rlineto 0 rlineto closepath } bind def
/S { stroke } bind def
/f { fill } bind def
/f* { eofill } bind def
/n { newpath } bind def
/W { clip } bind def
/W* { eoclip } bind def
/BT { } bind def
/ET { } bind def
/pdfmark where { pop globaldict /?pdfmark /exec load put }
    { globaldict begin /?pdfmark /pop load def /pdfmark
    /cleartomark load def end } ifelse
/BDC { mark 3 1 roll /BDC pdfmark } bind def
/EMC { mark /EMC pdfmark } bind def
/cairo_store_point { /cairo_point_y exch def /cairo_point_x exch def } def
/Tj { show currentpoint cairo_store_point } bind def
/TJ {
  {
    dup
    type /stringtype eq
    { show } { -0.001 mul 0 cairo_font_matrix dtransform rmoveto } ifelse
  } forall
  currentpoint cairo_store_point
} bind def
/cairo_selectfont { cairo_font_matrix aload pop pop pop 0 0 6 array astore
    cairo_font exch selectfont cairo_point_x cairo_point_y moveto } bind def
/Tf { pop /cairo_font exch def /cairo_font_matrix where
      { pop cairo_selectfont } if } bind def
/Td { matrix translate cairo_font_matrix matrix concatmatrix dup
      /cairo_font_matrix exch def dup 4 get exch 5 get cairo_store_point
      /cairo_font where { pop cairo_selectfont } if } bind def
/Tm { 2 copy 8 2 roll 6 array astore /cairo_font_matrix exch def
      cairo_store_point /cairo_font where { pop cairo_selectfont } if } bind def
/g { setgray } bind def
/rg { setrgbcolor } bind def
/d1 { setcachedevice } bind def
%%EndProlog
%%Page: 1 1
%%BeginPageSetup
%%PageBoundingBox: 0 -1 190 197
%%EndPageSetup
q 0 -1 190 198 rectclip q
0 g
18.168 116.456 m 8.133 116.456 0 108.324 0 98.288 c 0 88.253 8.133 80.124
 18.168 80.124 c 28.203 80.124 36.332 88.253 36.332 98.288 c 36.332 108.324
 28.203 116.456 18.168 116.456 c h
147.871 33.894 m 139.184 28.874 136.203 17.769 141.223 9.085 c 146.234 
0.398 157.34 -2.579 166.027 2.437 c 174.719 7.452 177.695 18.554 172.676
 27.245 c 167.664 35.929 156.555 38.906 147.871 33.894 c h
57.629 98.288 m 57.629 116.238 66.543 132.097 80.188 141.702 c 66.906 163.949
 l 51.016 153.324 39.188 137.089 34.273 118.074 c 40.008 113.394 43.68 106.273
 43.68 98.288 c 43.68 90.308 40.008 83.183 34.273 78.503 c 39.184 59.488
 51.008 43.249 66.906 32.628 c 80.188 54.874 l 66.543 64.476 57.629 80.335
 57.629 98.288 c h
110.688 151.351 m 138.406 151.351 161.152 130.097 163.539 102.995 c 189.422
 103.374 l 188.148 123.386 179.406 141.351 165.977 154.558 c 159.066 151.949
 151.09 152.351 144.195 156.324 c 137.285 160.312 132.953 167.034 131.77
 174.335 c 125.059 176.187 117.992 177.202 110.688 177.202 c 98.129 177.202
 86.258 174.253 75.715 169.034 c 88.336 146.417 l 95.129 149.577 102.703
 151.351 110.688 151.351 c h
110.688 45.226 m 102.703 45.226 95.129 47.003 88.336 50.163 c 75.715 27.542
 l 86.258 22.32 98.129 19.37 110.688 19.37 c 117.992 19.37 125.059 20.386
 131.77 22.242 c 132.957 29.542 137.289 36.261 144.195 40.257 c 151.094 
44.238 159.07 44.628 165.977 42.019 c 179.406 55.23 188.148 73.195 189.422
 93.202 c 163.531 93.585 l 161.152 66.472 138.41 45.226 110.688 45.226 c
 h
147.867 162.691 m 156.555 157.675 167.66 160.648 172.672 169.335 c 177.691
 178.023 174.719 189.128 166.027 194.148 c 157.34 199.159 146.234 196.183
 141.215 187.492 c 136.203 178.808 139.184 167.702 147.867 162.691 c h
f
Q Q
showpage
%%Trailer
end restore
%%EOF
